Time,PanelLabel,Voltage1_raw,Voltage1_avg,Prev_dif1_avg,NN6Label1,NN12Label1,NN24Label1,NN36Label1,LGRLabel1,GNBLabel1,DTLabel1,RFLabel1,SEFRLabel1,Thresh1Label1,Thresh2Label1,Thresh3Label1,,101
36.44,1,2.70,0.06,0.13,0,0,0,0,0,0,1,1,0,1,1,1
37.44,1,2.66,0.11,0.25,0,0,0,0,0,0,1,1,0,1,1,1
38.44,1,3.17,0.18,0.40,0,0,0,0,0,0,1,1,0,1,1,1
39.44,1,2.54,0.23,0.52,0,0,0,0,0,0,1,1,0,0,1,1
40.44,1,2.49,0.28,0.64,0,0,0,0,0,0,1,1,0,0,1,1
41.44,1,2.48,0.33,0.76,0,0,0,0,0,0,1,1,0,0,1,1
42.45,1,2.66,0.39,0.89,0,0,0,0,0,0,1,1,0,0,1,1
43.45,1,2.31,0.44,1.00,0,0,0,0,0,1,1,1,1,0,1,1
44.45,1,2.33,0.49,1.11,0,0,0,0,0,1,1,1,1,0,1,1
45.45,1,2.37,0.53,1.23,0,0,0,0,0,1,1,1,1,0,1,1
46.45,1,2.47,0.59,1.35,0,0,0,0,0,1,1,1,1,0,1,1
47.45,1,2.48,0.64,1.47,0,0,0,0,0,1,1,1,1,0,1,1
48.45,1,2.55,0.69,1.59,1,1,1,1,0,1,1,1,1,1,1,1
49.45,1,2.76,0.75,1.72,1,1,1,1,1,1,1,1,1,1,1,1
50.45,1,2.72,0.80,1.85,1,1,1,1,1,1,1,1,1,1,1,1
51.45,1,2.61,0.80,1.75,1,1,1,1,1,1,1,1,1,1,1,1
52.46,1,2.51,0.80,1.65,1,1,1,1,1,1,1,1,1,1,1,1
53.46,1,2.49,0.78,1.51,1,1,1,1,1,1,1,1,1,1,1,1
54.46,1,2.48,0.78,1.42,1,1,1,1,1,1,1,1,1,0,1,1
55.46,1,2.38,0.78,1.33,1,1,1,1,1,1,1,1,1,0,1,1
56.46,1,2.33,0.78,1.24,1,1,1,1,1,1,1,1,1,0,1,1
57.46,1,2.44,0.77,1.14,1,1,1,1,1,1,1,1,1,0,1,1
58.46,1,2.44,0.78,1.07,1,1,1,1,1,1,1,1,1,0,1,1
59.46,1,2.46,0.78,0.99,1,1,1,1,1,1,1,1,1,0,1,1
60.46,1,2.42,0.78,0.91,1,1,1,1,1,1,1,1,1,0,1,1
61.46,1,3.42,0.80,0.86,1,1,1,1,1,1,1,1,1,0,1,1
62.47,0,2.71,0.81,0.78,1,1,1,1,1,1,1,1,1,0,1,1
63.47,0,2.57,0.81,0.69,1,1,1,1,1,1,1,1,1,0,1,1
64.47,0,2.50,0.80,0.59,1,1,1,1,1,1,1,1,1,0,1,0
65.47,0,2.49,0.80,0.48,0,0,0,0,0,0,0,0,0,0,0,0
66.47,0,2.56,0.79,0.49,0,0,0,0,0,0,0,0,0,0,0,0
67.47,0,2.34,0.79,0.48,0,0,0,0,0,0,0,0,0,0,0,0
68.47,0,2.48,0.79,0.51,0,0,0,0,0,0,0,0,0,0,0,0
69.47,0,2.50,0.79,0.51,0,0,0,0,0,0,0,0,0,0,0,0
70.47,0,2.52,0.79,0.52,0,0,0,0,1,0,0,0,1,0,0,0
71.47,0,2.74,0.80,0.54,1,1,1,1,1,1,1,1,1,0,1,0
72.47,0,2.73,0.81,0.56,1,1,1,1,1,1,0,0,1,0,1,0
73.48,0,2.66,0.81,0.56,1,1,1,1,1,1,0,0,1,0,1,0
74.48,0,2.35,0.81,0.56,1,1,1,1,1,1,0,0,1,0,1,0
75.48,0,2.48,0.81,0.56,1,1,1,1,1,1,0,0,1,0,1,0
76.48,0,2.38,0.79,0.48,0,0,0,0,0,0,0,0,0,0,0,0
77.48,0,2.36,0.78,0.46,0,0,0,0,0,0,0,0,0,0,0,0
78.48,0,2.38,0.78,0.45,0,0,0,0,0,0,0,0,0,0,0,0
79.48,0,2.47,0.78,0.46,0,0,0,0,0,0,0,0,0,0,0,0
80.48,0,2.47,0.78,0.47,0,0,0,0,0,0,0,0,0,0,0,0
81.48,0,2.66,0.78,0.47,0,0,0,0,0,0,0,0,0,0,0,0
82.48,0,2.69,0.79,0.49,0,0,0,0,0,0,0,0,0,0,0,0
83.49,0,2.61,0.79,0.50,0,0,0,0,0,0,0,0,0,0,0,0
84.49,0,2.51,0.79,0.50,0,0,0,0,0,0,0,0,0,0,0,0
85.49,0,2.46,0.79,0.49,0,0,0,0,0,0,0,0,0,0,0,0
86.49,0,2.44,0.78,0.46,0,0,0,0,0,0,0,0,0,0,0,0
87.49,0,2.32,0.77,0.44,0,0,0,0,0,0,0,0,0,0,0,0
88.49,0,2.31,0.76,0.42,0,0,0,0,0,0,0,0,0,0,0,0
89.49,0,2.42,0.77,0.42,0,0,0,0,0,0,0,0,0,0,0,0
90.49,0,2.46,0.77,0.42,0,0,0,0,0,0,0,0,0,0,0,0
91.49,0,2.49,0.77,0.46,0,0,0,0,0,0,0,0,0,0,0,0
92.50,0,2.67,0.78,0.49,0,0,0,0,0,0,0,0,0,0,0,0
93.50,0,2.65,0.78,0.51,0,0,0,0,0,0,0,0,0,0,0,0
94.50,0,2.50,0.78,0.51,0,0,0,0,0,0,0,0,0,0,0,0
95.50,0,2.45,0.78,0.51,0,0,0,0,0,0,0,0,0,0,0,0
96.50,0,2.45,0.78,0.50,0,0,0,0,0,0,0,0,0,0,0,0
97.50,0,2.13,0.76,0.46,0,0,0,0,0,0,0,0,0,0,0,0
98.50,0,2.30,0.76,0.45,0,0,0,0,0,0,0,0,0,0,0,0
99.50,0,2.30,0.75,0.44,0,0,0,0,0,0,0,0,0,0,0,0
100.50,0,2.41,0.75,0.44,0,0,0,0,0,0,0,0,0,0,0,0
101.50,0,2.42,0.75,0.45,0,0,0,0,0,0,0,0,0,0,0,0
102.50,0,2.57,0.76,0.47,0,0,0,0,0,0,0,0,0,0,0,0
103.51,0,2.66,0.76,0.50,0,0,0,0,0,0,0,0,0,0,0,0
104.51,0,2.60,0.77,0.50,0,0,0,0,0,0,0,0,0,0,0,0
105.51,0,2.47,0.77,0.50,0,0,0,0,0,0,0,0,0,0,0,0
106.51,0,2.42,0.77,0.50,0,0,0,0,0,0,0,0,0,0,0,0
107.51,0,2.19,0.76,0.47,0,0,0,0,0,0,0,0,0,0,0,0
108.51,0,2.27,0.75,0.44,0,0,0,0,0,0,0,0,0,0,0,0
109.51,0,2.29,0.74,0.44,0,0,0,0,0,0,0,0,0,0,0,0
110.51,0,2.40,0.74,0.43,0,0,0,0,0,0,0,0,0,0,0,0
111.51,0,2.39,0.74,0.44,0,0,0,0,0,0,0,0,0,0,0,0
112.51,0,2.46,0.75,0.47,0,0,0,0,0,0,0,0,0,0,0,0
113.52,0,2.65,0.76,0.50,0,0,0,0,0,0,0,0,0,0,0,0
114.52,0,2.56,0.76,0.51,0,0,0,0,0,0,0,0,0,0,0,0
115.52,0,2.40,0.76,0.52,0,0,0,0,0,0,0,0,0,0,0,0
116.52,0,2.40,0.76,0.52,0,0,0,0,0,0,0,0,0,0,0,0
117.52,0,2.34,0.76,0.50,0,0,0,0,0,0,0,0,0,0,0,0
118.52,0,2.27,0.75,0.47,0,0,0,0,0,0,0,0,0,0,0,0
119.52,0,2.41,0.74,0.46,0,0,0,0,0,0,0,0,0,0,0,0
120.52,0,2.37,0.74,0.45,0,0,0,0,0,0,0,0,0,0,0,0
121.52,0,2.39,0.74,0.45,0,0,0,0,0,0,0,0,0,0,0,0
122.53,0,2.58,0.75,0.49,0,0,0,0,0,0,0,0,0,0,0,0
123.53,0,2.94,0.76,0.53,0,0,0,0,0,0,0,0,0,0,0,0
124.53,0,2.55,0.77,0.54,0,0,0,0,0,0,0,0,0,0,0,0
125.53,0,2.44,0.77,0.55,0,0,0,0,0,0,0,0,1,0,0,0
126.53,0,2.38,0.77,0.55,0,0,0,0,0,0,0,0,1,0,0,0
127.53,0,2.34,0.77,0.53,0,0,0,0,0,0,0,0,0,0,0,0
128.53,0,2.26,0.76,0.50,0,0,0,0,0,0,0,0,0,0,0,0
129.53,0,2.32,0.75,0.49,0,0,0,0,0,0,0,0,0,0,0,0
130.53,0,2.39,0.75,0.49,0,0,0,0,0,0,0,0,0,0,0,0
131.54,0,2.39,0.75,0.49,0,0,0,0,0,0,0,0,0,0,0,0
132.54,0,2.49,0.76,0.50,0,0,0,0,0,0,0,0,0,0,0,0
133.54,0,2.60,0.76,0.53,0,0,0,0,0,0,0,0,0,0,0,0
134.54,0,2.63,0.77,0.54,0,0,0,0,0,0,0,0,0,0,0,0
135.54,0,2.40,0.77,0.55,0,0,0,0,0,0,0,0,1,0,0,0
136.54,0,2.38,0.77,0.55,0,0,0,0,0,0,0,0,1,0,0,0
137.54,0,2.27,0.76,0.52,0,0,0,0,0,0,0,0,0,0,0,0
138.54,0,2.22,0.75,0.47,0,0,0,0,0,0,0,0,0,0,0,0
139.54,0,2.30,0.74,0.45,0,0,0,0,0,0,0,0,0,0,0,0
140.54,0,2.32,0.74,0.45,0,0,0,0,0,0,0,0,0,0,0,0
141.55,0,2.43,0.74,0.45,0,0,0,0,0,0,0,0,0,0,0,0
142.55,0,2.57,0.74,0.46,0,0,0,0,0,0,0,0,0,0,0,0
143.55,0,2.65,0.75,0.49,0,0,0,0,0,0,0,0,0,0,0,0
144.55,0,2.47,0.76,0.50,0,0,0,0,0,0,0,0,0,0,0,0
145.55,0,2.37,0.76,0.50,0,0,0,0,0,0,0,0,0,0,0,0
146.55,0,2.37,0.75,0.50,0,0,0,0,0,0,0,0,0,0,0,0
147.55,0,2.27,0.75,0.49,0,0,0,0,0,0,0,0,0,0,0,0
148.55,0,2.22,0.74,0.46,0,0,0,0,0,0,0,0,0,0,0,0
149.55,0,2.18,0.73,0.44,0,0,0,0,0,0,0,0,0,0,0,0
150.55,0,2.37,0.73,0.44,0,0,0,0,0,0,0,0,0,0,0,0
151.55,0,2.36,0.73,0.44,0,0,0,0,0,0,0,0,0,0,0,0
152.56,0,2.56,0.74,0.46,0,0,0,0,0,0,0,0,0,0,0,0
153.56,0,2.57,0.74,0.50,0,0,0,0,0,0,0,0,0,0,0,0
154.56,0,2.40,0.75,0.51,0,0,0,0,0,0,0,0,0,0,0,0
155.56,0,2.36,0.75,0.52,0,0,0,0,0,0,0,0,0,0,0,0
156.56,0,2.38,0.75,0.51,0,0,0,0,0,0,0,0,0,0,0,0
157.56,0,2.22,0.74,0.49,0,0,0,0,0,0,0,0,0,0,0,0
158.56,0,2.22,0.73,0.46,0,0,0,0,0,0,0,0,0,0,0,0
159.56,0,2.34,0.73,0.45,0,0,0,0,0,0,0,0,0,0,0,0
160.57,0,2.34,0.73,0.45,0,0,0,0,0,0,0,0,0,0,0,0
161.57,0,2.48,0.73,0.46,0,0,0,0,0,0,0,0,0,0,0,0
162.57,0,2.58,0.74,0.48,0,0,0,0,0,0,0,0,0,0,0,0
163.57,0,2.53,0.74,0.50,0,0,0,0,0,0,0,0,0,0,0,0
164.57,0,2.48,0.75,0.53,0,0,0,0,0,0,0,0,0,0,0,0
165.57,0,2.38,0.75,0.53,0,0,0,0,0,0,0,0,0,0,0,0
166.57,0,2.36,0.75,0.53,0,0,0,0,0,0,0,0,0,0,0,0
167.57,0,2.23,0.74,0.51,0,0,0,0,0,0,0,0,0,0,0,0
168.57,0,2.25,0.73,0.48,0,0,0,0,0,0,0,0,0,0,0,0
169.57,0,2.30,0.73,0.48,0,0,0,0,0,0,0,0,0,0,0,0
170.58,0,2.34,0.73,0.47,0,0,0,0,0,0,0,0,0,0,0,0
171.58,0,2.37,0.73,0.48,0,0,0,0,0,0,0,0,0,0,0,0
172.58,0,2.57,0.74,0.50,0,0,0,0,0,0,0,0,0,0,0,0
173.58,0,2.57,0.75,0.53,0,0,0,0,0,0,0,0,0,0,0,0
174.58,0,2.45,0.75,0.54,0,0,0,0,0,0,0,0,0,0,0,0
175.58,0,2.36,0.75,0.54,0,0,0,0,0,0,0,0,0,0,0,0
176.58,0,2.34,0.75,0.53,0,0,0,0,0,0,0,0,0,0,0,0
177.58,0,2.25,0.74,0.51,0,0,0,0,0,0,0,0,0,0,0,0
178.58,0,2.20,0.73,0.48,0,0,0,0,0,0,0,0,0,0,0,0
179.58,0,2.23,0.73,0.46,0,0,0,0,0,0,0,0,0,0,0,0
180.59,0,2.33,0.73,0.46,0,0,0,0,0,0,0,0,0,0,0,0
181.59,0,2.40,0.73,0.46,0,0,0,0,0,0,0,0,0,0,0,0
182.59,0,2.48,0.73,0.48,0,0,0,0,0,0,0,0,0,0,0,0
183.59,0,2.54,0.74,0.51,0,0,0,0,0,0,0,0,0,0,0,0
184.59,0,2.53,0.74,0.52,0,0,0,0,0,0,0,0,0,0,0,0
185.59,0,2.14,0.74,0.51,0,0,0,0,0,0,0,0,0,0,0,0
186.59,0,2.34,0.74,0.51,0,0,0,0,0,0,0,0,0,0,0,0
187.59,0,2.25,0.73,0.49,0,0,0,0,0,0,0,0,0,0,0,0
188.59,0,2.22,0.72,0.46,0,0,0,0,0,0,0,0,0,0,0,0
189.59,0,2.13,0.72,0.45,0,0,0,0,0,0,0,0,0,0,0,0
190.60,0,2.28,0.72,0.44,0,0,0,0,0,0,0,0,0,0,0,0
191.60,0,2.33,0.72,0.45,0,0,0,0,0,0,0,0,0,0,0,0
192.60,0,2.51,0.72,0.47,0,0,0,0,0,0,0,0,0,0,0,0
193.60,0,2.52,0.73,0.49,0,0,0,0,0,0,0,0,0,0,0,0
194.60,0,2.37,0.73,0.51,0,0,0,0,0,0,0,0,0,0,0,0
195.60,0,2.34,0.73,0.51,0,0,0,0,0,0,0,0,0,0,0,0
196.60,0,2.30,0.73,0.50,0,0,0,0,0,0,0,0,0,0,0,0
197.60,0,2.13,0.72,0.48,0,0,0,0,0,0,0,0,0,0,0,0
198.60,0,2.31,0.72,0.46,0,0,0,0,0,0,0,0,0,0,0,0
199.61,0,2.31,0.71,0.45,0,0,0,0,0,0,0,0,0,0,0,0
200.61,0,2.35,0.72,0.46,0,0,0,0,0,0,0,0,0,0,0,0
201.61,0,2.44,0.72,0.47,0,0,0,0,0,0,0,0,0,0,0,0
202.61,0,2.57,0.73,0.49,0,0,0,0,0,0,0,0,0,0,0,0
203.61,0,2.48,0.73,0.51,0,0,0,0,0,0,0,0,0,0,0,0
204.61,0,2.36,0.74,0.53,0,0,0,0,0,0,0,0,0,0,0,0
205.61,0,2.34,0.74,0.54,0,0,0,0,0,0,0,0,0,0,0,0
206.61,0,1.85,0.73,0.52,0,0,0,0,0,0,0,0,0,0,0,0
207.61,0,2.20,0.72,0.50,0,0,0,0,0,0,0,0,0,0,0,0
208.61,0,2.23,0.71,0.48,0,0,0,0,0,0,0,0,0,0,0,0
209.62,0,2.32,0.71,0.47,0,0,0,0,0,0,0,0,0,0,0,0
210.62,0,2.33,0.71,0.47,0,0,0,0,0,0,0,0,0,0,0,0
211.62,0,2.52,0.72,0.48,0,0,0,0,0,0,0,0,0,0,0,0
212.62,0,2.50,0.73,0.51,0,0,0,0,0,0,0,0,0,0,0,0
213.62,0,2.46,0.73,0.52,0,0,0,0,0,0,0,0,0,0,0,0
214.62,0,2.37,0.73,0.53,0,0,0,0,0,0,0,0,0,0,0,0
215.62,0,2.32,0.73,0.52,0,0,0,0,0,0,0,0,0,0,0,0
216.62,0,2.23,0.72,0.51,0,0,0,0,0,0,0,0,0,0,0,0
217.62,0,2.16,0.72,0.48,0,0,0,0,0,0,0,0,0,0,0,0
218.62,0,2.13,0.71,0.46,0,0,0,0,0,0,0,0,0,0,0,0
219.63,0,2.31,0.71,0.45,0,0,0,0,0,0,0,0,0,0,0,0
220.63,0,2.35,0.71,0.45,0,0,0,0,0,0,0,0,0,0,0,0
221.63,0,2.50,0.72,0.49,0,0,0,0,0,0,0,0,0,0,0,0
222.63,0,2.54,0.73,0.52,0,0,0,0,0,0,0,0,0,0,0,0
223.63,0,2.14,0.73,0.52,0,0,0,0,0,0,0,0,0,0,0,0
224.63,0,2.34,0.73,0.53,0,0,0,0,0,0,0,0,0,0,0,0
225.63,0,2.33,0.73,0.53,0,0,0,0,0,0,0,0,0,0,0,0
226.63,0,2.19,0.72,0.50,0,0,0,0,0,0,0,0,0,0,0,0
227.63,0,2.18,0.71,0.48,0,0,0,0,0,0,0,0,0,0,0,0
228.63,0,2.26,0.71,0.47,0,0,0,0,0,0,0,0,0,0,0,0
229.63,0,2.29,0.71,0.46,0,0,0,0,0,0,0,0,0,0,0,0
230.64,0,2.39,0.71,0.46,0,0,0,0,0,0,0,0,0,0,0,0
231.64,0,2.49,0.71,0.48,0,0,0,0,0,0,0,0,0,0,0,0
232.64,0,2.41,0.72,0.51,0,0,0,0,0,0,0,0,0,0,0,0
233.64,0,2.31,0.72,0.53,0,0,0,0,0,0,0,0,0,0,0,0
234.64,0,2.29,0.72,0.53,0,0,0,0,0,0,0,0,0,0,0,0
235.64,0,2.17,0.72,0.52,0,0,0,0,0,0,0,0,0,0,0,0
236.64,0,2.22,0.71,0.49,0,0,0,0,0,0,0,0,0,0,0,0
237.64,0,2.28,0.71,0.46,0,0,0,0,0,0,0,0,0,0,0,0
238.65,0,2.31,0.71,0.47,0,0,0,0,0,0,0,0,0,0,0,0
239.65,0,2.45,0.71,0.48,0,0,0,0,0,0,0,0,0,0,0,0
240.65,0,1.77,0.70,0.46,0,0,0,0,0,0,0,0,0,0,0,0
241.65,0,2.37,0.70,0.47,0,0,0,0,0,0,0,0,0,0,0,0
242.65,0,2.31,0.71,0.49,0,0,0,0,0,0,0,0,0,0,0,0
243.65,0,2.13,0.70,0.49,0,0,0,0,0,0,0,0,0,0,0,0
244.65,0,2.18,0.70,0.49,0,0,0,0,0,0,0,0,0,0,0,0
245.65,0,2.19,0.70,0.48,0,0,0,0,0,0,0,0,0,0,0,0
246.65,0,2.26,0.69,0.46,0,0,0,0,0,0,0,0,0,0,0,0
247.65,0,2.32,0.69,0.45,0,0,0,0,0,0,0,0,0,0,0,0
248.66,0,2.53,0.70,0.45,0,0,0,0,0,0,0,0,0,0,0,0
249.66,0,2.76,0.71,0.47,0,0,0,0,0,0,0,0,0,0,0,0
250.66,0,2.36,0.71,0.48,0,0,0,0,0,0,0,0,0,0,0,0
251.66,0,2.32,0.71,0.50,0,0,0,0,0,0,0,0,0,0,0,0
252.66,0,2.25,0.71,0.51,0,0,0,0,0,0,0,0,0,0,0,0
253.66,0,2.18,0.71,0.50,0,0,0,0,0,0,0,0,0,0,0,0
254.66,0,2.25,0.70,0.49,0,0,0,0,0,0,0,0,0,0,0,0
255.66,0,2.27,0.72,0.52,0,0,0,0,0,0,0,0,0,0,0,0
256.66,0,2.40,0.72,0.52,0,0,0,0,0,0,0,0,0,0,0,0
257.66,0,2.50,0.72,0.52,0,0,0,0,0,0,0,0,0,0,0,0
258.67,0,2.51,0.73,0.54,0,0,0,0,0,0,0,0,0,0,0,0
259.67,0,2.34,0.73,0.55,0,0,0,0,0,0,0,0,0,0,0,0
260.67,0,2.33,0.74,0.56,0,0,0,0,0,0,0,0,0,0,0,0
261.67,0,2.23,0.74,0.57,0,0,0,0,0,0,0,0,0,0,0,0
262.67,0,2.15,0.73,0.57,0,0,0,0,0,0,0,0,0,0,0,0
263.67,0,2.15,0.72,0.55,0,0,0,0,0,0,0,0,0,0,0,0
264.67,0,2.25,0.71,0.51,0,0,0,0,0,0,0,0,0,0,0,0
265.67,0,2.32,0.71,0.50,0,0,0,0,0,0,0,0,0,0,0,0
266.67,0,2.45,0.71,0.50,0,0,0,0,0,0,0,0,0,0,0,0
267.67,0,2.54,0.72,0.51,0,0,0,0,0,0,0,0,0,0,0,0
268.67,0,2.75,0.73,0.54,0,0,0,0,0,0,0,0,0,0,0,0
269.68,0,2.36,0.74,0.55,0,0,0,0,0,0,0,0,0,0,0,0
270.68,0,2.31,0.74,0.53,0,0,0,0,0,0,0,0,0,0,0,0
271.68,1,2.19,0.73,0.53,0,0,0,0,0,0,0,0,0,0,0,0
272.68,0,2.81,0.74,0.53,0,0,0,0,0,0,0,0,0,0,0,0
273.68,0,2.32,0.73,0.51,0,0,0,0,0,0,0,0,0,0,0,0
274.68,1,2.44,0.74,0.51,0,0,0,0,0,0,0,0,0,0,0,0
275.68,1,2.44,0.74,0.50,0,0,0,0,0,0,0,0,0,0,0,0
276.68,1,2.66,0.75,0.52,0,0,0,0,0,0,0,0,0,0,0,0
277.69,1,2.66,0.76,0.55,0,0,0,0,0,0,0,0,0,0,0,0
278.69,1,2.51,0.77,0.57,0,0,0,0,0,0,0,0,1,0,0,0
279.69,1,2.49,0.77,0.60,0,0,0,0,0,1,0,0,1,0,0,0
280.69,1,2.44,0.78,0.61,0,0,0,0,0,1,0,0,1,0,0,0
281.69,1,2.35,0.77,0.60,0,0,0,0,0,1,0,0,1,0,0,0
282.69,1,2.46,0.77,0.59,0,0,0,0,0,1,0,0,1,0,0,0
283.69,1,2.38,0.76,0.55,0,0,0,0,0,0,0,0,1,0,0,0
284.69,1,2.46,0.77,0.55,0,0,0,0,0,0,0,0,1,0,0,0
285.69,1,2.66,0.77,0.56,0,0,0,0,0,0,0,0,1,0,0,0
286.69,1,2.65,0.78,0.59,0,0,0,0,0,1,0,0,1,0,0,0
287.70,1,2.63,0.78,0.57,0,0,0,0,0,1,0,0,1,0,0,0
288.70,1,2.53,0.78,0.58,0,0,0,0,0,1,0,0,1,0,0,0
289.70,1,2.45,0.78,0.58,0,0,0,0,0,1,0,0,1,0,0,0
290.70,1,2.46,0.78,0.58,0,0,0,0,0,1,0,0,1,0,0,0
291.70,1,2.35,0.78,0.55,0,0,0,0,0,0,0,0,1,0,0,0
292.70,1,2.34,0.77,0.52,0,0,0,0,0,0,0,0,0,0,0,0
293.70,1,2.40,0.77,0.50,0,0,0,0,0,0,0,0,0,0,0,0
294.70,1,2.46,0.77,0.49,0,0,0,0,0,0,0,0,0,0,0,0
295.70,1,2.61,0.77,0.49,0,0,0,0,0,0,0,0,0,0,0,0
296.70,1,2.47,0.77,0.50,0,0,0,0,0,0,0,0,0,0,0,0
297.70,1,2.62,0.78,0.51,0,0,0,0,0,0,0,0,0,0,0,0
298.71,1,2.48,0.78,0.53,0,0,0,0,0,0,0,0,0,0,0,0
299.71,1,2.45,0.78,0.52,0,0,0,0,0,0,0,0,0,0,0,0
300.71,1,2.39,0.77,0.50,0,0,0,0,0,0,0,0,0,0,0,0
301.71,1,2.38,0.77,0.47,0,0,0,0,0,0,0,0,0,0,0,0
302.71,1,2.41,0.76,0.47,0,0,0,0,0,0,0,0,0,0,0,0
303.71,1,2.43,0.76,0.46,0,0,0,0,0,0,0,0,0,0,0,0
304.71,1,2.46,0.76,0.46,0,0,0,0,0,0,0,0,0,0,0,0
305.71,1,2.57,0.76,0.46,0,0,0,0,0,0,0,0,0,0,0,0
306.71,1,2.70,0.77,0.49,0,0,0,0,0,0,0,0,0,0,0,0
307.72,1,2.59,0.78,0.51,0,0,0,0,0,0,0,0,0,0,0,0
308.72,1,2.50,0.78,0.52,0,0,0,0,0,0,0,0,0,0,0,0
309.72,1,2.46,0.78,0.52,0,0,0,0,0,0,0,0,0,0,0,0
310.72,1,2.30,0.77,0.50,0,0,0,0,0,0,0,0,0,0,0,0
311.72,1,2.38,0.77,0.49,0,0,0,0,0,0,0,0,0,0,0,0
312.72,1,2.43,0.77,0.48,0,0,0,0,0,0,0,0,0,0,0,0
313.72,1,2.46,0.76,0.47,0,0,0,0,0,0,0,0,0,0,0,0
314.72,1,2.57,0.77,0.48,0,0,0,0,0,0,0,0,0,0,0,0
315.72,1,2.69,0.77,0.50,0,0,0,0,0,0,0,0,0,0,0,0
316.73,1,2.66,0.78,0.52,0,0,0,0,0,0,0,0,0,0,0,0
317.73,1,2.47,0.78,0.53,0,0,0,0,0,0,0,0,1,0,0,0
318.73,1,2.47,0.78,0.54,0,0,0,0,0,0,0,0,1,0,0,0
319.73,1,2.41,0.78,0.53,0,0,0,0,0,0,0,0,1,0,0,0
320.73,1,2.32,0.78,0.52,0,0,0,0,0,0,0,0,0,0,0,0
321.73,1,2.43,0.77,0.50,0,0,0,0,0,0,0,0,0,0,0,0
322.73,1,2.49,0.77,0.49,0,0,0,0,0,0,0,0,0,0,0,0
323.73,1,2.50,0.77,0.48,0,0,0,0,0,0,0,0,0,0,0,0
324.73,1,2.66,0.77,0.49,0,0,0,0,0,0,0,0,0,0,0,0
325.73,1,2.73,0.78,0.52,0,0,0,0,0,0,0,0,0,0,0,0
326.73,1,2.64,0.79,0.53,0,0,0,0,0,0,0,0,1,0,0,0
327.74,1,2.50,0.79,0.54,0,0,0,0,0,0,0,0,1,0,0,0
328.74,1,2.45,0.79,0.54,0,0,0,0,0,0,0,0,1,0,0,0
329.74,1,2.45,0.79,0.53,0,0,0,0,0,0,0,0,1,0,0,0
330.74,1,2.34,0.78,0.51,0,0,0,0,0,0,0,0,0,0,0,0
331.74,1,2.36,0.77,0.49,0,0,0,0,0,0,0,0,0,0,0,0
332.74,1,2.44,0.77,0.48,0,0,0,0,0,0,0,0,0,0,0,0
333.74,1,2.47,0.77,0.48,0,0,0,0,0,0,0,0,0,0,0,0
334.74,1,2.69,0.78,0.49,0,0,0,0,0,0,0,0,0,0,0,0
335.74,1,2.70,0.79,0.52,0,0,0,0,0,0,0,0,0,0,0,0
336.75,1,2.62,0.79,0.53,0,0,0,0,0,0,0,0,1,0,0,0
337.75,1,2.49,0.79,0.54,0,0,0,0,0,0,0,0,1,0,0,0
338.75,1,2.46,0.79,0.54,0,0,0,0,0,0,0,0,1,0,0,0
339.75,1,2.31,0.78,0.52,0,0,0,0,0,0,0,0,0,0,0,0
340.75,1,2.29,0.77,0.48,0,0,0,0,0,0,0,0,0,0,0,0
341.75,1,2.43,0.77,0.47,0,0,0,0,0,0,0,0,0,0,0,0
342.75,1,2.45,0.77,0.46,0,0,0,0,0,0,0,0,0,0,0,0
343.75,1,2.52,0.77,0.46,0,0,0,0,0,0,0,0,0,0,0,0
344.75,1,2.62,0.77,0.48,0,0,0,0,0,0,0,0,0,0,0,0
345.75,1,2.71,0.78,0.50,0,0,0,0,0,0,0,0,0,0,0,0
346.76,1,2.62,0.79,0.52,0,0,0,0,0,0,0,0,1,0,0,0
347.76,1,2.47,0.79,0.53,0,0,0,0,0,0,0,0,1,0,0,0
348.76,1,2.43,0.79,0.52,0,0,0,0,0,0,0,0,1,0,0,0
349.76,1,2.33,0.78,0.50,0,0,0,0,0,0,0,0,0,0,0,0
350.76,1,2.44,0.77,0.48,0,0,0,0,0,0,0,0,0,0,0,0
351.76,1,2.50,0.77,0.46,0,0,0,0,0,0,0,0,0,0,0,0
352.76,1,2.56,0.77,0.47,0,0,0,0,0,0,0,0,0,0,0,0
353.76,1,1.94,0.76,0.45,0,0,0,0,0,0,0,0,0,0,0,0
354.76,1,2.66,0.77,0.47,0,0,0,0,0,0,0,0,0,0,0,0
355.77,1,2.57,0.77,0.50,0,0,0,0,0,0,0,0,0,0,0,0
