Time,PanelLabel,Voltage1_raw,Voltage1_avg,Prev_dif1_avg,NN6Label1,NN12Label1,NN24Label1,NN36Label1,LGRLabel1,GNBLabel1,DTLabel1,RFLabel1,SEFRLabel1,Thresh1Label1,Thresh2Label1,Thresh3Label1,,0
23.70,1,2.65,0.05,0.13,0,0,0,0,0,0,1,1,0,1,1,1
24.70,1,2.65,0.11,0.25,0,0,0,0,0,0,1,1,0,1,1,1
25.70,1,2.62,0.16,0.38,0,0,0,0,0,0,1,1,0,1,1,1
26.71,1,2.54,0.22,0.50,0,0,0,0,0,0,1,1,0,0,1,1
27.71,1,2.55,0.27,0.62,0,0,0,0,0,0,1,1,0,0,1,1
28.71,1,2.47,0.32,0.74,0,0,0,0,0,0,1,1,0,0,1,1
29.71,1,2.48,0.37,0.86,0,0,0,0,0,0,1,1,0,0,1,1
30.71,1,2.52,0.42,0.98,0,0,0,0,0,1,1,1,0,0,1,1
31.71,1,2.52,0.48,1.10,0,0,0,0,0,1,1,1,1,0,1,1
32.71,1,2.60,0.53,1.22,0,0,0,0,0,1,1,1,1,0,1,1
33.71,1,2.65,0.59,1.35,0,0,0,0,0,1,1,1,1,0,1,1
34.71,1,2.60,0.64,1.47,0,0,0,0,0,1,1,1,1,0,1,1
35.72,1,2.62,0.69,1.60,1,1,1,1,0,1,1,1,1,1,1,1
36.72,1,2.62,0.75,1.72,1,1,1,1,1,1,1,1,1,1,1,1
37.72,1,2.75,0.81,1.85,1,1,1,1,1,1,1,1,1,1,1,1
38.72,1,2.77,0.81,1.76,1,1,1,1,1,1,1,1,1,1,1,1
39.72,1,2.87,0.81,1.68,1,1,1,1,1,1,1,1,1,1,1,1
40.72,1,2.78,0.82,1.59,1,1,1,1,1,1,1,1,1,1,1,1
41.72,1,2.62,0.82,1.51,1,1,1,1,1,1,1,1,1,1,1,1
42.72,1,2.66,0.82,1.42,1,1,1,1,1,1,1,1,1,0,1,1
43.72,1,2.64,0.83,1.34,1,1,1,1,1,1,1,1,1,1,1,1
44.72,1,2.62,0.83,1.26,1,1,1,1,1,1,1,1,1,1,1,1
45.73,1,2.46,0.83,1.17,1,1,1,1,1,1,1,1,1,1,1,1
46.73,1,2.48,0.83,1.08,1,1,1,1,1,1,1,1,1,1,1,1
47.73,1,2.22,0.82,0.98,1,1,1,1,1,1,1,1,1,0,1,1
48.73,1,2.37,0.81,0.88,1,1,1,1,1,1,1,1,1,0,1,1
49.73,1,2.55,0.81,0.78,1,1,1,1,1,1,1,1,1,0,1,1
50.73,1,2.51,0.81,0.69,1,1,1,1,1,1,1,1,1,0,1,1
51.73,1,2.65,0.81,0.60,1,1,1,1,1,1,0,0,1,0,1,0
52.73,1,2.61,0.81,0.50,1,1,0,1,1,0,0,0,1,0,1,0
53.73,1,2.58,0.80,0.49,0,0,0,0,1,0,0,0,0,0,1,0
54.74,1,2.75,0.80,0.47,0,0,0,0,1,0,0,0,0,0,0,0
55.74,1,2.77,0.80,0.47,0,0,0,0,1,0,0,0,0,0,0,0
56.74,1,2.90,0.80,0.48,0,0,0,0,1,0,0,0,0,0,1,0
57.74,1,2.90,0.81,0.48,1,1,1,1,1,0,0,0,0,0,1,0
58.74,1,2.81,0.81,0.48,1,1,1,1,1,0,0,0,0,0,1,0
59.74,1,2.76,0.82,0.48,1,1,1,1,1,0,1,1,0,0,1,1
60.74,1,2.72,0.82,0.49,1,1,1,1,1,0,1,1,1,0,1,1
61.74,1,2.69,0.83,0.50,1,1,1,1,1,1,1,1,1,1,1,1
62.74,1,2.62,0.84,0.53,1,1,1,1,1,1,1,1,1,1,1,1
63.74,1,2.61,0.84,0.55,1,1,1,1,1,1,1,1,1,1,1,1
64.75,1,2.53,0.84,0.55,1,1,1,1,1,1,1,1,1,1,1,1
65.75,1,2.50,0.84,0.56,1,1,1,1,1,1,1,1,1,1,1,1
66.75,1,2.46,0.84,0.55,1,1,1,1,1,1,1,1,1,1,1,1
67.75,1,2.44,0.83,0.55,1,1,1,1,1,1,1,1,1,1,1,1
68.75,1,2.46,0.83,0.55,1,1,1,1,1,1,1,1,1,1,1,1
69.75,1,2.58,0.83,0.55,1,1,1,1,1,1,1,1,1,1,1,1
70.75,1,2.70,0.83,0.54,1,1,1,1,1,1,1,1,1,1,1,1
71.75,1,2.62,0.82,0.52,1,1,1,1,1,1,1,1,1,0,1,1
72.75,1,2.56,0.81,0.50,1,1,1,1,1,0,0,0,1,0,1,0
73.75,1,2.82,0.81,0.50,1,1,1,1,1,0,0,0,1,0,1,0
74.75,1,2.82,0.81,0.49,1,1,1,1,1,0,0,0,1,0,1,0
75.76,1,2.80,0.81,0.49,1,1,1,1,1,0,0,0,0,0,1,0
76.76,1,2.83,0.82,0.48,1,1,1,1,1,0,1,1,1,0,1,1
77.76,1,2.63,0.82,0.47,1,1,1,1,1,0,1,1,0,0,1,1
78.76,1,2.62,0.82,0.46,1,1,1,1,1,1,1,1,0,0,1,1
79.76,1,2.60,0.82,0.46,1,1,1,1,1,1,1,1,0,0,1,1
80.76,1,2.45,0.82,0.46,1,1,1,1,1,1,1,1,0,0,1,1
81.76,1,2.31,0.81,0.46,1,1,1,1,1,0,0,0,0,0,1,0
82.76,0,2.37,0.81,0.47,1,1,1,1,1,0,0,0,0,0,1,0
83.76,0,2.51,0.81,0.47,1,1,1,1,1,0,0,0,0,0,1,0
84.77,0,2.58,0.81,0.48,1,1,1,1,1,0,0,0,0,0,1,0
85.77,0,2.53,0.81,0.48,1,1,1,1,1,0,0,0,0,0,1,0
86.77,0,2.58,0.81,0.48,1,1,1,1,1,0,0,0,0,0,1,0
87.77,0,2.61,0.81,0.50,1,1,1,1,1,0,0,0,1,0,1,0
88.77,0,2.95,0.81,0.50,1,1,1,1,1,0,0,0,1,0,1,0
89.77,0,2.79,0.81,0.50,1,1,1,1,1,0,0,0,1,0,1,0
90.77,0,2.77,0.81,0.50,1,1,1,1,1,0,0,0,1,0,1,0
91.77,0,2.69,0.81,0.49,1,1,1,1,1,0,0,0,0,0,1,0
92.77,0,2.68,0.81,0.49,1,1,1,1,1,0,0,0,0,0,1,0
93.77,0,2.60,0.81,0.49,1,1,1,1,1,0,0,0,0,0,1,0
94.78,0,2.62,0.81,0.49,1,1,1,1,1,0,0,0,0,0,1,0
95.78,0,2.45,0.81,0.49,1,1,1,1,1,0,0,0,0,0,1,0
96.78,0,2.42,0.81,0.50,1,1,1,1,1,0,0,0,1,0,1,0
97.78,0,2.48,0.82,0.50,1,1,1,1,1,0,1,1,1,0,1,1
98.78,0,2.43,0.81,0.50,1,1,1,1,1,0,0,0,1,0,1,0
99.78,0,2.55,0.81,0.50,1,1,1,1,1,0,0,0,1,0,1,0
100.78,0,2.54,0.81,0.50,1,1,1,1,1,0,0,0,1,0,1,0
101.78,0,2.56,0.81,0.51,1,1,1,1,1,0,0,0,1,0,1,0
102.78,0,2.56,0.81,0.50,1,1,1,1,1,0,0,0,1,0,1,0
103.79,0,2.67,0.81,0.49,1,1,0,0,1,0,0,0,0,0,1,0
104.79,0,2.75,0.80,0.49,0,0,0,0,1,0,0,0,0,0,1,0
105.79,0,2.99,0.81,0.49,1,1,1,1,1,0,0,0,1,0,1,0
106.79,0,2.72,0.81,0.50,1,1,1,1,1,0,0,0,1,0,1,0
107.79,1,2.70,0.81,0.50,1,1,1,1,1,0,0,0,1,0,1,0
108.79,1,2.57,0.81,0.50,1,1,1,1,1,0,0,0,1,0,1,0
109.79,1,2.60,0.81,0.50,1,1,1,1,1,0,0,0,1,0,1,0
110.79,1,2.62,0.81,0.50,1,1,1,1,1,0,0,0,1,0,1,0
111.79,1,2.62,0.82,0.51,1,1,1,1,1,0,1,1,1,0,1,1
112.79,1,2.49,0.82,0.50,1,1,1,1,1,0,1,1,1,0,1,1
113.79,1,2.46,0.82,0.51,1,1,1,1,1,0,1,1,1,0,1,1
114.80,1,2.48,0.82,0.51,1,1,1,1,1,0,1,1,1,0,1,1
115.80,1,2.58,0.82,0.51,1,1,1,1,1,0,1,1,1,0,1,1
116.80,1,2.54,0.82,0.51,1,1,1,1,1,0,1,1,1,0,1,1
117.80,1,2.59,0.82,0.51,1,1,1,1,1,0,1,1,1,0,1,1
118.80,1,2.61,0.82,0.52,1,1,1,1,1,1,1,1,1,0,1,1
119.80,1,2.85,0.82,0.52,1,1,1,1,1,1,1,1,1,0,1,1
120.80,1,2.66,0.81,0.50,1,1,1,1,1,0,0,0,1,0,1,0
121.80,1,2.77,0.81,0.50,1,1,1,1,1,0,0,0,1,0,1,0
122.80,1,2.72,0.81,0.50,1,1,1,1,1,0,0,0,1,0,1,0
123.81,1,2.64,0.81,0.51,1,1,1,1,1,0,0,0,1,0,1,0
124.81,1,2.58,0.81,0.51,1,1,1,1,1,0,0,0,1,0,1,0
125.81,1,2.57,0.81,0.50,1,1,1,1,1,0,0,0,1,0,1,0
126.81,1,2.58,0.81,0.49,1,1,1,1,1,0,0,0,1,0,1,0
127.81,1,2.51,0.81,0.49,1,1,1,1,1,0,0,0,1,0,1,0
128.81,1,2.47,0.81,0.49,1,1,1,1,1,0,0,0,1,0,1,0
129.81,1,2.35,0.81,0.49,1,1,1,1,1,0,0,0,0,0,1,0
130.81,1,2.50,0.81,0.48,1,1,0,1,1,0,0,0,0,0,1,0
131.81,1,2.44,0.81,0.48,0,0,0,0,1,0,0,0,0,0,1,0
132.82,1,2.65,0.81,0.48,1,1,0,1,1,0,0,0,0,0,1,0
133.82,1,2.55,0.81,0.48,0,0,0,0,1,0,0,0,0,0,1,0
134.82,1,2.63,0.80,0.47,0,0,0,0,1,0,0,0,0,0,1,0
135.82,1,2.73,0.80,0.49,0,0,0,0,1,0,0,0,0,0,1,0
136.82,1,2.81,0.80,0.48,0,0,0,0,1,0,0,0,0,0,1,0
137.82,1,2.81,0.81,0.49,1,1,0,0,1,0,0,0,0,0,1,0
138.82,1,2.63,0.81,0.48,0,0,0,0,1,0,0,0,0,0,1,0
139.82,1,2.62,0.81,0.49,1,1,0,0,1,0,0,0,0,0,1,0
140.82,1,2.64,0.81,0.49,1,1,0,1,1,0,0,0,0,0,1,0
141.82,1,2.60,0.81,0.49,1,1,1,1,1,0,0,0,0,0,1,0
142.83,1,2.54,0.81,0.49,1,1,1,1,1,0,0,0,0,0,1,0
143.83,1,2.41,0.81,0.49,1,1,0,1,1,0,0,0,0,0,1,0
144.83,1,2.45,0.81,0.50,1,1,1,1,1,0,0,0,1,0,1,0
145.83,1,2.48,0.81,0.50,1,1,1,1,1,0,0,0,1,0,1,0
146.83,1,2.56,0.81,0.51,1,1,1,1,1,0,0,0,1,0,1,0
147.83,1,2.65,0.81,0.51,1,1,1,1,1,0,0,0,1,0,1,0
148.83,1,2.58,0.81,0.51,1,1,1,1,1,0,0,0,1,0,1,0
149.83,1,2.75,0.82,0.52,1,1,1,1,1,1,1,1,1,0,1,1
150.83,1,2.75,0.82,0.52,1,1,1,1,1,1,1,1,1,0,1,1
151.83,1,2.75,0.81,0.52,1,1,1,1,1,0,0,0,1,0,1,0
152.84,1,2.71,0.81,0.51,1,1,1,1,1,0,0,0,1,0,1,0
153.84,1,2.59,0.81,0.51,1,1,1,1,1,0,0,0,1,0,1,0
154.84,1,2.63,0.81,0.51,1,1,1,1,1,0,0,0,1,0,1,0
155.84,1,2.58,0.81,0.51,1,1,1,1,1,0,0,0,1,0,1,0
156.84,1,2.85,0.82,0.51,1,1,1,1,1,0,1,1,1,0,1,1
157.84,1,2.44,0.81,0.51,1,1,1,1,1,0,0,0,1,0,1,0
158.84,1,2.48,0.82,0.51,1,1,1,1,1,0,1,1,1,0,1,1
159.84,1,2.55,0.82,0.51,1,1,1,1,1,0,1,1,1,0,1,1
160.84,1,2.55,0.82,0.52,1,1,1,1,1,1,1,1,1,0,1,1
161.85,1,2.54,0.82,0.51,1,1,1,1,1,0,1,1,1,0,1,1
162.85,1,2.60,0.82,0.51,1,1,1,1,1,0,1,1,1,0,1,1
163.85,1,2.73,0.82,0.51,1,1,1,1,1,1,1,1,1,0,1,1
164.85,1,2.83,0.82,0.51,1,1,1,1,1,1,1,1,1,0,1,1
165.85,1,2.77,0.82,0.51,1,1,1,1,1,1,1,1,1,0,1,1
166.85,1,2.69,0.82,0.51,1,1,1,1,1,1,1,1,1,0,1,1
167.85,1,2.70,0.82,0.52,1,1,1,1,1,1,1,1,1,0,1,1
168.85,1,2.67,0.82,0.52,1,1,1,1,1,1,1,1,1,0,1,1
169.85,1,2.60,0.82,0.52,1,1,1,1,1,1,1,1,1,0,1,1
170.85,1,2.60,0.82,0.52,1,1,1,1,1,1,1,1,1,0,1,1
171.86,1,2.53,0.82,0.50,1,1,1,1,1,0,1,1,1,0,1,1
172.86,1,2.50,0.82,0.51,1,1,1,1,1,0,1,1,1,0,1,1
173.86,1,2.50,0.82,0.50,1,1,1,1,1,0,1,1,1,0,1,1
174.86,1,2.50,0.82,0.50,1,1,1,1,1,0,1,1,1,0,1,1
175.86,1,2.59,0.82,0.50,1,1,1,1,1,0,1,1,1,0,1,1
176.86,1,2.56,0.82,0.50,1,1,1,1,1,0,1,1,1,0,1,1
177.86,1,2.59,0.82,0.50,1,1,1,1,1,0,1,1,1,0,1,1
178.86,1,2.67,0.82,0.49,1,1,1,1,1,0,1,1,1,0,1,1
179.86,1,2.76,0.81,0.49,1,1,1,1,1,0,0,0,1,0,1,0
180.86,1,2.79,0.82,0.49,1,1,1,1,1,0,0,0,1,0,1,1
181.87,1,2.72,0.82,0.49,1,1,1,1,1,0,0,0,1,0,1,1
182.87,1,2.72,0.82,0.49,1,1,1,1,1,0,0,0,1,0,1,1
183.87,1,2.62,0.81,0.49,1,1,1,1,1,0,0,0,1,0,1,0
184.87,1,2.60,0.81,0.49,1,1,1,1,1,0,0,0,1,0,1,0
185.87,1,2.57,0.81,0.48,1,1,1,1,1,0,0,0,0,0,1,0
186.87,1,2.59,0.82,0.50,1,1,1,1,1,0,1,1,1,0,1,1
187.87,1,2.44,0.81,0.49,1,1,1,1,1,0,0,0,1,0,1,0
188.87,1,2.58,0.82,0.50,1,1,1,1,1,0,1,1,1,0,1,1
189.87,1,2.48,0.82,0.50,1,1,1,1,1,0,1,1,1,0,1,1
190.87,1,2.59,0.82,0.50,1,1,1,1,1,0,1,1,1,0,1,1
191.88,1,2.56,0.82,0.50,1,1,1,1,1,0,1,1,1,0,1,1
192.88,1,2.58,0.82,0.50,1,1,1,1,1,0,1,1,1,0,1,1
193.88,1,2.66,0.82,0.50,1,1,1,1,1,0,1,1,1,0,1,1
194.88,1,2.76,0.82,0.50,1,1,1,1,1,0,1,1,1,0,1,1
195.88,1,2.83,0.82,0.50,1,1,1,1,1,0,1,1,1,0,1,1
196.88,1,2.84,0.82,0.50,1,1,1,1,1,0,1,1,1,0,1,1
197.88,1,2.06,0.80,0.48,0,0,0,0,1,0,0,0,0,0,1,0
198.88,1,2.69,0.81,0.48,1,1,0,0,1,0,0,0,0,0,1,0
199.88,1,2.61,0.81,0.49,1,1,0,0,1,0,0,0,0,0,1,0
200.88,1,2.60,0.81,0.49,1,1,0,1,1,0,0,0,0,0,1,0
201.89,1,2.61,0.81,0.49,1,1,0,1,1,0,0,0,0,0,1,0
202.89,1,2.88,0.82,0.50,1,1,1,1,1,0,1,1,1,0,1,1
203.89,1,2.45,0.81,0.50,1,1,1,1,1,0,0,0,1,0,1,0
204.89,1,2.45,0.81,0.50,1,1,1,1,1,0,0,0,1,0,1,0
205.89,1,2.51,0.81,0.49,1,1,1,1,1,0,0,0,1,0,1,0
206.89,1,2.51,0.81,0.49,1,1,1,1,1,0,0,0,1,0,1,0
207.89,1,2.68,0.81,0.50,1,1,1,1,1,0,0,0,1,0,1,0
208.89,1,2.62,0.81,0.49,1,1,1,1,1,0,0,0,1,0,1,0
209.89,1,2.66,0.81,0.49,1,1,1,1,1,0,0,0,0,0,1,0
210.90,1,2.68,0.81,0.48,1,1,0,1,1,0,0,0,0,0,1,0
211.90,1,2.77,0.81,0.48,0,0,0,0,1,0,0,0,0,0,1,0
212.90,1,2.83,0.82,0.53,1,1,1,1,1,1,1,1,1,0,1,1
213.90,1,3.03,0.83,0.54,1,1,1,1,1,1,1,1,1,1,1,1
214.90,1,2.76,0.83,0.54,1,1,1,1,1,1,1,1,1,1,1,1
215.90,1,2.77,0.84,0.55,1,1,1,1,1,1,1,1,1,1,1,1
216.90,1,2.70,0.84,0.55,1,1,1,1,1,1,1,1,1,1,1,1
217.90,1,2.63,0.83,0.53,1,1,1,1,1,1,1,1,1,1,1,1
218.90,1,2.62,0.84,0.54,1,1,1,1,1,1,1,1,1,1,1,1
219.90,1,2.62,0.84,0.55,1,1,1,1,1,1,1,1,1,1,1,1
220.91,1,2.46,0.84,0.55,1,1,1,1,1,1,1,1,1,1,1,1
221.91,1,2.48,0.84,0.55,1,1,1,1,1,1,1,1,1,1,1,1
222.91,1,2.54,0.84,0.54,1,1,1,1,1,1,1,1,1,1,1,1
223.91,1,2.53,0.83,0.54,1,1,1,1,1,1,1,1,1,1,1,1
224.91,1,2.57,0.83,0.54,1,1,1,1,1,1,1,1,1,1,1,1
225.91,1,2.61,0.83,0.54,1,1,1,1,1,1,1,1,1,1,1,1
226.91,1,2.56,0.83,0.53,1,1,1,1,1,1,1,1,1,1,1,1
227.91,1,2.66,0.82,0.50,1,1,1,1,1,0,1,1,1,0,1,1
228.91,1,2.61,0.81,0.47,1,1,1,1,1,0,0,0,0,0,1,0
229.91,1,2.82,0.81,0.47,1,1,1,1,1,0,0,0,0,0,1,0
230.91,1,2.81,0.81,0.46,1,1,1,1,1,0,0,0,0,0,1,0
231.92,1,2.84,0.82,0.47,1,1,1,1,1,0,1,1,0,0,1,1
232.92,1,2.75,0.82,0.48,1,1,1,1,1,0,1,1,1,0,1,1
233.92,1,2.67,0.82,0.47,1,1,1,1,1,0,1,1,0,0,1,1
234.92,1,2.59,0.82,0.47,1,1,1,1,1,1,1,1,0,0,1,1
235.92,1,2.58,0.82,0.47,1,1,1,1,1,1,1,1,0,0,1,1
236.92,1,2.54,0.83,0.48,1,1,1,1,1,1,1,1,1,1,1,1
237.92,1,2.48,0.82,0.48,1,1,1,1,1,0,1,1,1,0,1,1
238.92,1,2.47,0.82,0.48,1,1,1,1,1,0,1,1,1,0,1,1
239.93,1,2.52,0.82,0.48,1,1,1,1,1,0,1,1,1,0,1,1
240.93,1,2.50,0.82,0.48,1,1,1,1,1,0,1,1,1,0,1,1
241.93,1,2.56,0.82,0.49,1,1,1,1,1,0,1,1,1,0,1,1
242.93,1,2.59,0.82,0.49,1,1,1,1,1,0,1,1,1,0,1,1
243.93,1,2.55,0.82,0.51,1,1,1,1,1,0,1,1,1,0,1,1
244.93,1,2.64,0.81,0.50,1,1,1,1,1,0,0,0,1,0,1,0
245.93,1,2.65,0.81,0.49,1,1,1,1,1,0,0,0,0,0,1,0
246.93,1,2.78,0.81,0.48,1,1,0,1,1,0,0,0,0,0,1,0
247.93,1,2.77,0.81,0.48,1,1,0,1,1,0,0,0,0,0,1,0
248.93,1,2.75,0.81,0.48,1,1,0,1,1,0,0,0,0,0,1,0
249.94,1,2.68,0.81,0.48,1,1,1,1,1,0,0,0,0,0,1,0
250.94,1,2.64,0.81,0.48,1,1,1,1,1,0,0,0,0,0,1,0
251.94,1,2.62,0.81,0.48,1,1,1,1,1,0,0,0,0,0,1,0
252.94,1,2.61,0.82,0.49,1,1,1,1,1,0,1,1,1,0,1,1
253.94,1,2.47,0.82,0.49,1,1,1,1,1,0,1,1,1,0,1,1
254.94,1,2.45,0.82,0.49,1,1,1,1,1,0,0,0,1,0,1,1
255.94,1,2.43,0.81,0.49,1,1,1,1,1,0,0,0,1,0,1,0
256.94,1,2.54,0.81,0.49,1,1,1,1,1,0,0,0,1,0,1,0
257.94,1,2.61,0.81,0.49,1,1,1,1,1,0,0,0,1,0,1,0
258.94,1,2.59,0.81,0.50,1,1,1,1,1,0,0,0,1,0,1,0
259.95,1,2.61,0.81,0.50,1,1,1,1,1,0,0,0,1,0,1,0
260.95,1,2.79,0.82,0.51,1,1,1,1,1,0,1,1,1,0,1,1
261.95,1,2.77,0.82,0.52,1,1,1,1,1,1,1,1,1,0,1,1
262.95,1,2.75,0.82,0.52,1,1,1,1,1,0,1,1,1,0,1,1
263.95,1,2.79,0.82,0.51,1,1,1,1,1,0,1,1,1,0,1,1
264.95,1,2.62,0.82,0.51,1,1,1,1,1,0,1,1,1,0,1,1
265.95,1,2.59,0.81,0.50,1,1,1,1,1,0,0,0,1,0,1,0
266.95,1,2.59,0.81,0.50,1,1,1,1,1,0,0,0,1,0,1,0
267.95,1,2.54,0.81,0.49,1,1,1,1,1,0,0,0,1,0,1,0
268.95,1,2.39,0.81,0.49,1,1,1,1,1,0,0,0,1,0,1,0
269.95,1,2.43,0.81,0.49,1,1,1,1,1,0,0,0,1,0,1,0
270.96,1,2.48,0.81,0.50,1,1,1,1,1,0,0,0,1,0,1,0
271.96,1,2.65,0.81,0.50,1,1,1,1,1,0,0,0,1,0,1,0
272.96,1,2.60,0.81,0.50,1,1,1,1,1,0,0,0,1,0,1,0
273.96,1,2.87,0.82,0.51,1,1,1,1,1,0,1,1,1,0,1,1
274.96,1,2.84,0.83,0.52,1,1,1,1,1,1,1,1,1,1,1,1
275.96,1,2.74,0.82,0.51,1,1,1,1,1,1,1,1,1,0,1,1
276.96,1,2.61,0.82,0.51,1,1,1,1,1,0,1,1,1,0,1,1
277.96,1,2.59,0.82,0.50,1,1,1,1,1,0,1,1,1,0,1,1
278.97,1,2.58,0.81,0.49,1,1,1,1,1,0,0,0,1,0,1,0
279.97,1,2.45,0.81,0.49,1,1,1,1,1,0,0,0,0,0,1,0
280.97,1,2.94,0.82,0.50,1,1,1,1,1,0,1,1,1,0,1,1
281.97,1,2.52,0.81,0.50,1,1,1,1,1,0,0,0,1,0,1,0
282.97,1,2.61,0.82,0.51,1,1,1,1,1,0,1,1,1,0,1,1
283.97,1,2.61,0.82,0.52,1,1,1,1,1,1,1,1,1,0,1,1
284.97,1,2.84,0.83,0.53,1,1,1,1,1,1,1,1,1,1,1,1
285.97,1,2.86,0.84,0.55,1,1,1,1,1,1,1,1,1,1,1,1
286.97,1,2.69,0.84,0.54,1,1,1,1,1,1,1,1,1,1,1,1
287.97,1,2.65,0.84,0.54,1,1,1,1,1,1,1,1,1,1,1,1
288.98,1,2.59,0.83,0.52,1,1,1,1,1,1,1,1,1,1,1,1
289.98,1,2.45,0.83,0.50,1,1,1,1,1,1,1,1,1,1,1,1
290.98,1,2.41,0.82,0.49,1,1,1,1,1,0,1,1,1,0,1,1
291.98,1,2.42,0.81,0.49,1,1,1,1,1,0,0,0,1,0,1,0
292.98,1,2.50,0.81,0.49,1,1,1,1,1,0,0,0,1,0,1,0
293.98,1,2.60,0.81,0.50,1,1,1,1,1,0,0,0,1,0,1,0
294.98,1,2.70,0.82,0.52,1,1,1,1,1,1,1,1,1,0,1,1
295.98,1,2.81,0.82,0.50,1,1,1,1,1,0,1,1,1,0,1,1
296.98,1,2.82,0.82,0.51,1,1,1,1,1,1,1,1,1,0,1,1
297.98,1,2.73,0.82,0.51,1,1,1,1,1,1,1,1,1,1,1,1
298.98,1,2.56,0.82,0.50,1,1,1,1,1,1,1,1,1,0,1,1
299.99,1,2.56,0.82,0.48,1,1,1,1,1,0,1,1,0,0,1,1
300.99,1,2.58,0.81,0.45,1,1,1,1,1,0,0,0,0,0,1,0
301.99,1,2.46,0.81,0.44,0,0,0,0,1,0,0,0,0,0,1,0
302.99,1,2.48,0.80,0.44,0,0,0,0,1,1,0,0,0,0,1,0
303.99,1,2.57,0.80,0.45,0,0,0,0,1,0,0,0,0,0,1,0
304.99,1,2.63,0.81,0.47,0,0,0,0,1,0,0,0,0,0,1,0
305.99,1,2.57,0.81,0.48,1,1,1,1,1,0,0,0,0,0,1,0
306.99,1,2.63,0.81,0.50,1,1,1,1,1,0,0,0,1,0,1,0
307.99,1,2.83,0.82,0.51,1,1,1,1,1,1,1,1,1,0,1,1
309.00,1,2.89,0.83,0.52,1,1,1,1,1,1,1,1,1,1,1,1
310.00,1,2.70,0.83,0.52,1,1,1,1,1,1,1,1,1,1,1,1
311.00,1,2.65,0.82,0.51,1,1,1,1,1,1,1,1,1,0,1,1
312.00,1,2.57,0.82,0.49,1,1,1,1,1,0,1,1,1,0,1,1
313.00,1,2.37,0.81,0.48,1,1,1,1,1,0,0,0,0,0,1,0
314.00,1,2.44,0.81,0.47,1,1,0,1,1,0,0,0,0,0,1,0
315.00,1,2.57,0.81,0.48,1,1,1,1,1,0,0,0,0,0,1,0
316.00,1,2.58,0.81,0.49,1,1,1,1,1,0,0,0,1,0,1,0
317.00,1,2.60,0.81,0.51,1,1,1,1,1,0,0,0,1,0,1,0
318.01,1,2.74,0.82,0.52,1,1,1,1,1,1,1,1,1,0,1,1
319.01,1,2.82,0.82,0.53,1,1,1,1,1,1,1,1,1,0,1,1
320.01,1,2.75,0.83,0.53,1,1,1,1,1,1,1,1,1,1,1,1
321.01,1,2.61,0.83,0.53,1,1,1,1,1,1,1,1,1,1,1,1
322.01,1,2.58,0.83,0.52,1,1,1,1,1,1,1,1,1,1,1,1
323.01,1,2.60,0.82,0.50,1,1,1,1,1,0,1,1,1,0,1,1
324.01,1,2.48,0.81,0.47,1,1,1,1,1,0,0,0,0,0,1,0
325.01,1,2.45,0.81,0.46,0,0,0,0,1,0,0,0,0,0,1,0
326.01,1,2.55,0.80,0.47,0,0,0,0,1,0,0,0,0,0,1,0
327.01,1,2.55,0.80,0.47,0,0,0,0,1,0,0,0,0,0,1,0
328.02,1,2.62,0.81,0.50,1,1,1,1,1,0,0,0,1,0,1,0
329.02,1,2.63,0.81,0.51,1,1,1,1,1,0,0,0,1,0,1,0
330.02,1,2.86,0.82,0.52,1,1,1,1,1,1,1,1,1,0,1,1
331.02,1,2.82,0.82,0.53,1,1,1,1,1,1,1,1,1,0,1,1
332.02,1,2.68,0.83,0.52,1,1,1,1,1,1,1,1,1,1,1,1
333.02,1,2.68,0.82,0.51,1,1,1,1,1,1,1,1,1,1,1,1
334.02,1,2.60,0.82,0.50,1,1,1,1,1,0,1,1,1,0,1,1
335.02,1,2.47,0.81,0.48,1,1,1,1,1,0,0,0,0,0,1,0
336.02,1,2.46,0.81,0.47,1,1,1,1,1,0,0,0,0,0,1,0
337.02,1,2.52,0.81,0.47,1,1,0,1,1,0,0,0,0,0,1,0
338.02,1,2.57,0.81,0.48,1,1,0,1,1,0,0,0,0,0,1,0
339.03,1,2.67,0.81,0.50,1,1,1,1,1,0,0,0,1,0,1,0
340.03,1,2.76,0.82,0.52,1,1,1,1,1,1,1,1,1,0,1,1
341.03,1,2.82,0.83,0.54,1,1,1,1,1,1,1,1,1,1,1,1
342.03,1,2.80,0.83,0.55,1,1,1,1,1,1,1,1,1,1,1,1
343.03,1,2.61,0.83,0.54,1,1,1,1,1,1,1,1,1,1,1,1
344.03,1,2.59,0.83,0.53,1,1,1,1,1,1,1,1,1,1,1,1
345.03,1,2.49,0.82,0.51,1,1,1,1,1,1,1,1,1,0,1,1
346.03,1,2.44,0.81,0.48,1,1,1,1,1,0,0,0,0,0,1,0
347.03,1,2.51,0.81,0.47,1,1,1,1,1,0,0,0,0,0,1,0
348.04,1,2.62,0.81,0.47,1,1,0,1,1,0,0,0,0,0,1,0
349.04,1,2.59,0.81,0.48,1,1,0,1,1,0,0,0,0,0,1,0
350.04,1,2.76,0.81,0.50,1,1,1,1,1,0,0,0,1,0,1,0
351.04,1,2.82,0.82,0.52,1,1,1,1,1,1,1,1,1,0,1,1
352.04,1,2.72,0.83,0.53,1,1,1,1,1,1,1,1,1,1,1,1
353.04,1,2.63,0.83,0.53,1,1,1,1,1,1,1,1,1,1,1,1
354.04,1,2.60,0.83,0.52,1,1,1,1,1,1,1,1,1,1,1,1
355.04,1,2.55,0.82,0.50,1,1,1,1,1,0,1,1,1,0,1,1
356.04,1,2.61,0.82,0.49,1,1,1,1,1,0,1,1,1,0,1,1
357.05,1,2.50,0.81,0.46,1,1,1,1,1,0,0,0,0,0,1,0
358.05,1,2.59,0.81,0.46,1,1,0,1,1,0,0,0,0,0,1,0
359.05,1,2.88,0.82,0.48,1,1,1,1,1,0,1,1,0,0,1,1
360.05,1,2.84,0.82,0.50,1,1,1,1,1,1,1,1,1,0,1,1
361.05,1,2.88,0.83,0.53,1,1,1,1,1,1,1,1,1,1,1,1
362.05,1,2.64,0.84,0.54,1,1,1,1,1,1,1,1,1,1,1,1
363.05,1,2.66,0.84,0.55,1,1,1,1,1,1,1,1,1,1,1,1
364.05,1,2.64,0.84,0.55,1,1,1,1,1,1,1,1,1,1,1,1
365.05,1,2.51,0.83,0.53,1,1,1,1,1,1,1,1,1,1,1,1
366.05,1,2.48,0.83,0.50,1,1,1,1,1,1,1,1,1,1,1,1
367.05,1,2.44,0.82,0.49,1,1,1,1,1,0,1,1,1,0,1,1
368.06,1,2.63,0.82,0.49,1,1,1,1,1,0,1,1,1,0,1,1
369.06,1,2.55,0.82,0.49,1,1,1,1,1,0,1,1,1,0,1,1
370.06,1,2.61,0.82,0.50,1,1,1,1,1,0,1,1,1,0,1,1
371.06,1,2.88,0.83,0.52,1,1,1,1,1,1,1,1,1,1,1,1
372.06,1,2.90,0.83,0.54,1,1,1,1,1,1,1,1,1,1,1,1
373.06,1,2.80,0.84,0.55,1,1,1,1,1,1,1,1,1,1,1,1
374.06,1,2.66,0.83,0.53,1,1,1,1,1,1,1,1,1,1,1,1
375.06,1,2.60,0.83,0.51,1,1,1,1,1,1,1,1,1,1,1,1
376.06,1,2.58,0.82,0.48,1,1,1,1,1,0,1,1,1,0,1,1
377.07,1,2.44,0.82,0.47,1,1,1,1,1,0,1,1,0,0,1,1
378.07,1,2.47,0.81,0.46,1,1,1,1,1,0,0,0,0,0,1,0
379.07,1,2.48,0.81,0.45,1,1,0,1,1,0,0,0,0,0,1,0
380.07,1,2.51,0.81,0.46,1,1,0,1,1,0,0,0,0,0,1,0
381.07,1,2.60,0.81,0.48,1,1,1,1,1,0,0,0,0,0,1,0
382.07,1,2.72,0.82,0.50,1,1,1,1,1,0,1,1,1,0,1,1
383.07,1,2.80,0.82,0.51,1,1,1,1,1,1,1,1,1,0,1,1
384.07,1,2.86,0.83,0.52,1,1,1,1,1,1,1,1,1,1,1,1
385.07,1,2.82,0.83,0.53,1,1,1,1,1,1,1,1,1,1,1,1
386.07,1,2.66,0.83,0.51,1,1,1,1,1,1,1,1,1,1,1,1
387.08,1,2.67,0.82,0.48,1,1,1,1,1,0,1,1,1,1,1,1
388.08,1,2.65,0.82,0.47,1,1,1,1,1,0,1,1,0,0,1,1
389.08,1,2.47,0.82,0.47,1,1,1,1,1,0,1,1,0,0,1,1
390.08,1,2.42,0.81,0.47,1,1,1,1,1,0,0,0,0,0,1,0
391.08,1,2.78,0.82,0.49,1,1,1,1,1,0,1,1,1,0,1,1
392.08,1,2.65,0.82,0.51,1,1,1,1,1,1,1,1,1,0,1,1
393.08,1,2.58,0.82,0.52,1,1,1,1,1,1,1,1,1,1,1,1
394.08,1,2.59,0.83,0.53,1,1,1,1,1,1,1,1,1,1,1,1
395.08,1,2.85,0.83,0.54,1,1,1,1,1,1,1,1,1,1,1,1
396.08,1,2.85,0.84,0.55,1,1,1,1,1,1,1,1,1,1,1,1
397.09,1,2.71,0.84,0.53,1,1,1,1,1,1,1,1,1,1,1,1
398.09,1,2.71,0.84,0.52,1,1,1,1,1,1,1,1,1,1,1,1
399.09,1,2.64,0.83,0.50,1,1,1,1,1,1,1,1,1,1,1,1
400.09,1,2.61,0.83,0.49,1,1,1,1,1,1,1,1,1,1,1,1
401.09,1,2.44,0.82,0.49,1,1,1,1,1,0,1,1,1,0,1,1
402.09,1,2.62,0.82,0.50,1,1,1,1,1,0,1,1,1,0,1,1
403.09,1,2.52,0.82,0.50,1,1,1,1,1,0,1,1,1,0,1,1
404.09,1,2.66,0.82,0.51,1,1,1,1,1,1,1,1,1,0,1,1
405.09,1,2.55,0.83,0.52,1,1,1,1,1,1,1,1,1,1,1,1
406.10,1,2.67,0.82,0.51,1,1,1,1,1,1,1,1,1,0,1,1
407.10,1,2.84,0.83,0.51,1,1,1,1,1,1,1,1,1,1,1,1
408.10,1,2.84,0.83,0.52,1,1,1,1,1,1,1,1,1,1,1,1
409.10,1,2.78,0.84,0.52,1,1,1,1,1,1,1,1,1,1,1,1
410.10,1,2.45,0.83,0.49,1,1,1,1,1,1,1,1,1,1,1,1
411.10,1,2.60,0.82,0.47,1,1,1,1,1,1,1,1,0,0,1,1
412.10,1,2.60,0.82,0.47,1,1,1,1,1,0,1,1,0,0,1,1
413.10,1,2.55,0.82,0.47,1,1,1,1,1,0,1,1,0,0,1,1
414.10,1,2.45,0.81,0.47,1,1,1,1,1,0,0,0,0,0,1,0
415.10,1,2.52,0.81,0.47,1,1,1,1,1,0,0,0,0,0,1,0
416.11,1,2.60,0.82,0.49,1,1,1,1,1,0,0,0,1,0,1,1
417.11,1,2.61,0.81,0.49,1,1,1,1,1,0,0,0,1,0,1,0
418.11,1,2.70,0.82,0.50,1,1,1,1,1,0,1,1,1,0,1,1
419.11,1,2.85,0.82,0.50,1,1,1,1,1,0,1,1,1,0,1,1
420.11,1,2.85,0.83,0.51,1,1,1,1,1,1,1,1,1,1,1,1
421.11,1,2.71,0.83,0.51,1,1,1,1,1,1,1,1,1,1,1,1
422.11,1,2.61,0.83,0.50,1,1,1,1,1,1,1,1,1,1,1,1
423.11,1,2.61,0.82,0.48,1,1,1,1,1,0,1,1,0,0,1,1
424.11,1,2.61,0.82,0.46,1,1,1,1,1,0,1,0,0,0,1,1
425.11,1,2.44,0.82,0.48,1,1,1,1,1,0,1,1,0,0,1,1
426.11,1,2.40,0.81,0.48,1,1,1,1,1,0,0,0,0,0,1,0
427.12,1,2.54,0.81,0.48,1,1,1,1,1,0,0,0,0,0,1,0
428.12,1,2.60,0.81,0.49,1,1,1,1,1,0,0,0,1,0,1,0
429.12,1,2.60,0.82,0.50,1,1,1,1,1,0,1,1,1,0,1,0
430.12,1,2.76,0.82,0.51,1,1,1,1,1,1,1,1,1,0,1,1
431.12,1,3.16,0.83,0.53,1,1,1,1,1,1,1,1,1,1,1,1
432.12,1,2.68,0.83,0.53,1,1,1,1,1,1,1,1,1,1,1,1
433.12,1,2.59,0.83,0.52,1,1,1,1,1,1,1,1,1,1,1,1
434.12,1,2.61,0.83,0.51,1,1,1,1,1,1,1,1,1,1,1,1
435.13,1,2.45,0.82,0.48,1,1,1,1,1,0,1,1,0,0,1,1
436.13,1,2.40,0.81,0.47,1,1,1,1,1,0,0,0,0,0,1,0
437.13,1,2.48,0.81,0.47,1,1,0,1,1,0,0,0,0,0,1,0
438.13,1,2.62,0.81,0.48,1,1,0,1,1,0,0,0,0,0,1,0
439.13,1,2.56,0.81,0.48,1,1,0,1,1,0,0,0,0,0,1,0
440.13,1,2.71,0.81,0.49,1,1,1,1,1,0,0,0,1,0,1,0
441.13,1,2.82,0.82,0.52,1,1,1,1,1,1,1,1,1,0,1,1
442.13,1,2.91,0.83,0.53,1,1,1,1,1,1,1,1,1,1,1,1
443.13,1,2.56,0.83,0.53,1,1,1,1,1,1,1,1,1,1,1,1
444.13,1,2.63,0.83,0.53,1,1,1,1,1,1,1,1,1,1,1,1
445.14,1,2.53,0.83,0.51,1,1,1,1,1,1,1,1,1,1,1,1
446.14,1,2.10,0.80,0.45,0,0,0,0,1,0,0,0,0,0,1,0
447.14,1,2.42,0.80,0.44,0,0,0,0,0,0,0,0,0,0,0,0
448.14,1,2.50,0.79,0.44,0,0,0,0,0,0,0,0,0,0,0,0
449.14,1,2.57,0.79,0.44,0,0,0,0,0,0,0,0,0,0,0,0
450.14,1,2.56,0.80,0.46,0,0,0,0,0,0,0,0,0,0,0,0
451.14,1,2.76,0.80,0.49,0,0,0,0,1,0,0,0,0,0,1,0
452.14,1,2.83,0.81,0.51,1,1,1,1,1,0,0,0,1,0,1,0
453.14,1,2.79,0.82,0.51,1,1,1,1,1,0,1,1,1,0,1,1
454.14,1,2.64,0.82,0.52,1,1,1,1,1,1,1,1,1,0,1,1
455.14,1,2.60,0.81,0.50,1,1,1,1,1,0,0,0,1,0,1,0
456.15,1,2.34,0.80,0.47,0,0,0,0,1,0,0,0,0,0,1,0
457.15,1,2.44,0.79,0.44,0,0,0,0,0,0,0,0,0,0,0,0
458.15,1,2.53,0.79,0.44,0,0,0,0,0,0,0,0,0,0,0,0
459.15,1,2.59,0.79,0.44,0,0,0,0,0,0,0,0,0,0,0,0
460.15,1,2.57,0.79,0.44,0,0,0,0,0,0,0,0,0,0,0,0
461.15,1,2.61,0.80,0.50,1,1,0,0,1,0,0,0,1,0,1,0
462.15,1,2.88,0.81,0.53,1,1,1,1,1,1,0,0,1,0,1,0
463.15,1,2.82,0.82,0.54,1,1,1,1,1,1,1,1,1,0,1,1
464.15,1,2.79,0.83,0.55,1,1,1,1,1,1,1,1,1,1,1,1
465.16,1,2.67,0.83,0.55,1,1,1,1,1,1,1,1,1,1,1,1
466.16,1,2.60,0.82,0.53,1,1,1,1,1,1,1,1,1,1,1,1
467.16,1,2.56,0.82,0.51,1,1,1,1,1,0,1,1,1,0,1,1
468.16,1,2.51,0.81,0.50,1,1,1,1,1,0,0,0,1,0,1,0
469.16,1,2.62,0.81,0.49,1,1,1,1,1,0,0,0,1,0,1,0
470.16,1,2.58,0.81,0.50,1,1,1,1,1,0,0,0,1,0,1,0
471.16,1,2.59,0.82,0.52,1,1,1,1,1,1,1,1,1,0,1,1
472.16,1,2.76,0.82,0.55,1,1,1,1,1,1,1,1,1,1,1,1
473.16,1,2.86,0.83,0.57,1,1,1,1,1,1,1,1,1,1,1,1
474.17,1,2.79,0.84,0.58,1,1,1,1,1,1,1,1,1,1,1,1
475.17,1,2.66,0.84,0.58,1,1,1,1,1,1,1,1,1,1,1,1
476.17,1,2.62,0.84,0.56,1,1,1,1,1,1,1,1,1,1,1,1
477.17,1,2.59,0.83,0.53,1,1,1,1,1,1,1,1,1,1,1,1
478.17,1,2.47,0.82,0.51,1,1,1,1,1,1,1,1,1,1,1,1
479.17,1,2.45,0.82,0.49,1,1,1,1,1,0,1,1,1,0,1,1
480.17,1,2.63,0.82,0.48,1,1,1,1,1,0,1,1,0,0,1,1
481.17,1,2.58,0.82,0.48,1,1,1,1,1,0,0,0,1,0,1,1
482.17,1,2.61,0.82,0.50,1,1,1,1,1,0,1,1,1,0,1,1
483.17,1,2.68,0.82,0.51,1,1,1,1,1,1,1,1,1,0,1,1
484.17,1,2.83,0.83,0.52,1,1,1,1,1,1,1,1,1,1,1,1
485.18,1,2.79,0.83,0.53,1,1,1,1,1,1,1,1,1,1,1,1
486.18,1,2.64,0.83,0.52,1,1,1,1,1,1,1,1,1,1,1,1
487.18,1,2.60,0.83,0.50,1,1,1,1,1,1,1,1,1,1,1,1
488.18,1,2.58,0.82,0.48,1,1,1,1,1,0,1,1,1,0,1,1
489.18,1,2.50,0.81,0.46,1,1,1,1,1,0,0,0,0,0,1,0
490.18,1,2.42,0.81,0.45,1,1,0,0,1,0,0,0,0,0,1,0
491.18,1,2.49,0.81,0.45,0,0,0,0,1,0,0,0,0,0,1,0
492.18,1,2.57,0.81,0.46,0,0,0,0,1,0,0,0,0,0,1,0
493.18,1,2.63,0.81,0.47,1,1,1,1,1,0,0,0,0,0,1,0
494.19,1,2.65,0.81,0.49,1,1,1,1,1,0,0,0,1,0,1,0
495.19,1,2.85,0.82,0.50,1,1,1,1,1,0,1,1,1,0,1,1
496.19,1,2.83,0.82,0.51,1,1,1,1,1,1,1,1,1,1,1,1
497.19,1,2.65,0.83,0.51,1,1,1,1,1,1,1,1,1,1,1,1
498.19,1,2.64,0.82,0.51,1,1,1,1,1,1,1,1,1,1,1,1
499.19,1,2.60,0.82,0.49,1,1,1,1,1,0,1,1,1,0,1,1
500.19,1,2.48,0.81,0.47,1,1,1,1,1,0,0,0,0,0,1,0
501.19,1,2.78,0.82,0.47,1,1,1,1,1,0,0,0,0,0,1,1
502.19,1,2.51,0.81,0.48,1,1,1,1,1,0,0,0,0,0,1,0
503.19,1,2.55,0.81,0.49,1,1,1,1,1,0,0,0,0,0,1,0
504.20,1,2.60,0.82,0.50,1,1,1,1,1,0,1,1,1,0,1,1
505.20,1,2.71,0.82,0.52,1,1,1,1,1,1,1,1,1,0,1,1
506.20,1,2.79,0.83,0.54,1,1,1,1,1,1,1,1,1,1,1,1
507.20,1,2.74,0.83,0.54,1,1,1,1,1,1,1,1,1,1,1,1
508.20,1,2.57,0.83,0.54,1,1,1,1,1,1,1,1,1,1,1,1
509.20,1,2.60,0.83,0.53,1,1,1,1,1,1,1,1,1,1,1,1
510.20,1,2.44,0.82,0.50,1,1,1,1,1,0,1,1,1,0,1,1
511.20,1,2.42,0.81,0.48,1,1,1,1,1,0,0,0,0,0,1,0
512.20,1,2.56,0.81,0.47,1,1,1,1,1,0,0,0,0,0,1,0
513.21,1,2.61,0.81,0.47,1,1,0,1,1,0,0,0,0,0,1,0
514.21,1,2.61,0.81,0.48,1,1,1,1,1,0,0,0,0,0,1,0
515.21,1,2.84,0.82,0.51,1,1,1,1,1,0,1,1,1,0,1,1
516.21,1,2.32,0.81,0.49,1,1,0,1,1,0,0,0,0,0,1,0
517.21,1,2.79,0.81,0.50,1,1,1,1,1,0,0,0,1,0,1,0
518.21,1,2.58,0.81,0.50,1,1,1,1,1,0,0,0,1,0,1,0
519.21,1,2.61,0.81,0.50,1,1,1,1,1,0,0,0,1,0,1,0
520.21,1,2.53,0.81,0.48,1,1,1,1,1,0,0,0,0,0,1,0
521.21,1,2.60,0.81,0.46,0,0,0,0,1,0,0,0,0,0,1,0
522.21,1,2.44,0.80,0.44,0,0,0,0,0,0,0,0,0,0,1,0
523.22,1,2.61,0.80,0.45,0,0,0,0,1,0,0,0,0,0,1,0
524.22,1,2.60,0.80,0.45,0,0,0,0,1,0,0,0,0,0,1,0
525.22,1,2.78,0.81,0.48,1,1,0,1,1,0,0,0,0,0,1,0
526.22,1,2.86,0.82,0.51,1,1,1,1,1,0,1,1,1,0,1,1
527.22,1,2.78,0.82,0.52,1,1,1,1,1,1,1,1,1,0,1,1
528.22,1,2.69,0.82,0.53,1,1,1,1,1,1,1,1,1,0,1,1
529.22,1,2.61,0.82,0.53,1,1,1,1,1,1,1,1,1,0,1,1
530.22,1,2.62,0.82,0.50,1,1,1,1,1,0,1,1,1,0,1,1
531.22,1,2.41,0.82,0.52,1,1,1,1,1,1,1,1,1,0,1,1
532.22,1,2.42,0.81,0.50,1,1,1,1,1,0,0,0,1,0,1,0
533.22,1,2.52,0.81,0.50,1,1,1,1,1,0,0,0,1,0,1,0
534.23,1,2.60,0.81,0.50,1,1,1,1,1,0,0,0,1,0,1,0
535.23,1,2.60,0.81,0.50,1,1,1,1,1,0,0,0,1,0,1,0
536.23,1,2.87,0.82,0.52,1,1,1,1,1,1,1,1,1,0,1,1
537.23,1,3.32,0.84,0.56,1,1,1,1,1,1,1,1,1,1,1,1
538.23,1,2.74,0.84,0.57,1,1,1,1,1,1,1,1,1,1,1,1
539.23,1,2.67,0.84,0.57,1,1,1,1,1,1,1,1,1,1,1,1
540.23,1,2.60,0.84,0.55,1,1,1,1,1,1,1,1,1,1,1,1
541.23,1,2.59,0.83,0.52,1,1,1,1,1,1,1,1,1,1,1,1
542.23,1,2.44,0.82,0.50,1,1,1,1,1,1,1,1,1,1,1,1
543.23,1,2.47,0.82,0.49,1,1,1,1,1,0,1,1,1,0,1,1
544.24,1,2.54,0.82,0.49,1,1,1,1,1,0,1,1,1,0,1,1
545.24,1,2.59,0.82,0.50,1,1,1,1,1,0,1,1,1,0,1,1
546.24,1,2.60,0.82,0.50,1,1,1,1,1,0,1,1,1,0,1,1
547.24,1,2.60,0.83,0.52,1,1,1,1,1,1,1,1,1,1,1,1
548.24,1,2.78,0.83,0.53,1,1,1,1,1,1,1,1,1,1,1,1
549.24,1,2.73,0.83,0.54,1,1,1,1,1,1,1,1,1,1,1,1
