Time,PanelLabel,Voltage1_raw,Voltage1_avg,Prev_dif1_avg,NN6Label1,NN12Label1,NN24Label1,NN36Label1,LGRLabel1,GNBLabel1,DTLabel1,RFLabel1,SEFRLabel1,Thresh1Label1,Thresh2Label1,Thresh3Label1,,20
26.09,1,2.23,0.05,0.12,0,0,0,0,0,0,1,1,0,1,1,1
27.10,1,2.26,0.10,0.23,0,0,0,0,0,0,1,1,0,1,1,1
28.10,1,2.34,0.15,0.36,0,0,0,0,0,0,1,1,0,1,1,1
29.10,1,2.39,0.21,0.48,0,0,0,0,0,0,1,1,0,0,1,1
30.10,1,2.35,0.26,0.60,0,0,0,0,0,0,1,1,0,0,1,1
31.10,1,2.46,0.31,0.73,0,0,0,0,0,0,1,1,0,0,1,1
32.10,1,2.47,0.37,0.85,0,0,0,0,0,0,1,1,0,0,1,1
33.10,1,2.44,0.42,0.98,0,0,0,0,0,1,1,1,0,0,1,1
34.10,1,2.39,0.48,1.10,0,0,0,0,0,1,1,1,1,0,1,1
35.11,1,2.33,0.53,1.22,0,0,0,0,0,1,1,1,1,0,1,1
36.11,1,2.33,0.58,1.34,0,0,0,0,0,1,1,1,1,0,1,1
37.11,1,2.29,0.63,1.46,0,0,0,0,0,1,1,1,1,0,1,1
38.11,1,2.27,0.68,1.58,1,1,1,0,0,1,1,1,1,1,1,1
39.11,1,2.31,0.74,1.70,1,1,1,1,1,1,1,1,1,1,1,1
40.11,1,2.29,0.79,1.82,1,1,1,1,1,1,1,1,1,1,1,1
41.11,1,2.36,0.79,1.74,1,1,1,1,1,1,1,1,1,1,1,1
42.11,1,2.34,0.79,1.66,1,1,1,1,1,1,1,1,1,1,1,1
43.11,1,2.48,0.79,1.57,1,1,1,1,1,1,1,1,1,1,1,1
44.11,1,2.52,0.80,1.49,1,1,1,1,1,1,1,1,1,0,1,1
45.12,1,2.51,0.80,1.41,1,1,1,1,1,1,1,1,1,0,1,1
46.12,1,2.43,0.80,1.31,1,1,1,1,1,1,1,1,1,0,1,1
47.12,1,2.34,0.80,1.22,1,1,1,1,1,1,1,1,1,0,1,1
48.12,1,2.32,0.79,1.12,1,1,1,1,1,1,1,1,1,0,1,1
49.12,1,2.34,0.79,1.03,1,1,1,1,1,1,1,1,1,0,1,1
50.12,1,2.16,0.79,0.94,1,1,1,1,1,1,1,1,1,0,1,1
51.12,1,2.24,0.79,0.84,1,1,1,1,1,1,1,1,1,0,1,1
52.12,1,2.29,0.79,0.76,1,1,1,1,1,1,1,1,1,0,1,1
53.12,1,2.34,0.79,0.68,1,1,1,1,1,1,0,0,1,0,1,1
54.12,1,2.39,0.79,0.59,0,0,0,0,1,1,0,0,1,0,0,0
55.13,1,2.39,0.79,0.51,0,0,0,0,0,0,0,0,0,0,0,0
56.13,1,2.53,0.80,0.51,0,0,0,0,1,0,0,0,1,0,0,0
57.13,1,2.49,0.80,0.52,0,0,0,0,1,0,1,1,1,0,1,0
58.13,1,2.35,0.80,0.50,0,0,0,0,1,0,0,0,0,0,0,0
59.13,1,2.34,0.79,0.49,0,0,0,0,0,0,0,0,0,0,0,0
60.13,1,2.33,0.79,0.48,0,0,0,0,0,0,0,0,0,0,0,0
61.13,1,2.33,0.79,0.48,0,0,0,0,0,0,0,0,0,0,0,0
62.13,1,2.38,0.79,0.48,0,0,0,0,0,0,0,0,0,0,0,0
63.13,1,2.24,0.79,0.49,0,0,0,0,0,0,0,0,0,0,0,0
64.13,1,2.23,0.78,0.48,0,0,0,0,0,0,0,0,0,0,0,0
65.14,1,2.33,0.79,0.50,0,0,0,0,0,0,0,0,0,0,0,0
66.14,1,2.43,0.79,0.51,0,0,0,0,0,0,0,0,0,0,0,0
67.14,1,2.36,0.79,0.51,0,0,0,0,0,0,0,0,0,0,0,0
68.14,1,2.38,0.79,0.51,0,0,0,0,0,0,0,0,0,0,0,0
69.14,1,2.53,0.80,0.51,0,0,0,0,1,0,0,0,1,0,0,0
70.14,1,2.56,0.80,0.51,0,0,0,0,1,0,1,1,1,0,1,0
71.14,1,2.53,0.80,0.51,0,0,0,0,1,0,0,0,1,0,1,0
72.14,1,2.39,0.80,0.50,0,0,0,0,1,0,0,0,0,0,0,0
73.14,1,2.36,0.80,0.50,0,0,0,0,1,0,0,0,0,0,0,0
74.14,1,2.35,0.80,0.51,0,0,0,0,1,0,1,1,1,0,0,0
75.15,1,2.37,0.80,0.52,0,0,0,0,1,0,1,1,1,0,1,0
76.15,1,2.27,0.80,0.52,0,0,0,0,1,0,1,1,1,0,0,0
77.15,1,2.33,0.80,0.52,0,0,0,0,1,0,1,0,1,0,0,0
78.15,1,2.27,0.80,0.52,0,0,0,0,1,0,1,1,1,0,0,0
79.15,1,2.39,0.80,0.53,1,1,0,0,1,0,1,1,1,0,1,0
80.15,1,2.40,0.80,0.53,1,1,0,1,1,0,1,1,1,0,1,0
81.15,1,2.38,0.80,0.52,0,0,0,0,1,0,1,1,1,0,1,0
82.15,1,2.44,0.80,0.52,1,1,0,1,1,0,1,1,1,0,1,0
83.15,1,2.54,0.81,0.52,1,1,1,1,1,0,0,0,1,0,1,0
84.15,1,2.51,0.81,0.52,1,1,1,1,1,0,0,0,1,0,1,0
85.16,1,2.47,0.80,0.51,1,1,0,1,1,0,0,0,1,0,1,0
86.16,1,2.43,0.80,0.50,0,0,0,0,1,0,0,0,1,0,1,0
87.16,1,2.32,0.80,0.50,0,0,0,0,1,0,0,0,1,0,1,0
88.16,1,2.31,0.80,0.50,0,0,0,0,1,0,0,0,0,0,1,0
89.16,1,2.32,0.80,0.50,0,0,0,0,1,0,0,0,0,0,0,0
90.16,1,2.31,0.80,0.50,0,0,0,0,1,0,0,0,0,0,0,0
91.16,1,2.22,0.80,0.50,0,0,0,0,1,0,0,0,0,0,0,0
92.16,1,2.28,0.80,0.50,0,0,0,0,1,0,0,0,0,0,0,0
93.16,1,2.35,0.80,0.50,0,0,0,0,1,0,0,0,0,0,0,0
94.17,1,2.34,0.80,0.49,0,0,0,0,1,0,0,0,0,0,0,0
95.17,1,2.43,0.80,0.49,0,0,0,0,1,0,0,0,0,0,0,0
96.17,1,2.45,0.80,0.49,0,0,0,0,1,0,0,0,0,0,0,0
97.17,1,2.46,0.80,0.49,0,0,0,0,1,0,0,0,0,0,0,0
98.17,1,2.47,0.80,0.48,0,0,0,0,1,0,0,0,0,0,0,0
99.17,1,2.49,0.80,0.48,0,0,0,0,1,0,0,0,0,0,0,0
100.17,1,2.39,0.79,0.48,0,0,0,0,0,0,0,0,0,0,0,0
101.17,1,2.30,0.79,0.48,0,0,0,0,0,0,0,0,0,0,0,0
102.17,1,2.31,0.79,0.49,0,0,0,0,0,0,0,0,0,0,0,0
103.18,1,2.34,0.79,0.49,0,0,0,0,0,0,0,0,0,0,0,0
104.18,1,2.26,0.79,0.49,0,0,0,0,0,0,0,0,0,0,0,0
105.18,1,2.08,0.79,0.48,0,0,0,0,0,0,0,0,0,0,0,0
106.18,1,2.33,0.79,0.49,0,0,0,0,0,0,0,0,0,0,0,0
107.18,1,2.27,0.79,0.49,0,0,0,0,0,0,0,0,0,0,0,0
108.18,1,2.33,0.79,0.49,0,0,0,0,0,0,0,0,0,0,0,0
109.18,1,2.41,0.79,0.49,0,0,0,0,0,0,0,0,0,0,0,0
110.18,1,2.34,0.79,0.49,0,0,0,0,0,0,0,0,0,0,0,0
111.18,1,2.53,0.79,0.49,0,0,0,0,0,0,0,0,0,0,0,0
112.18,1,2.47,0.79,0.49,0,0,0,0,0,0,0,0,0,0,0,0
113.18,1,2.47,0.79,0.49,0,0,0,0,0,0,0,0,0,0,0,0
114.19,1,2.43,0.79,0.49,0,0,0,0,0,0,0,0,0,0,0,0
115.19,1,2.34,0.79,0.49,0,0,0,0,0,0,0,0,0,0,0,0
116.19,1,2.30,0.79,0.49,0,0,0,0,0,0,0,0,0,0,0,0
117.19,1,2.31,0.79,0.49,0,0,0,0,0,0,0,0,0,0,0,0
118.19,1,2.32,0.79,0.49,0,0,0,0,0,0,0,0,0,0,0,0
119.19,1,2.21,0.79,0.49,0,0,0,0,0,0,0,0,0,0,0,0
120.19,1,2.22,0.79,0.51,0,0,0,0,0,0,0,0,0,0,0,0
121.19,1,2.26,0.79,0.50,0,0,0,0,0,0,0,0,0,0,0,0
122.19,1,2.37,0.79,0.50,0,0,0,0,0,0,0,0,0,0,0,0
123.19,1,2.36,0.79,0.50,0,0,0,0,0,0,0,0,0,0,0,0
124.20,1,2.31,0.79,0.50,0,0,0,0,0,0,0,0,0,0,0,0
125.20,1,2.32,0.79,0.50,0,0,0,0,0,0,0,0,0,0,0,0
126.20,1,2.48,0.79,0.49,0,0,0,0,0,0,0,0,0,0,0,0
127.20,1,2.45,0.79,0.49,0,0,0,0,0,0,0,0,0,0,0,0
128.20,1,2.49,0.79,0.49,0,0,0,0,0,0,0,0,0,0,0,0
129.20,1,2.45,0.79,0.50,0,0,0,0,0,0,0,0,0,0,0,0
130.20,1,2.30,0.79,0.50,0,0,0,0,0,0,0,0,0,0,0,0
131.20,1,2.30,0.79,0.50,0,0,0,0,0,0,0,0,0,0,0,0
132.20,1,2.29,0.79,0.50,0,0,0,0,0,0,0,0,0,0,0,0
133.21,1,2.21,0.78,0.49,0,0,0,0,0,0,0,0,0,0,0,0
134.21,1,2.31,0.79,0.50,0,0,0,0,0,0,0,0,0,0,0,0
135.21,1,2.21,0.78,0.49,0,0,0,0,0,0,0,0,0,0,0,0
136.21,1,2.24,0.78,0.49,0,0,0,0,0,0,0,0,0,0,0,0
137.21,1,2.27,0.78,0.49,0,0,0,0,0,0,0,0,0,0,0,0
138.21,1,2.30,0.78,0.48,0,0,0,0,0,0,0,0,0,0,0,0
139.21,1,2.25,0.78,0.49,0,0,0,0,0,0,0,0,0,0,0,0
140.21,1,2.46,0.78,0.49,0,0,0,0,0,0,0,0,0,0,0,0
141.21,1,2.87,0.79,0.51,0,0,0,0,0,0,0,0,0,0,0,0
142.22,1,2.45,0.79,0.51,0,0,0,0,0,0,0,0,0,0,0,0
143.22,1,2.33,0.79,0.50,0,0,0,0,0,0,0,0,0,0,0,0
144.22,1,2.28,0.78,0.50,0,0,0,0,0,0,0,0,0,0,0,0
145.22,1,2.28,0.78,0.50,0,0,0,0,0,0,0,0,0,0,0,0
146.22,1,2.29,0.78,0.50,0,0,0,0,0,0,0,0,0,0,0,0
147.22,1,2.20,0.78,0.49,0,0,0,0,0,0,0,0,0,0,0,0
148.22,1,2.17,0.78,0.50,0,0,0,0,0,0,0,0,0,0,0,0
149.22,1,2.20,0.78,0.49,0,0,0,0,0,0,0,0,0,0,0,0
150.22,1,2.31,0.78,0.49,0,0,0,0,0,0,0,0,0,0,0,0
151.22,1,2.29,0.78,0.49,0,0,0,0,0,0,0,0,0,0,0,0
152.23,1,2.26,0.78,0.50,0,0,0,0,0,0,0,0,0,0,0,0
153.23,1,2.29,0.78,0.50,0,0,0,0,0,0,0,0,0,0,0,0
154.23,1,2.36,0.78,0.51,0,0,0,0,0,0,0,0,0,0,0,0
155.23,1,2.53,0.78,0.50,0,0,0,0,0,0,0,0,0,0,0,0
156.23,1,2.42,0.77,0.47,0,0,0,0,0,0,0,0,0,0,0,0
157.23,1,2.38,0.77,0.47,0,0,0,0,0,0,0,0,0,0,0,0
158.23,1,2.22,0.77,0.47,0,0,0,0,0,0,0,0,0,0,0,0
159.23,1,2.29,0.77,0.48,0,0,0,0,0,0,0,0,0,0,0,0
160.23,1,2.25,0.77,0.48,0,0,0,0,0,0,0,0,0,0,0,0
161.23,1,2.26,0.77,0.48,0,0,0,0,0,0,0,0,0,0,0,0
162.24,1,2.29,0.77,0.48,0,0,0,0,0,0,0,0,0,0,0,0
163.24,1,2.37,0.78,0.49,0,0,0,0,0,0,0,0,0,0,0,0
164.24,1,2.16,0.78,0.50,0,0,0,0,0,0,0,0,0,0,0,0
165.24,1,2.22,0.77,0.49,0,0,0,0,0,0,0,0,0,0,0,0
166.24,1,2.22,0.77,0.48,0,0,0,0,0,0,0,0,0,0,0,0
167.24,1,2.30,0.77,0.49,0,0,0,0,0,0,0,0,0,0,0,0
168.24,1,2.22,0.77,0.48,0,0,0,0,0,0,0,0,0,0,0,0
169.24,1,2.26,0.77,0.48,0,0,0,0,0,0,0,0,0,0,0,0
170.24,1,2.31,0.76,0.47,0,0,0,0,0,0,0,0,0,0,0,0
171.24,1,2.40,0.76,0.48,0,0,0,0,0,0,0,0,0,0,0,0
172.25,1,2.39,0.76,0.48,0,0,0,0,0,0,0,0,0,0,0,0
173.25,1,2.29,0.77,0.49,0,0,0,0,0,0,0,0,0,0,0,0
174.25,1,2.23,0.76,0.49,0,0,0,0,0,0,0,0,0,0,0,0
175.25,1,2.23,0.76,0.49,0,0,0,0,0,0,0,0,0,0,0,0
176.25,1,2.22,0.76,0.49,0,0,0,0,0,0,0,0,0,0,0,0
177.25,1,2.18,0.76,0.48,0,0,0,0,0,0,0,0,0,0,0,0
178.25,1,2.09,0.75,0.46,0,0,0,0,0,0,0,0,0,0,0,0
179.25,1,2.13,0.75,0.46,0,0,0,0,0,0,0,0,0,0,0,0
180.25,1,2.15,0.75,0.46,0,0,0,0,0,0,0,0,0,0,0,0
181.26,1,2.16,0.75,0.46,0,0,0,0,0,0,0,0,0,0,0,0
182.26,1,2.23,0.75,0.46,0,0,0,0,0,0,0,0,0,0,0,0
183.26,1,2.17,0.75,0.46,0,0,0,0,0,0,0,0,0,0,0,0
184.26,1,2.23,0.75,0.46,0,0,0,0,0,0,0,0,0,0,0,0
185.26,1,2.30,0.75,0.47,0,0,0,0,0,0,0,0,0,0,0,0
186.26,1,2.35,0.75,0.47,0,0,0,0,0,0,0,0,0,0,0,0
187.26,1,2.41,0.75,0.47,0,0,0,0,0,0,0,0,0,0,0,0
188.26,1,2.32,0.75,0.47,0,0,0,0,0,0,0,0,0,0,0,0
189.26,1,2.19,0.75,0.47,0,0,0,0,0,0,0,0,0,0,0,0
190.26,1,2.20,0.75,0.47,0,0,0,0,0,0,0,0,0,0,0,0
191.27,1,2.21,0.75,0.47,0,0,0,0,0,0,0,0,0,0,0,0
192.27,1,2.20,0.75,0.48,0,0,0,0,0,0,0,0,0,0,0,0
193.27,1,2.07,0.75,0.48,0,0,0,0,0,0,0,0,0,0,0,0
194.27,1,2.04,0.74,0.48,0,0,0,0,0,0,0,0,0,0,0,0
195.27,1,2.17,0.74,0.49,0,0,0,0,0,0,0,0,0,0,0,0
196.27,1,1.96,0.74,0.48,0,0,0,0,0,0,0,0,0,0,0,0
197.27,1,2.19,0.74,0.48,0,0,0,0,0,0,0,0,0,0,0,0
198.27,1,2.13,0.74,0.48,0,0,0,0,0,0,0,0,0,0,0,0
199.27,1,2.21,0.74,0.48,0,0,0,0,0,0,0,0,0,0,0,0
200.27,1,2.32,0.74,0.48,0,0,0,0,0,0,0,0,0,0,0,0
201.27,1,2.34,0.74,0.48,0,0,0,0,0,0,0,0,0,0,0,0
202.28,1,2.30,0.73,0.48,0,0,0,0,0,0,0,0,0,0,0,0
203.28,1,2.26,0.73,0.48,0,0,0,0,0,0,0,0,0,0,0,0
204.28,1,2.19,0.73,0.48,0,0,0,0,0,0,0,0,0,0,0,0
205.28,1,2.22,0.73,0.48,0,0,0,0,0,0,0,0,0,0,0,0
206.28,1,2.18,0.73,0.48,0,0,0,0,0,0,0,0,0,0,0,0
207.28,1,2.13,0.73,0.48,0,0,0,0,0,0,0,0,0,0,0,0
208.28,1,2.07,0.73,0.48,0,0,0,0,0,0,0,0,0,0,0,0
209.28,1,2.11,0.73,0.48,0,0,0,0,0,0,0,0,0,0,0,0
210.28,1,2.13,0.73,0.48,0,0,0,0,0,0,0,0,0,0,0,0
211.29,1,2.18,0.74,0.50,0,0,0,0,0,0,0,0,0,0,0,0
212.29,1,2.24,0.74,0.50,0,0,0,0,0,0,0,0,0,0,0,0
213.29,1,2.26,0.74,0.51,0,0,0,0,0,0,0,0,0,0,0,0
214.29,1,2.18,0.74,0.51,0,0,0,0,0,0,0,0,0,0,0,0
215.29,1,2.36,0.74,0.51,0,0,0,0,0,0,0,0,0,0,0,0
216.29,1,2.29,0.74,0.50,0,0,0,0,0,0,0,0,0,0,0,0
217.29,1,2.23,0.74,0.51,0,0,0,0,0,0,0,0,0,0,0,0
218.29,1,2.18,0.74,0.51,0,0,0,0,0,0,0,0,0,0,0,0
219.29,1,2.17,0.74,0.51,0,0,0,0,0,0,0,0,0,0,0,0
220.30,1,2.19,0.74,0.50,0,0,0,0,0,0,0,0,0,0,0,0
221.30,1,2.16,0.74,0.50,0,0,0,0,0,0,0,0,0,0,0,0
222.30,1,1.98,0.73,0.50,0,0,0,0,0,0,0,0,0,0,0,0
223.30,1,2.00,0.73,0.50,0,0,0,0,0,0,0,0,0,0,0,0
224.30,1,2.09,0.73,0.49,0,0,0,0,0,0,0,0,0,0,0,0
225.30,1,2.06,0.73,0.49,0,0,0,0,0,0,0,0,0,0,0,0
226.30,1,2.13,0.73,0.48,0,0,0,0,0,0,0,0,0,0,0,0
227.30,1,2.11,0.72,0.48,0,0,0,0,0,0,0,0,0,0,0,0
228.30,1,2.34,0.73,0.48,0,0,0,0,0,0,0,0,0,0,0,0
229.30,1,2.24,0.73,0.48,0,0,0,0,0,0,0,0,0,0,0,0
230.30,1,2.31,0.73,0.48,0,0,0,0,0,0,0,0,0,0,0,0
231.31,1,2.29,0.73,0.48,0,0,0,0,0,0,0,0,0,0,0,0
232.31,1,2.18,0.73,0.48,0,0,0,0,0,0,0,0,0,0,0,0
233.31,1,2.21,0.73,0.48,0,0,0,0,0,0,0,0,0,0,0,0
234.31,1,2.11,0.72,0.48,0,0,0,0,0,0,0,0,0,0,0,0
235.31,1,2.12,0.72,0.48,0,0,0,0,0,0,0,0,0,0,0,0
236.31,1,2.04,0.72,0.48,0,0,0,0,0,0,0,0,0,0,0,0
237.31,1,2.04,0.72,0.48,0,0,0,0,0,0,0,0,0,0,0,0
238.31,1,2.00,0.72,0.49,0,0,0,0,0,0,0,0,0,0,0,0
239.31,1,1.68,0.71,0.47,0,0,0,0,0,0,0,0,0,0,0,0
240.32,1,2.07,0.71,0.48,0,0,0,0,0,0,0,0,0,0,0,0
241.32,1,2.13,0.71,0.48,0,0,0,0,0,0,0,0,0,0,0,0
242.32,1,2.18,0.71,0.48,0,0,0,0,0,0,0,0,0,0,0,0
243.32,1,2.16,0.71,0.47,0,0,0,0,0,0,0,0,0,0,0,0
244.32,1,2.14,0.71,0.47,0,0,0,0,0,0,0,0,0,0,0,0
245.32,1,2.12,0.70,0.46,0,0,0,0,0,0,0,0,0,0,0,0
246.32,1,2.28,0.70,0.46,0,0,0,0,0,0,0,0,0,0,0,0
247.32,1,2.27,0.71,0.47,0,0,0,0,0,0,0,0,0,0,0,0
248.32,1,2.22,0.71,0.47,0,0,0,0,0,0,0,0,0,0,0,0
249.32,1,2.18,0.71,0.47,0,0,0,0,0,0,0,0,0,0,0,0
250.33,1,2.12,0.71,0.47,0,0,0,0,0,0,0,0,0,0,0,0
251.33,1,2.06,0.71,0.48,0,0,0,0,0,0,0,0,0,0,0,0
252.33,1,1.99,0.71,0.47,0,0,0,0,0,0,0,0,0,0,0,0
253.33,1,1.99,0.71,0.47,0,0,0,0,0,0,0,0,0,0,0,0
254.33,1,2.05,0.71,0.50,0,0,0,0,0,0,0,0,0,0,0,0
255.33,1,2.06,0.71,0.50,0,0,0,0,0,0,0,0,0,0,0,0
256.33,1,2.12,0.71,0.50,0,0,0,0,0,0,0,0,0,0,0,0
257.33,1,2.10,0.71,0.50,0,0,0,0,0,0,0,0,0,0,0,0
258.33,1,2.12,0.71,0.50,0,0,0,0,0,0,0,0,0,0,0,0
259.33,1,2.09,0.71,0.50,0,0,0,0,0,0,0,0,0,0,0,0
260.34,1,2.26,0.71,0.52,0,0,0,0,0,0,0,0,0,0,0,0
261.34,1,2.26,0.71,0.52,0,0,0,0,0,0,0,0,0,0,0,0
262.34,1,2.27,0.71,0.51,0,0,0,0,0,0,0,0,0,0,0,0
263.34,1,2.17,0.71,0.51,0,0,0,0,0,0,0,0,0,0,0,0
264.34,1,2.06,0.71,0.50,0,0,0,0,0,0,0,0,0,0,0,0
265.34,1,2.07,0.71,0.50,0,0,0,0,0,0,0,0,0,0,0,0
266.34,1,2.05,0.71,0.50,0,0,0,0,0,0,0,0,0,0,0,0
267.34,1,2.00,0.71,0.50,0,0,0,0,0,0,0,0,0,0,0,0
268.34,1,1.97,0.71,0.50,0,0,0,0,0,0,0,0,0,0,0,0
269.35,1,1.76,0.70,0.48,0,0,0,0,0,0,0,0,0,0,0,0
270.35,1,1.95,0.70,0.47,0,0,0,0,0,0,0,0,0,0,0,0
271.35,1,2.02,0.70,0.47,0,0,0,0,0,0,0,0,0,0,0,0
272.35,1,2.06,0.70,0.47,0,0,0,0,0,0,0,0,0,0,0,0
273.35,1,2.11,0.70,0.47,0,0,0,0,0,0,0,0,0,0,0,0
274.35,1,2.12,0.70,0.48,0,0,0,0,0,0,0,0,0,0,0,0
275.35,1,2.21,0.70,0.47,0,0,0,0,0,0,0,0,0,0,0,0
276.35,1,2.28,0.70,0.47,0,0,0,0,0,0,0,0,0,0,0,0
277.35,1,2.25,0.70,0.47,0,0,0,0,0,0,0,0,0,0,0,0
278.35,1,2.18,0.70,0.47,0,0,0,0,0,0,0,0,0,0,0,0
279.36,1,2.17,0.70,0.48,0,0,0,0,0,0,0,0,0,0,0,0
280.36,1,2.05,0.70,0.48,0,0,0,0,0,0,0,0,0,0,0,0
281.36,1,2.06,0.70,0.48,0,0,0,0,0,0,0,0,0,0,0,0
282.36,1,2.02,0.70,0.48,0,0,0,0,0,0,0,0,0,0,0,0
283.36,1,1.82,0.70,0.48,0,0,0,0,0,0,0,0,0,0,0,0
284.36,1,1.58,0.69,0.48,0,0,0,0,0,0,0,0,0,0,0,0
285.36,1,1.94,0.69,0.49,0,0,0,0,0,0,0,0,0,0,0,0
286.36,1,2.10,0.69,0.49,0,0,0,0,0,0,0,0,0,0,0,0
287.36,1,2.11,0.69,0.50,0,0,0,0,0,0,0,0,0,0,0,0
288.36,1,2.07,0.69,0.49,0,0,0,0,0,0,0,0,0,0,0,0
289.37,1,2.16,0.69,0.50,0,0,0,0,0,0,0,0,0,0,0,0
290.37,1,2.09,0.69,0.49,0,0,0,0,0,0,0,0,0,0,0,0
291.37,1,2.19,0.69,0.49,0,0,0,0,0,0,0,0,0,0,0,0
292.37,1,2.10,0.69,0.48,0,0,0,0,0,0,0,0,0,0,0,0
293.37,1,2.08,0.68,0.48,0,0,0,0,0,0,0,0,0,0,0,0
294.37,1,2.05,0.68,0.47,0,0,0,0,0,0,0,0,0,0,0,0
295.37,1,2.02,0.68,0.47,0,0,0,0,0,0,0,0,0,0,0,0
296.37,1,1.99,0.68,0.47,0,0,0,0,0,0,0,0,0,0,0,0
297.37,1,1.93,0.68,0.46,0,0,0,0,0,0,0,0,0,0,0,0
298.38,1,2.00,0.68,0.48,0,0,0,0,0,0,0,0,0,0,0,0
299.38,1,2.00,0.69,0.50,0,0,0,0,0,0,0,0,0,0,0,0
300.38,1,2.09,0.69,0.50,0,0,0,0,0,0,0,0,0,0,0,0
301.38,1,2.06,0.69,0.50,0,0,0,0,0,0,0,0,0,0,0,0
302.38,1,2.05,0.69,0.50,0,0,0,0,0,0,0,0,0,0,0,0
303.38,1,2.23,0.69,0.50,0,0,0,0,0,0,0,0,0,0,0,0
304.38,1,2.21,0.70,0.50,0,0,0,0,0,0,0,0,0,0,0,0
305.38,1,2.20,0.70,0.51,0,0,0,0,0,0,0,0,0,0,0,0
306.38,1,2.07,0.70,0.51,0,0,0,0,0,0,0,0,0,0,0,0
307.38,1,2.03,0.69,0.51,0,0,0,0,0,0,0,0,0,0,0,0
308.39,1,2.01,0.69,0.52,0,0,0,0,0,0,0,0,0,0,0,0
309.39,1,1.79,0.69,0.51,0,0,0,0,0,0,0,0,0,0,0,0
310.39,1,1.93,0.68,0.51,0,0,0,0,0,0,0,0,0,0,0,0
311.39,1,1.94,0.68,0.51,0,0,0,0,0,0,0,0,0,0,0,0
312.39,1,1.99,0.68,0.51,0,0,0,0,0,0,0,0,0,0,0,0
313.39,1,2.05,0.69,0.51,0,0,0,0,0,0,0,0,0,0,0,0
314.39,1,2.03,0.69,0.49,0,0,0,0,0,0,0,0,0,0,0,0
315.39,1,2.04,0.69,0.49,0,0,0,0,0,0,0,0,0,0,0,0
316.39,1,2.18,0.69,0.49,0,0,0,0,0,0,0,0,0,0,0,0
317.39,1,2.19,0.69,0.50,0,0,0,0,0,0,0,0,0,0,0,0
318.39,1,2.19,0.69,0.49,0,0,0,0,0,0,0,0,0,0,0,0
319.40,1,2.03,0.69,0.48,0,0,0,0,0,0,0,0,0,0,0,0
320.40,1,2.01,0.68,0.47,0,0,0,0,0,0,0,0,0,0,0,0
321.40,1,2.01,0.68,0.48,0,0,0,0,0,0,0,0,0,0,0,0
322.40,1,2.18,0.68,0.48,0,0,0,0,0,0,0,0,0,0,0,0
323.40,1,1.90,0.68,0.48,0,0,0,0,0,0,0,0,0,0,0,0
324.40,1,1.91,0.68,0.50,0,0,0,0,0,0,0,0,0,0,0,0
325.40,1,1.97,0.68,0.50,0,0,0,0,0,0,0,0,0,0,0,0
326.40,1,2.00,0.69,0.50,0,0,0,0,0,0,0,0,0,0,0,0
327.40,1,2.02,0.69,0.50,0,0,0,0,0,0,0,0,0,0,0,0
328.41,1,2.09,0.69,0.50,0,0,0,0,0,0,0,0,0,0,0,0
329.41,1,2.22,0.69,0.51,0,0,0,0,0,0,0,0,0,0,0,0
330.41,1,2.07,0.69,0.51,0,0,0,0,0,0,0,0,0,0,0,0
331.41,1,2.13,0.69,0.51,0,0,0,0,0,0,0,0,0,0,0,0
332.41,1,1.99,0.69,0.49,0,0,0,0,0,0,0,0,0,0,0,0
333.41,1,2.00,0.68,0.49,0,0,0,0,0,0,0,0,0,0,0,0
334.41,1,1.97,0.68,0.49,0,0,0,0,0,0,0,0,0,0,0,0
335.41,1,1.92,0.68,0.50,0,0,0,0,0,0,0,0,0,0,0,0
336.41,1,1.87,0.68,0.49,0,0,0,0,0,0,0,0,0,0,0,0
337.42,1,1.92,0.67,0.48,0,0,0,0,0,0,0,0,0,0,0,0
338.42,1,1.94,0.67,0.48,0,0,0,0,0,0,0,0,0,0,0,0
339.42,1,2.06,0.68,0.48,0,0,0,0,0,0,0,0,0,0,0,0
340.42,1,1.99,0.68,0.48,0,0,0,0,0,0,0,0,0,0,0,0
341.42,1,2.04,0.68,0.48,0,0,0,0,0,0,0,0,0,0,0,0
342.42,1,2.15,0.68,0.49,0,0,0,0,0,0,0,0,0,0,0,0
343.42,1,2.13,0.68,0.49,0,0,0,0,0,0,0,0,0,0,0,0
344.42,1,2.05,0.68,0.47,0,0,0,0,0,0,0,0,0,0,0,0
345.42,1,1.98,0.67,0.47,0,0,0,0,0,0,0,0,0,0,0,0
346.42,1,1.99,0.67,0.47,0,0,0,0,0,0,0,0,0,0,0,0
347.42,1,1.98,0.67,0.47,0,0,0,0,0,0,0,0,0,0,0,0
348.43,1,1.89,0.67,0.48,0,0,0,0,0,0,0,0,0,0,0,0
349.43,1,1.91,0.67,0.48,0,0,0,0,0,0,0,0,0,0,0,0
350.43,1,1.94,0.67,0.48,0,0,0,0,0,0,0,0,0,0,0,0
351.43,1,2.04,0.67,0.49,0,0,0,0,0,0,0,0,0,0,0,0
352.43,1,2.05,0.67,0.51,0,0,0,0,0,0,0,0,0,0,0,0
353.43,1,2.01,0.68,0.51,0,0,0,0,0,0,0,0,0,0,0,0
354.43,1,2.08,0.68,0.50,0,0,0,0,0,0,0,0,0,0,0,0
355.43,1,2.22,0.68,0.51,0,0,0,0,0,0,0,0,0,0,0,0
356.43,1,2.02,0.68,0.51,0,0,0,0,0,0,0,0,0,0,0,0
357.44,1,2.08,0.68,0.50,0,0,0,0,0,0,0,0,0,0,0,0
358.44,1,1.92,0.68,0.49,0,0,0,0,0,0,0,0,0,0,0,0
359.44,1,1.91,0.67,0.49,0,0,0,0,0,0,0,0,0,0,0,0
360.44,1,1.87,0.67,0.49,0,0,0,0,0,0,0,0,0,0,0,0
361.44,1,1.91,0.67,0.49,0,0,0,0,0,0,0,0,0,0,0,0
362.44,1,1.98,0.67,0.49,0,0,0,0,0,0,0,0,0,0,0,0
363.44,1,2.08,0.67,0.51,0,0,0,0,0,0,0,0,0,0,0,0
364.44,1,2.01,0.67,0.51,0,0,0,0,0,0,0,0,0,0,0,0
365.44,1,1.99,0.68,0.51,0,0,0,0,0,0,0,0,0,0,0,0
366.44,1,2.14,0.68,0.51,0,0,0,0,0,0,0,0,0,0,0,0
367.45,1,2.21,0.68,0.51,0,0,0,0,0,0,0,0,0,0,0,0
368.45,1,2.12,0.68,0.51,0,0,0,0,0,0,0,0,0,0,0,0
369.45,1,2.06,0.68,0.51,0,0,0,0,0,0,0,0,0,0,0,0
370.45,1,2.00,0.68,0.49,0,0,0,0,0,0,0,0,0,0,0,0
371.45,1,2.01,0.68,0.49,0,0,0,0,0,0,0,0,0,0,0,0
372.45,1,1.98,0.68,0.49,0,0,0,0,0,0,0,0,0,0,0,0
373.45,1,1.89,0.68,0.50,0,0,0,0,0,0,0,0,0,0,0,0
374.45,1,1.88,0.67,0.50,0,0,0,0,0,0,0,0,0,0,0,0
375.45,1,1.91,0.68,0.51,0,0,0,0,0,0,0,0,0,0,0,0
376.45,1,1.91,0.68,0.51,0,0,0,0,0,0,0,0,0,0,0,0
377.46,1,1.96,0.67,0.51,0,0,0,0,0,0,0,0,0,0,0,0
378.46,1,1.97,0.67,0.50,0,0,0,0,0,0,0,0,0,0,0,0
379.46,1,2.00,0.67,0.50,0,0,0,0,0,0,0,0,0,0,0,0
380.46,1,2.03,0.67,0.50,0,0,0,0,0,0,0,0,0,0,0,0
381.46,1,2.07,0.67,0.49,0,0,0,0,0,0,0,0,0,0,0,0
382.46,1,2.19,0.67,0.48,0,0,0,0,0,0,0,0,0,0,0,0
383.46,1,2.18,0.67,0.48,0,0,0,0,0,0,0,0,0,0,0,0
384.46,1,2.15,0.67,0.49,0,0,0,0,0,0,0,0,0,0,0,0
385.46,1,2.08,0.68,0.50,0,0,0,0,0,0,0,0,0,0,0,0
386.47,1,2.05,0.68,0.50,0,0,0,0,0,0,0,0,0,0,0,0
387.47,1,2.04,0.68,0.50,0,0,0,0,0,0,0,0,0,0,0,0
388.47,1,2.01,0.68,0.51,0,0,0,0,0,0,0,0,0,0,0,0
389.47,1,2.05,0.69,0.52,0,0,0,0,0,0,0,0,0,0,0,0
390.47,1,2.03,0.69,0.52,0,0,0,0,0,0,0,0,0,0,0,0
391.47,0,1.98,0.69,0.52,0,0,0,0,0,0,0,0,0,0,0,0
392.47,0,1.92,0.69,0.52,0,0,0,0,0,0,0,0,0,0,0,0
393.47,0,1.77,0.68,0.52,0,0,0,0,0,0,0,0,0,0,0,0
394.47,0,1.93,0.68,0.52,0,0,0,0,0,0,0,0,0,0,0,0
395.47,0,1.93,0.68,0.51,0,0,0,0,0,0,0,0,0,0,0,0
396.48,0,1.94,0.68,0.51,0,0,0,0,0,0,0,0,0,0,0,0
397.48,0,1.96,0.67,0.50,0,0,0,0,0,0,0,0,0,0,0,0
398.48,0,2.00,0.67,0.49,0,0,0,0,0,0,0,0,0,0,0,0
399.48,0,1.99,0.66,0.48,0,0,0,0,0,0,0,0,0,0,0,0
400.48,0,1.98,0.66,0.48,0,0,0,0,0,0,0,0,0,0,0,0
401.48,0,2.05,0.66,0.47,0,0,0,0,0,0,0,0,0,0,0,0
402.48,0,2.04,0.66,0.47,0,0,0,0,0,0,0,0,0,0,0,0
403.48,0,2.10,0.66,0.47,0,0,0,0,0,0,0,0,0,0,0,0
404.48,0,2.12,0.67,0.47,0,0,0,0,0,0,0,0,0,0,0,0
405.48,0,2.08,0.67,0.46,0,0,0,0,0,0,0,0,0,0,0,0
406.49,0,1.94,0.67,0.46,0,0,0,0,0,0,0,0,0,0,0,0
407.49,0,1.93,0.67,0.46,0,0,0,0,0,0,0,0,0,0,0,0
408.49,0,1.92,0.67,0.48,0,0,0,0,0,0,0,0,0,0,0,0
409.49,0,1.91,0.67,0.48,0,0,0,0,0,0,0,0,0,0,0,0
410.49,0,1.87,0.67,0.48,0,0,0,0,0,0,0,0,0,0,0,0
411.49,0,1.86,0.67,0.48,0,0,0,0,0,0,0,0,0,0,0,0
412.49,0,1.81,0.66,0.48,0,0,0,0,0,0,0,0,0,0,0,0
413.49,0,1.70,0.66,0.48,0,0,0,0,0,0,0,0,0,0,0,0
414.49,0,1.84,0.65,0.48,0,0,0,0,0,0,0,0,0,0,0,0
415.50,0,1.88,0.65,0.48,0,0,0,0,0,0,0,0,0,0,0,0
416.50,0,1.95,0.65,0.48,0,0,0,0,0,0,0,0,0,0,0,0
417.50,0,1.91,0.65,0.47,0,0,0,0,0,0,0,0,0,0,0,0
418.50,0,1.93,0.64,0.46,0,0,0,0,0,0,0,0,0,0,0,0
419.50,0,1.94,0.64,0.45,0,0,0,0,0,0,0,0,0,0,0,0
420.50,0,1.99,0.64,0.45,0,0,0,0,0,0,0,0,0,0,0,0
421.50,0,2.08,0.64,0.45,0,0,0,0,0,0,0,0,0,0,0,0
422.50,0,2.09,0.64,0.46,0,0,0,0,0,0,0,0,0,0,0,0
423.50,0,2.07,0.65,0.46,0,0,0,0,0,0,0,0,0,0,0,0
424.50,0,2.10,0.65,0.47,0,0,0,0,0,0,0,0,0,0,0,0
425.51,0,1.99,0.65,0.47,0,0,0,0,0,0,0,0,0,0,0,0
426.51,0,2.01,0.66,0.48,0,0,0,0,0,0,0,0,0,0,0,0
427.51,0,1.93,0.66,0.49,0,0,0,0,0,0,0,0,0,0,0,0
428.51,0,1.97,0.66,0.51,0,0,0,0,0,0,0,0,0,0,0,0
429.51,0,1.93,0.67,0.52,0,0,0,0,0,0,0,0,0,0,0,0
430.51,0,1.93,0.67,0.53,0,0,0,0,0,0,0,0,0,0,0,0
431.51,0,1.85,0.67,0.53,0,0,0,0,0,0,0,0,0,0,0,0
432.51,0,1.86,0.66,0.53,0,0,0,0,0,0,0,0,0,0,0,0
433.51,0,1.81,0.66,0.53,0,0,0,0,0,0,0,0,0,0,0,0
434.51,0,1.86,0.66,0.54,0,0,0,0,0,0,0,0,0,0,0,0
435.52,0,1.85,0.66,0.53,0,0,0,0,0,0,0,0,0,0,0,0
436.52,0,1.87,0.65,0.52,0,0,0,0,0,0,0,0,0,0,0,0
437.52,0,1.90,0.65,0.51,0,0,0,0,0,0,0,0,0,0,0,0
438.52,0,1.90,0.64,0.50,0,0,0,0,0,0,0,0,0,0,0,0
439.52,0,1.95,0.64,0.48,0,0,0,0,0,0,0,0,0,0,0,0
440.52,0,1.96,0.64,0.48,0,0,0,0,0,0,0,0,0,0,0,0
441.52,0,1.96,0.64,0.47,0,0,0,0,0,0,0,0,0,0,0,0
442.52,0,2.08,0.64,0.47,0,0,0,0,0,0,0,0,0,0,0,0
443.52,0,2.09,0.64,0.47,0,0,0,0,0,0,0,0,0,0,0,0
444.52,0,2.13,0.65,0.47,0,0,0,0,0,0,0,0,0,0,0,0
445.53,0,2.07,0.65,0.48,0,0,0,0,0,0,0,0,0,0,0,0
446.53,0,2.01,0.66,0.48,0,0,0,0,0,0,0,0,0,0,0,0
447.53,0,1.95,0.66,0.49,0,0,0,0,0,0,0,0,0,0,0,0
448.53,0,1.97,0.66,0.50,0,0,0,0,0,0,0,0,0,0,0,0
449.53,0,1.94,0.66,0.51,0,0,0,0,0,0,0,0,0,0,0,0
450.53,0,1.95,0.67,0.52,0,0,0,0,0,0,0,0,0,0,0,0
451.53,0,1.86,0.67,0.52,0,0,0,0,0,0,0,0,0,0,0,0
452.53,0,1.86,0.66,0.53,0,0,0,0,0,0,0,0,0,0,0,0
453.53,0,1.83,0.66,0.53,0,0,0,0,0,0,0,0,0,0,0,0
454.54,0,1.85,0.66,0.53,0,0,0,0,0,0,0,0,0,0,0,0
455.54,0,1.87,0.66,0.53,0,0,0,0,0,0,0,0,0,0,0,0
456.54,0,1.82,0.66,0.53,0,0,0,0,0,0,0,0,0,0,0,0
457.54,0,1.95,0.65,0.52,0,0,0,0,0,0,0,0,0,0,0,0
458.54,0,1.95,0.65,0.51,0,0,0,0,0,0,0,0,0,0,0,0
459.54,0,1.94,0.65,0.49,0,0,0,0,0,0,0,0,0,0,0,0
460.54,0,1.82,0.64,0.48,0,0,0,0,0,0,0,0,0,0,0,0
461.54,0,2.02,0.64,0.47,0,0,0,0,0,0,0,0,0,0,0,0
462.54,0,2.08,0.64,0.48,0,0,0,0,0,0,0,0,0,0,0,0
463.54,0,2.10,0.65,0.47,0,0,0,0,0,0,0,0,0,0,0,0
464.55,0,2.06,0.65,0.48,0,0,0,0,0,0,0,0,0,0,0,0
465.55,0,2.06,0.65,0.48,0,0,0,0,0,0,0,0,0,0,0,0
466.55,0,1.98,0.65,0.48,0,0,0,0,0,0,0,0,0,0,0,0
467.55,0,1.97,0.66,0.49,0,0,0,0,0,0,0,0,0,0,0,0
468.55,0,1.94,0.66,0.49,0,0,0,0,0,0,0,0,0,0,0,0
469.55,0,1.94,0.66,0.50,0,0,0,0,0,0,0,0,0,0,0,0
470.55,0,1.87,0.66,0.50,0,0,0,0,0,0,0,0,0,0,0,0
471.55,0,1.85,0.66,0.51,0,0,0,0,0,0,0,0,0,0,0,0
472.55,0,1.85,0.66,0.51,0,0,0,0,0,0,0,0,0,0,0,0
473.55,0,2.04,0.66,0.52,0,0,0,0,0,0,0,0,0,0,0,0
474.55,0,1.95,0.66,0.53,0,0,0,0,0,0,0,0,0,0,0,0
475.56,0,1.93,0.66,0.54,0,0,0,0,0,0,0,0,0,0,0,0
476.56,0,1.98,0.66,0.54,0,0,0,0,0,0,0,0,0,0,0,0
477.56,0,1.97,0.66,0.53,0,0,0,0,0,0,0,0,0,0,0,0
478.56,0,1.99,0.66,0.52,0,0,0,0,0,0,0,0,0,0,0,0
479.56,0,2.09,0.66,0.52,0,0,0,0,0,0,0,0,0,0,0,0
480.56,0,2.12,0.66,0.51,0,0,0,0,0,0,0,0,0,0,0,0
481.56,0,2.09,0.66,0.51,0,0,0,0,0,0,0,0,0,0,0,0
482.56,0,2.07,0.66,0.51,0,0,0,0,0,0,0,0,0,0,0,0
483.56,0,2.01,0.67,0.51,0,0,0,0,0,0,0,0,0,0,0,0
484.57,0,1.96,0.67,0.51,0,0,0,0,0,0,0,0,0,0,0,0
485.57,0,1.97,0.67,0.51,0,0,0,0,0,0,0,0,0,0,0,0
486.57,0,1.94,0.67,0.52,0,0,0,0,0,0,0,0,0,0,0,0
487.57,0,1.81,0.67,0.52,0,0,0,0,0,0,0,0,0,0,0,0
488.57,0,1.87,0.67,0.51,0,0,0,0,0,0,0,0,0,0,0,0
489.57,0,1.87,0.66,0.50,0,0,0,0,0,0,0,0,0,0,0,0
490.57,0,1.91,0.66,0.50,0,0,0,0,0,0,0,0,0,0,0,0
491.57,0,1.95,0.66,0.50,0,0,0,0,0,0,0,0,0,0,0,0
492.57,0,1.95,0.66,0.50,0,0,0,0,0,0,0,0,0,0,0,0
493.58,0,1.96,0.66,0.51,0,0,0,0,0,0,0,0,0,0,0,0
494.58,0,1.98,0.66,0.50,0,0,0,0,0,0,0,0,0,0,0,0
495.58,0,1.97,0.66,0.49,0,0,0,0,0,0,0,0,0,0,0,0
496.58,0,2.05,0.66,0.49,0,0,0,0,0,0,0,0,0,0,0,0
497.58,0,2.07,0.66,0.48,0,0,0,0,0,0,0,0,0,0,0,0
498.58,0,2.12,0.66,0.49,0,0,0,0,0,0,0,0,0,0,0,0
499.58,0,2.08,0.66,0.49,0,0,0,0,0,0,0,0,0,0,0,0
500.58,0,2.06,0.66,0.49,0,0,0,0,0,0,0,0,0,0,0,0
501.58,0,1.98,0.66,0.49,0,0,0,0,0,0,0,0,0,0,0,0
502.58,0,1.97,0.67,0.49,0,0,0,0,0,0,0,0,0,0,0,0
503.58,0,1.98,0.67,0.51,0,0,0,0,0,0,0,0,0,0,0,0
504.59,0,1.96,0.67,0.51,0,0,0,0,0,0,0,0,0,0,0,0
505.59,0,1.95,0.67,0.51,0,0,0,0,0,0,0,0,0,0,0,0
506.59,0,1.93,0.67,0.51,0,0,0,0,0,0,0,0,0,0,0,0
507.59,0,1.87,0.67,0.51,0,0,0,0,0,0,0,0,0,0,0,0
508.59,0,1.91,0.67,0.51,0,0,0,0,0,0,0,0,0,0,0,0
509.59,0,1.90,0.67,0.51,0,0,0,0,0,0,0,0,0,0,0,0
510.59,0,1.92,0.67,0.52,0,0,0,0,0,0,0,0,0,0,0,0
511.59,0,1.96,0.66,0.51,0,0,0,0,0,0,0,0,0,0,0,0
512.59,0,1.96,0.66,0.51,0,0,0,0,0,0,0,0,0,0,0,0
513.59,0,1.96,0.66,0.50,0,0,0,0,0,0,0,0,0,0,0,0
514.60,0,2.03,0.66,0.49,0,0,0,0,0,0,0,0,0,0,0,0
515.60,0,1.92,0.65,0.48,0,0,0,0,0,0,0,0,0,0,0,0
516.60,0,2.11,0.66,0.49,0,0,0,0,0,0,0,0,0,0,0,0
517.60,0,2.21,0.66,0.49,0,0,0,0,0,0,0,0,0,0,0,0
518.60,0,2.10,0.66,0.49,0,0,0,0,0,0,0,0,0,0,0,0
519.60,1,1.99,0.66,0.49,0,0,0,0,0,0,0,0,0,0,0,0
520.60,1,2.06,0.67,0.49,0,0,0,0,0,0,0,0,0,0,0,0
521.60,1,1.99,0.67,0.50,0,0,0,0,0,0,0,0,0,0,0,0
522.60,1,1.98,0.67,0.50,0,0,0,0,0,0,0,0,0,0,0,0
523.61,1,1.99,0.67,0.51,0,0,0,0,0,0,0,0,0,0,0,0
524.61,1,1.93,0.67,0.51,0,0,0,0,0,0,0,0,0,0,0,0
525.61,1,1.86,0.67,0.51,0,0,0,0,0,0,0,0,0,0,0,0
526.61,1,1.90,0.67,0.51,0,0,0,0,0,0,0,0,0,0,0,0
