Time,PanelLabel,Voltage1_raw,Voltage1_avg,Prev_dif1_avg,NN6Label1,NN12Label1,NN24Label1,NN36Label1,LGRLabel1,GNBLabel1,DTLabel1,RFLabel1,SEFRLabel1,Thresh1Label1,Thresh2Label1,Thresh3Label1,,54
22.07,1,2.52,0.06,0.13,0,0,0,0,0,0,1,1,0,1,1,1
23.08,1,2.75,0.12,0.26,0,0,0,0,0,0,1,1,0,1,1,1
24.08,1,2.93,0.18,0.41,0,0,0,0,0,0,1,1,0,1,1,1
25.08,1,2.51,0.24,0.53,0,0,0,0,0,0,1,1,0,0,1,1
26.08,1,2.57,0.30,0.66,0,0,0,0,0,0,1,1,0,0,1,1
27.08,1,2.45,0.35,0.79,0,0,0,0,0,0,1,1,0,0,1,1
28.08,1,2.46,0.41,0.91,0,0,0,0,0,0,1,1,0,0,1,1
29.08,1,2.40,0.46,1.04,0,0,0,0,0,1,1,1,1,0,1,1
30.08,1,2.36,0.51,1.16,0,0,0,0,0,1,1,1,1,0,1,1
31.08,1,2.35,0.57,1.28,0,0,0,0,0,1,1,1,1,0,1,1
32.09,1,2.42,0.62,1.40,0,0,0,0,0,1,1,1,1,0,1,1
33.09,1,2.48,0.67,1.53,1,1,0,0,0,1,1,1,1,1,1,1
34.09,1,2.49,0.73,1.66,1,1,1,1,1,1,1,1,1,1,1,1
35.09,1,2.57,0.79,1.79,1,1,1,1,1,1,1,1,1,1,1,1
36.09,1,2.70,0.85,1.92,1,1,1,1,1,1,1,1,1,1,1,1
37.09,1,2.66,0.85,1.83,1,1,1,1,1,1,1,1,1,1,1,1
38.09,1,2.58,0.85,1.72,1,1,1,1,1,1,1,1,1,1,1,1
39.09,1,2.54,0.84,1.60,1,1,1,1,1,1,1,1,1,1,1,1
40.09,1,2.46,0.84,1.50,1,1,1,1,1,1,1,1,1,1,1,1
41.10,1,2.46,0.84,1.40,1,1,1,1,1,1,1,1,1,1,1,1
42.10,1,2.33,0.83,1.31,1,1,1,1,1,1,1,1,1,1,1,1
43.10,1,2.30,0.83,1.21,1,1,1,1,1,1,1,1,1,1,1,1
44.10,1,2.36,0.83,1.12,1,1,1,1,1,1,1,1,1,1,1,1
45.10,1,2.39,0.83,1.03,1,1,1,1,1,1,1,1,1,1,1,1
46.10,1,2.51,0.83,0.95,1,1,1,1,1,1,1,1,1,1,1,1
47.10,1,2.49,0.83,0.86,1,1,1,1,1,1,1,1,1,1,1,1
48.10,1,2.53,0.84,0.77,1,1,1,1,1,1,1,1,1,1,1,1
49.10,1,2.73,0.84,0.68,1,1,1,1,1,1,1,1,1,1,1,1
50.10,1,2.59,0.84,0.59,1,1,1,1,1,1,1,1,1,1,1,1
51.11,1,2.62,0.84,0.48,1,1,1,1,1,1,1,1,1,1,1,1
52.11,1,2.56,0.84,0.48,1,1,1,1,1,1,1,1,1,1,1,1
53.11,1,2.47,0.83,0.48,1,1,1,1,1,1,1,1,1,1,1,1
54.11,1,2.45,0.83,0.49,1,1,1,1,1,1,1,1,1,1,1,1
55.11,1,2.34,0.83,0.49,1,1,1,1,1,1,1,1,1,1,1,1
56.11,1,2.31,0.83,0.48,1,1,1,1,1,1,1,1,1,1,1,1
57.11,1,2.34,0.83,0.49,1,1,1,1,1,1,1,1,1,1,1,1
58.11,1,2.40,0.83,0.50,1,1,1,1,1,1,1,1,1,1,1,1
59.11,1,2.47,0.83,0.51,1,1,1,1,1,1,1,1,1,1,1,1
60.11,1,2.49,0.83,0.51,1,1,1,1,1,1,1,1,1,1,1,1
61.12,1,2.60,0.84,0.51,1,1,1,1,1,1,1,1,1,1,1,1
62.12,1,2.71,0.84,0.51,1,1,1,1,1,1,1,1,1,1,1,1
63.12,1,2.68,0.84,0.51,1,1,1,1,1,1,1,1,1,1,1,1
64.12,1,2.56,0.84,0.50,1,1,1,1,1,1,1,1,1,1,1,1
65.12,1,2.47,0.84,0.49,1,1,1,1,1,1,1,1,1,1,1,1
66.12,1,2.46,0.83,0.49,1,1,1,1,1,1,1,1,1,1,1,1
67.12,1,2.45,0.83,0.49,1,1,1,1,1,1,1,1,1,1,1,1
68.12,1,2.30,0.83,0.49,1,1,1,1,1,1,1,1,1,1,1,1
69.12,1,2.30,0.82,0.49,1,1,1,1,1,0,1,1,1,1,1,1
70.12,1,2.43,0.83,0.49,1,1,1,1,1,1,1,1,1,1,1,1
71.13,1,2.44,0.83,0.50,1,1,1,1,1,1,1,1,1,1,1,1
72.13,1,2.50,0.83,0.51,1,1,1,1,1,1,1,1,1,1,1,1
73.13,1,2.70,0.84,0.52,1,1,1,1,1,1,1,1,1,1,1,1
74.13,1,2.70,0.84,0.52,1,1,1,1,1,1,1,1,1,1,1,1
75.13,1,2.74,0.85,0.53,1,1,1,1,1,1,1,1,1,1,1,1
76.13,1,2.53,0.85,0.52,1,1,1,1,1,1,1,1,1,1,1,1
77.13,1,2.47,0.84,0.50,1,1,1,1,1,1,1,1,1,1,1,1
78.13,1,2.47,0.84,0.49,1,1,1,1,1,1,1,1,1,1,1,1
79.13,1,2.35,0.83,0.49,1,1,1,1,1,1,1,1,1,1,1,1
80.13,1,2.30,0.83,0.49,1,1,1,1,1,1,1,1,1,1,1,1
81.14,1,2.40,0.83,0.49,1,1,1,1,1,1,1,1,1,1,1,1
82.14,1,2.46,0.83,0.49,1,1,1,1,1,1,1,1,1,1,1,1
83.14,1,2.46,0.83,0.51,1,1,1,1,1,1,1,1,1,1,1,1
84.14,1,2.53,0.84,0.52,1,1,1,1,1,1,1,1,1,1,1,1
85.14,1,2.69,0.84,0.53,1,1,1,1,1,1,1,1,1,1,1,1
86.14,1,2.63,0.85,0.53,1,1,1,1,1,1,1,1,1,1,1,1
87.14,1,2.07,0.84,0.51,1,1,1,1,1,1,1,1,1,1,1,1
88.14,1,2.48,0.83,0.49,1,1,1,1,1,1,1,1,1,1,1,1
89.14,1,2.48,0.83,0.47,1,1,1,1,1,1,1,1,1,1,1,1
90.14,1,2.33,0.82,0.45,1,1,1,1,1,1,1,1,0,0,1,1
91.15,1,2.44,0.82,0.45,1,1,1,1,1,1,1,1,0,0,1,1
92.15,1,2.41,0.82,0.45,1,1,1,1,1,1,0,0,0,0,1,1
93.15,1,2.45,0.82,0.46,1,1,1,1,1,0,0,0,0,0,1,1
94.15,1,2.50,0.82,0.47,1,1,1,1,1,0,1,1,0,0,1,1
95.15,1,2.53,0.82,0.49,1,1,1,1,1,0,1,1,1,0,1,1
96.15,1,3.12,0.84,0.52,1,1,1,1,1,1,1,1,1,1,1,1
97.15,1,2.64,0.84,0.53,1,1,1,1,1,1,1,1,1,1,1,1
98.15,1,2.56,0.85,0.52,1,1,1,1,1,1,1,1,1,1,1,1
99.15,1,2.47,0.84,0.51,1,1,1,1,1,1,1,1,1,1,1,1
100.15,1,2.47,0.84,0.49,1,1,1,1,1,1,1,1,1,1,1,1
101.16,1,2.34,0.83,0.48,1,1,1,1,1,1,1,1,1,1,1,1
102.16,1,2.16,0.84,0.49,1,1,1,1,1,1,1,1,1,1,1,1
103.16,1,2.45,0.83,0.50,1,1,1,1,1,1,1,1,1,1,1,1
104.16,1,2.46,0.83,0.51,1,1,1,1,1,1,1,1,1,1,1,1
105.16,1,2.48,0.84,0.53,1,1,1,1,1,1,1,1,1,1,1,1
106.16,1,2.60,0.84,0.54,1,1,1,1,1,1,1,1,1,1,1,1
107.16,1,2.71,0.85,0.55,1,1,1,1,1,1,1,1,1,1,1,1
108.16,1,2.65,0.85,0.56,1,1,1,1,1,1,1,1,1,1,1,1
109.16,1,2.51,0.85,0.56,1,1,1,1,1,1,1,1,1,1,1,1
110.17,1,2.46,0.85,0.54,1,1,1,1,1,1,1,1,1,1,1,1
111.17,1,2.32,0.83,0.49,1,1,1,1,1,1,1,1,1,1,1,1
112.17,1,2.31,0.83,0.47,1,1,1,1,1,1,1,1,0,1,1,1
113.17,1,2.37,0.82,0.46,1,1,1,1,1,1,1,1,0,0,1,1
114.17,1,2.43,0.82,0.46,1,1,1,1,1,1,1,1,0,0,1,1
115.17,1,2.44,0.82,0.47,1,1,1,1,1,0,1,1,0,0,1,1
116.17,1,2.71,0.83,0.49,1,1,1,1,1,1,1,1,1,1,1,1
117.17,1,2.70,0.84,0.51,1,1,1,1,1,1,1,1,1,1,1,1
118.17,1,2.79,0.85,0.52,1,1,1,1,1,1,1,1,1,1,1,1
119.18,1,2.47,0.85,0.52,1,1,1,1,1,1,1,1,1,1,1,1
120.18,1,2.46,0.85,0.52,1,1,1,1,1,1,1,1,1,1,1,1
121.18,1,2.40,0.84,0.50,1,1,1,1,1,1,1,1,1,1,1,1
122.18,1,2.32,0.83,0.48,1,1,1,1,1,1,1,1,1,1,1,1
123.18,1,2.33,0.83,0.46,1,1,1,1,1,1,1,1,0,1,1,1
124.18,1,2.51,0.83,0.46,1,1,1,1,1,1,1,1,0,1,1,1
125.18,1,2.50,0.83,0.46,1,1,1,1,1,1,1,1,0,1,1,1
126.18,1,2.60,0.83,0.50,1,1,1,1,1,1,1,1,1,1,1,1
127.18,1,2.69,0.84,0.53,1,1,1,1,1,1,1,1,1,1,1,1
128.18,1,2.62,0.85,0.55,1,1,1,1,1,1,1,1,1,1,1,1
129.19,1,2.47,0.85,0.55,1,1,1,1,1,1,1,1,1,1,1,1
130.19,1,2.46,0.85,0.55,1,1,1,1,1,1,1,1,1,1,1,1
131.19,1,2.24,0.84,0.52,1,1,1,1,1,1,1,1,1,1,1,1
132.19,1,2.32,0.83,0.48,1,1,1,1,1,1,1,1,1,1,1,1
133.19,1,2.40,0.82,0.46,1,1,1,1,1,1,1,1,0,0,1,1
134.19,1,2.47,0.82,0.46,1,1,1,1,1,1,1,1,0,0,1,1
135.19,1,2.48,0.82,0.46,1,1,1,1,1,1,1,1,0,0,1,1
136.19,1,2.51,0.83,0.47,1,1,1,1,1,1,1,1,0,1,1,1
137.19,1,3.03,0.84,0.51,1,1,1,1,1,1,1,1,1,1,1,1
138.19,1,2.62,0.85,0.53,1,1,1,1,1,1,1,1,1,1,1,1
139.20,1,2.57,0.85,0.54,1,1,1,1,1,1,1,1,1,1,1,1
140.20,1,2.47,0.85,0.53,1,1,1,1,1,1,1,1,1,1,1,1
141.20,1,2.46,0.85,0.52,1,1,1,1,1,1,1,1,1,1,1,1
142.20,1,2.34,0.84,0.49,1,1,1,1,1,1,1,1,1,1,1,1
143.20,1,2.36,0.83,0.47,1,1,1,1,1,1,1,1,1,1,1,1
144.20,1,2.45,0.83,0.47,1,1,1,1,1,1,1,1,1,1,1,1
145.20,1,2.51,0.83,0.47,1,1,1,1,1,1,1,1,1,1,1,1
146.20,1,2.51,0.84,0.50,1,1,1,1,1,1,1,1,1,1,1,1
147.20,1,2.63,0.85,0.52,1,1,1,1,1,1,1,1,1,1,1,1
148.20,1,2.56,0.85,0.54,1,1,1,1,1,1,1,1,1,1,1,1
149.21,1,2.55,0.85,0.55,1,1,1,1,1,1,1,1,1,1,1,1
150.21,1,2.49,0.85,0.55,1,1,1,1,1,1,1,1,1,1,1,1
151.21,1,2.38,0.85,0.54,1,1,1,1,1,1,1,1,1,1,1,1
152.21,1,2.33,0.83,0.48,1,1,1,1,1,1,1,1,1,1,1,1
153.21,1,2.36,0.83,0.46,1,1,1,1,1,1,1,1,0,1,1,1
154.21,1,2.41,0.82,0.46,1,1,1,1,1,1,1,1,0,0,1,1
155.21,1,2.51,0.82,0.46,1,1,1,1,1,1,1,1,0,0,1,1
156.21,1,2.48,0.82,0.46,1,1,1,1,1,1,1,1,0,0,1,1
157.21,1,2.64,0.83,0.49,1,1,1,1,1,1,1,1,1,1,1,1
158.22,1,2.68,0.84,0.51,1,1,1,1,1,1,1,1,1,1,1,1
159.22,1,2.64,0.84,0.52,1,1,1,1,1,1,1,1,1,1,1,1
160.22,1,2.62,0.84,0.52,1,1,1,1,1,1,1,1,1,1,1,1
161.22,1,2.48,0.84,0.51,1,1,1,1,1,1,1,1,1,1,1,1
162.22,1,2.48,0.84,0.49,1,1,1,1,1,1,1,1,1,1,1,1
163.22,1,2.38,0.84,0.48,1,1,1,1,1,1,1,1,1,1,1,1
164.22,1,2.34,0.83,0.47,1,1,1,1,1,1,1,1,1,1,1,1
165.22,1,2.35,0.83,0.46,1,1,1,1,1,1,1,1,0,1,1,1
166.22,1,2.51,0.83,0.47,1,1,1,1,1,1,1,1,1,1,1,1
167.22,1,2.54,0.84,0.51,1,1,1,1,1,1,1,1,1,1,1,1
168.23,1,2.52,0.84,0.52,1,1,1,1,1,1,1,1,1,1,1,1
169.23,1,2.65,0.85,0.54,1,1,1,1,1,1,1,1,1,1,1,1
170.23,1,2.72,0.85,0.54,1,1,1,1,1,1,1,1,1,1,1,1
171.23,1,2.68,0.85,0.55,1,1,1,1,1,1,1,1,1,1,1,1
172.23,1,2.58,0.85,0.54,1,1,1,1,1,1,1,1,1,1,1,1
173.23,1,2.50,0.85,0.52,1,1,1,1,1,1,1,1,1,1,1,1
174.23,1,2.48,0.85,0.51,1,1,1,1,1,1,1,1,1,1,1,1
175.23,1,2.47,0.84,0.50,1,1,1,1,1,1,1,1,1,1,1,1
176.23,1,2.33,0.84,0.49,1,1,1,1,1,1,1,1,1,1,1,1
177.23,1,2.38,0.84,0.49,1,1,1,1,1,1,1,1,1,1,1,1
178.24,1,2.41,0.84,0.50,1,1,1,1,1,1,1,1,1,1,1,1
179.24,1,2.53,0.84,0.52,1,1,1,1,1,1,1,1,1,1,1,1
180.24,1,2.49,0.84,0.53,1,1,1,1,1,1,1,1,1,1,1,1
181.24,1,2.65,0.85,0.53,1,1,1,1,1,1,1,1,1,1,1,1
182.24,1,2.70,0.85,0.52,1,1,1,1,1,1,1,1,1,1,1,1
183.24,1,2.66,0.85,0.52,1,1,1,1,1,1,1,1,1,1,1,1
184.24,1,2.60,0.85,0.51,1,1,1,1,1,1,1,1,1,1,1,1
185.24,1,2.48,0.85,0.50,1,1,1,1,1,1,1,1,1,1,1,1
186.24,1,2.48,0.84,0.48,1,1,1,1,1,1,1,1,1,1,1,1
187.24,1,2.46,0.84,0.48,1,1,1,1,1,1,1,1,1,1,1,1
188.25,1,2.33,0.84,0.48,1,1,1,1,1,1,1,1,1,1,1,1
189.25,1,2.43,0.84,0.48,1,1,1,1,1,1,1,1,1,1,1,1
190.25,1,2.47,0.84,0.49,1,1,1,1,1,1,1,1,1,1,1,1
191.25,1,2.50,0.84,0.50,1,1,1,1,1,1,1,1,1,1,1,1
192.25,1,2.66,0.85,0.52,1,1,1,1,1,1,1,1,1,1,1,1
193.25,1,2.77,0.85,0.53,1,1,1,1,1,1,1,1,1,1,1,1
194.25,1,2.64,0.86,0.52,1,1,1,1,1,1,1,1,1,1,1,1
195.25,1,2.57,0.86,0.52,1,1,1,1,1,1,1,1,1,1,1,1
196.25,1,2.48,0.85,0.51,1,1,1,1,1,1,1,1,1,1,1,1
197.26,1,2.47,0.85,0.50,1,1,1,1,1,1,1,1,1,1,1,1
198.26,1,2.33,0.84,0.48,1,1,1,1,1,1,1,1,1,1,1,1
199.26,1,2.31,0.84,0.47,1,1,1,1,1,1,1,1,1,1,1,1
200.26,1,2.38,0.83,0.48,1,1,1,1,1,1,1,1,1,1,1,1
201.26,1,2.44,0.83,0.48,1,1,1,1,1,1,1,1,1,1,1,1
202.26,1,2.49,0.83,0.49,1,1,1,1,1,1,1,1,1,1,1,1
203.26,1,2.64,0.84,0.50,1,1,1,1,1,1,1,1,1,1,1,1
204.26,1,3.02,0.85,0.53,1,1,1,1,1,1,1,1,1,1,1,1
205.26,1,2.64,0.86,0.54,1,1,1,1,1,1,1,1,1,1,1,1
206.26,1,2.59,0.86,0.53,1,1,1,1,1,1,1,1,1,1,1,1
207.27,1,2.48,0.85,0.52,1,1,1,1,1,1,1,1,1,1,1,1
208.27,1,2.46,0.85,0.49,1,1,1,1,1,1,1,1,1,1,1,1
209.27,1,2.38,0.84,0.48,1,1,1,1,1,1,1,1,1,1,1,1
210.27,1,2.33,0.84,0.46,1,1,1,1,1,1,1,1,1,1,1,1
211.27,1,2.42,0.84,0.47,1,1,1,1,1,1,1,1,1,1,1,1
212.27,1,2.46,0.84,0.48,1,1,1,1,1,1,1,1,1,1,1,1
213.27,1,2.47,0.84,0.49,1,1,1,1,1,1,1,1,1,1,1,1
214.27,1,2.50,0.84,0.51,1,1,1,1,1,1,1,1,1,1,1,1
215.27,1,2.69,0.85,0.53,1,1,1,1,1,1,1,1,1,1,1,1
216.27,1,2.51,0.85,0.53,1,1,1,1,1,1,1,1,1,1,1,1
217.27,1,2.65,0.85,0.54,1,1,1,1,1,1,1,1,1,1,1,1
218.28,1,2.50,0.85,0.52,1,1,1,1,1,1,1,1,1,1,1,1
219.28,1,2.49,0.84,0.48,1,1,1,1,1,1,1,1,1,1,1,1
220.28,1,2.42,0.83,0.46,1,1,1,1,1,1,1,1,1,1,1,1
221.28,1,2.37,0.83,0.45,1,1,1,1,1,1,1,1,0,1,1,1
222.28,1,2.35,0.83,0.45,1,1,1,1,1,1,1,1,0,1,1,1
223.28,1,2.25,0.82,0.46,1,1,1,1,1,1,1,1,0,0,1,1
224.28,1,2.44,0.82,0.47,1,1,1,1,1,1,1,1,0,0,1,1
225.28,1,2.48,0.83,0.48,1,1,1,1,1,1,1,1,1,1,1,1
226.28,1,2.62,0.83,0.49,1,1,1,1,1,1,1,1,1,1,1,1
227.29,1,2.71,0.84,0.50,1,1,1,1,1,1,1,1,1,1,1,1
228.29,1,2.63,0.84,0.50,1,1,1,1,1,1,1,1,1,1,1,1
229.29,1,2.43,0.84,0.49,1,1,1,1,1,1,1,1,1,1,1,1
230.29,1,2.48,0.83,0.47,1,1,1,1,1,1,1,1,1,1,1,1
231.29,1,2.40,0.83,0.47,1,1,1,1,1,1,1,1,1,1,1,1
232.29,1,2.35,0.83,0.45,1,1,1,1,1,1,1,1,0,1,1,1
233.29,1,2.32,0.82,0.45,1,1,1,1,1,1,1,1,0,0,1,1
234.29,1,2.39,0.82,0.47,1,1,1,1,1,0,1,1,0,0,1,1
235.29,1,2.52,0.82,0.48,1,1,1,1,1,0,1,1,1,0,1,1
236.30,1,2.48,0.82,0.49,1,1,1,1,1,0,1,1,1,0,1,1
237.30,1,2.51,0.83,0.50,1,1,1,1,1,1,1,1,1,1,1,1
238.30,1,2.62,0.84,0.52,1,1,1,1,1,1,1,1,1,1,1,1
239.30,1,2.73,0.84,0.53,1,1,1,1,1,1,1,1,1,1,1,1
240.30,1,2.67,0.85,0.53,1,1,1,1,1,1,1,1,1,1,1,1
241.30,1,2.58,0.85,0.52,1,1,1,1,1,1,1,1,1,1,1,1
242.30,1,2.48,0.84,0.51,1,1,1,1,1,1,1,1,1,1,1,1
243.30,1,2.46,0.84,0.49,1,1,1,1,1,1,1,1,1,1,1,1
244.30,1,2.39,0.84,0.50,1,1,1,1,1,1,1,1,1,1,1,1
245.30,1,2.35,0.83,0.50,1,1,1,1,1,1,1,1,1,1,1,1
246.30,1,2.54,0.84,0.51,1,1,1,1,1,1,1,1,1,1,1,1
247.31,1,2.77,0.85,0.53,1,1,1,1,1,1,1,1,1,1,1,1
248.31,1,2.48,0.85,0.55,1,1,1,1,1,1,1,1,1,1,1,1
249.31,1,2.57,0.85,0.56,1,1,1,1,1,1,1,1,1,1,1,1
250.31,1,2.50,0.85,0.55,1,1,1,1,1,1,1,1,1,1,1,1
251.31,1,2.56,0.85,0.55,1,1,1,1,1,1,1,1,1,1,1,1
252.31,1,2.71,0.86,0.55,1,1,1,1,1,1,1,1,1,1,1,1
253.31,1,2.72,0.86,0.54,1,1,1,1,1,1,1,1,1,1,1,1
254.31,1,2.65,0.86,0.53,1,1,1,1,1,1,1,1,1,1,1,1
255.31,1,2.49,0.85,0.51,1,1,1,1,1,1,1,1,1,1,1,1
256.32,1,2.49,0.85,0.51,1,1,1,1,1,1,1,1,1,1,1,1
257.32,1,2.48,0.85,0.52,1,1,1,1,1,1,1,1,1,1,1,1
258.32,1,2.48,0.85,0.53,1,1,1,1,1,1,1,1,1,1,1,1
259.32,1,2.35,0.85,0.53,1,1,1,1,1,1,1,1,1,1,1,1
260.32,1,2.34,0.85,0.53,1,1,1,1,1,1,1,1,1,1,1,1
261.32,1,2.40,0.85,0.52,1,1,1,1,1,1,1,1,1,1,1,1
262.32,1,2.39,0.84,0.49,1,1,1,1,1,1,1,1,1,1,1,1
263.32,1,2.47,0.84,0.49,1,1,1,1,1,1,1,1,1,1,1,1
264.32,1,2.47,0.84,0.48,1,1,1,1,1,1,1,1,1,1,1,1
265.32,1,2.53,0.84,0.48,1,1,1,1,1,1,1,1,1,1,1,1
266.33,1,2.68,0.84,0.48,1,1,1,1,1,1,1,1,1,1,1,1
267.33,1,2.66,0.84,0.47,1,1,1,1,1,1,1,1,1,1,1,1
268.33,1,2.63,0.84,0.46,1,1,1,1,1,1,1,1,1,1,1,1
269.33,1,2.49,0.83,0.46,1,1,1,1,1,1,1,1,1,1,1,1
270.33,1,2.47,0.83,0.47,1,1,1,1,1,1,1,1,1,1,1,1
271.33,1,2.46,0.83,0.47,1,1,1,1,1,1,1,1,1,1,1,1
272.33,1,2.35,0.83,0.46,1,1,1,1,1,1,1,1,0,1,1,1
273.33,1,2.35,0.83,0.46,1,1,1,1,1,1,1,1,0,1,1,1
274.33,1,2.36,0.83,0.46,1,1,1,1,1,1,1,1,0,1,1,1
275.33,1,2.40,0.83,0.46,1,1,1,1,1,1,1,1,0,1,1,1
276.34,1,2.48,0.83,0.47,1,1,1,1,1,1,1,1,1,1,1,1
277.34,1,2.48,0.83,0.49,1,1,1,1,1,1,1,1,1,1,1,1
278.34,1,2.51,0.83,0.49,1,1,1,1,1,1,1,1,1,1,1,1
279.34,1,2.00,0.82,0.48,1,1,1,1,1,0,1,1,1,0,1,1
280.34,1,2.71,0.83,0.48,1,1,1,1,1,1,1,1,1,1,1,1
281.34,1,2.63,0.83,0.47,1,1,1,1,1,1,1,1,1,1,1,1
282.34,1,2.58,0.82,0.47,1,1,1,1,1,1,1,1,1,1,1,1
283.34,1,2.48,0.82,0.47,1,1,1,1,1,0,1,1,0,0,1,1
284.34,1,2.47,0.82,0.48,1,1,1,1,1,0,1,1,0,0,1,1
285.35,1,2.40,0.82,0.47,1,1,1,1,1,0,1,1,0,0,1,1
286.35,1,2.34,0.82,0.47,1,1,1,1,1,0,1,0,0,0,1,1
287.35,1,2.34,0.82,0.48,1,1,1,1,1,0,1,1,0,0,1,1
288.35,1,2.46,0.82,0.48,1,1,1,1,1,0,1,1,1,0,1,1
289.35,1,2.47,0.82,0.49,1,1,1,1,1,0,1,1,1,0,1,1
290.35,1,2.46,0.82,0.49,1,1,1,1,1,0,1,1,1,0,1,1
291.35,1,2.48,0.82,0.49,1,1,1,1,1,0,1,1,1,0,1,1
292.35,1,2.50,0.82,0.48,1,1,1,1,1,0,1,1,1,0,1,1
293.35,1,2.69,0.83,0.49,1,1,1,1,1,1,1,1,1,1,1,1
294.35,1,2.66,0.84,0.53,1,1,1,1,1,1,1,1,1,1,1,1
295.36,1,2.65,0.84,0.52,1,1,1,1,1,1,1,1,1,1,1,1
296.36,1,2.52,0.84,0.52,1,1,1,1,1,1,1,1,1,1,1,1
297.36,1,2.47,0.84,0.52,1,1,1,1,1,1,1,1,1,1,1,1
298.36,1,2.35,0.83,0.52,1,1,1,1,1,1,1,1,1,1,1,1
299.36,1,2.47,0.83,0.52,1,1,1,1,1,1,1,1,1,1,1,1
300.36,1,2.34,0.83,0.52,1,1,1,1,1,1,1,1,1,1,1,1
301.36,1,2.34,0.83,0.53,1,1,1,1,1,1,1,1,1,1,1,1
302.36,1,2.26,0.83,0.52,1,1,1,1,1,1,1,1,1,1,1,1
303.36,1,2.57,0.83,0.52,1,1,1,1,1,1,1,1,1,1,1,1
304.36,1,2.51,0.83,0.52,1,1,1,1,1,1,1,1,1,1,1,1
305.37,1,2.52,0.83,0.52,1,1,1,1,1,1,1,1,1,1,1,1
306.37,1,2.58,0.84,0.52,1,1,1,1,1,1,1,1,1,1,1,1
307.37,1,2.70,0.84,0.53,1,1,1,1,1,1,1,1,1,1,1,1
308.37,1,2.69,0.84,0.52,1,1,1,1,1,1,1,1,1,1,1,1
309.37,1,2.88,0.85,0.51,1,1,1,1,1,1,1,1,1,1,1,1
310.37,1,2.60,0.84,0.51,1,1,1,1,1,1,1,1,1,1,1,1
311.37,1,2.46,0.84,0.51,1,1,1,1,1,1,1,1,1,1,1,1
312.37,1,2.47,0.84,0.51,1,1,1,1,1,1,1,1,1,1,1,1
313.37,1,2.46,0.85,0.52,1,1,1,1,1,1,1,1,1,1,1,1
314.38,1,2.37,0.84,0.52,1,1,1,1,1,1,1,1,1,1,1,1
315.38,1,2.33,0.84,0.52,1,1,1,1,1,1,1,1,1,1,1,1
316.38,1,2.31,0.84,0.52,1,1,1,1,1,1,1,1,1,1,1,1
317.38,1,2.41,0.85,0.53,1,1,1,1,1,1,1,1,1,1,1,1
318.38,1,2.44,0.84,0.52,1,1,1,1,1,1,1,1,1,1,1,1
319.38,1,2.52,0.84,0.52,1,1,1,1,1,1,1,1,1,1,1,1
320.38,1,2.55,0.84,0.52,1,1,1,1,1,1,1,1,1,1,1,1
321.38,1,2.57,0.84,0.51,1,1,1,1,1,1,1,1,1,1,1,1
322.38,1,2.66,0.84,0.50,1,1,1,1,1,1,1,1,1,1,1,1
323.38,1,2.64,0.84,0.50,1,1,1,1,1,1,1,1,1,1,1,1
324.39,1,2.55,0.83,0.48,1,1,1,1,1,1,1,1,1,1,1,1
325.39,1,2.49,0.83,0.48,1,1,1,1,1,1,1,1,1,1,1,1
326.39,1,2.49,0.83,0.48,1,1,1,1,1,1,1,1,1,1,1,1
327.39,1,2.47,0.83,0.48,1,1,1,1,1,1,1,1,1,1,1,1
328.39,1,2.32,0.83,0.47,1,1,1,1,1,1,1,1,1,1,1,1
329.39,1,2.26,0.83,0.47,1,1,1,1,1,1,1,1,1,1,1,1
330.39,1,2.42,0.83,0.48,1,1,1,1,1,1,1,1,1,1,1,1
331.39,1,2.48,0.83,0.48,1,1,1,1,1,1,1,1,1,1,1,1
332.39,1,2.47,0.83,0.48,1,1,1,1,1,1,1,1,1,1,1,1
333.39,1,2.60,0.84,0.49,1,1,1,1,1,1,1,1,1,1,1,1
334.39,1,2.68,0.84,0.50,1,1,1,1,1,1,1,1,1,1,1,1
335.40,1,2.69,0.84,0.50,1,1,1,1,1,1,1,1,1,1,1,1
336.40,1,2.64,0.85,0.50,1,1,1,1,1,1,1,1,1,1,1,1
337.40,1,2.45,0.84,0.50,1,1,1,1,1,1,1,1,1,1,1,1
338.40,1,2.48,0.84,0.49,1,1,1,1,1,1,1,1,1,1,1,1
339.40,1,2.46,0.84,0.50,1,1,1,1,1,1,1,1,1,1,1,1
340.40,1,2.40,0.83,0.50,1,1,1,1,1,1,1,1,1,1,1,1
341.40,1,2.34,0.83,0.50,1,1,1,1,1,1,1,1,1,1,1,1
342.40,1,2.49,0.83,0.50,1,1,1,1,1,1,1,1,1,1,1,1
343.40,1,2.52,0.84,0.51,1,1,1,1,1,1,1,1,1,1,1,1
344.41,1,2.47,0.84,0.52,1,1,1,1,1,1,1,1,1,1,1,1
345.41,1,2.62,0.84,0.53,1,1,1,1,1,1,1,1,1,1,1,1
346.41,1,2.67,0.85,0.53,1,1,1,1,1,1,1,1,1,1,1,1
347.41,1,2.64,0.85,0.53,1,1,1,1,1,1,1,1,1,1,1,1
348.41,1,2.54,0.85,0.52,1,1,1,1,1,1,1,1,1,1,1,1
349.41,1,2.47,0.85,0.51,1,1,1,1,1,1,1,1,1,1,1,1
350.41,1,2.46,0.84,0.50,1,1,1,1,1,1,1,1,1,1,1,1
351.41,1,2.45,0.84,0.49,1,1,1,1,1,1,1,1,1,1,1,1
352.41,1,2.37,0.84,0.49,1,1,1,1,1,1,1,1,1,1,1,1
353.42,1,2.38,0.83,0.49,1,1,1,1,1,1,1,1,1,1,1,1
354.42,1,2.54,0.84,0.50,1,1,1,1,1,1,1,1,1,1,1,1
355.42,1,2.63,0.84,0.51,1,1,1,1,1,1,1,1,1,1,1,1
356.42,1,2.71,0.85,0.53,1,1,1,1,1,1,1,1,1,1,1,1
357.42,1,2.65,0.85,0.53,1,1,1,1,1,1,1,1,1,1,1,1
358.42,1,2.53,0.85,0.53,1,1,1,1,1,1,1,1,1,1,1,1
359.42,1,2.48,0.85,0.52,1,1,1,1,1,1,1,1,1,1,1,1
360.42,1,2.44,0.85,0.51,1,1,1,1,1,1,1,1,1,1,1,1
361.42,1,2.31,0.84,0.49,1,1,1,1,1,1,1,1,1,1,1,1
362.42,1,2.34,0.83,0.47,1,1,1,1,1,1,1,1,1,1,1,1
363.42,1,2.47,0.83,0.47,1,1,1,1,1,1,1,1,1,1,1,1
364.43,1,2.51,0.83,0.48,1,1,1,1,1,1,1,1,1,1,1,1
365.43,1,2.49,0.83,0.49,1,1,1,1,1,1,1,1,1,1,1,1
366.43,1,2.59,0.84,0.50,1,1,1,1,1,1,1,1,1,1,1,1
367.43,1,2.54,0.84,0.51,1,1,1,1,1,1,1,1,1,1,1,1
368.43,1,2.65,0.85,0.52,1,1,1,1,1,1,1,1,1,1,1,1
369.43,1,2.53,0.85,0.52,1,1,1,1,1,1,1,1,1,1,1,1
370.43,1,2.47,0.84,0.50,1,1,1,1,1,1,1,1,1,1,1,1
371.43,1,2.45,0.84,0.48,1,1,1,1,1,1,1,1,1,1,1,1
372.43,1,2.28,0.83,0.46,1,1,1,1,1,1,1,1,0,1,1,1
373.44,1,2.36,0.83,0.45,1,1,1,1,1,1,1,1,0,1,1,1
374.44,1,2.43,0.82,0.45,1,1,1,1,1,1,1,1,0,0,1,1
375.44,1,2.44,0.82,0.46,1,1,1,1,1,1,1,1,0,0,1,1
376.44,1,2.50,0.83,0.48,1,1,1,1,1,1,1,1,1,1,1,1
377.44,1,2.65,0.83,0.50,1,1,1,1,1,1,1,1,1,1,1,1
378.44,1,2.71,0.84,0.51,1,1,1,1,1,1,1,1,1,1,1,1
379.44,1,2.62,0.84,0.51,1,1,1,1,1,1,1,1,1,1,1,1
380.44,1,2.52,0.84,0.52,1,1,1,1,1,1,1,1,1,1,1,1
381.44,1,2.46,0.84,0.51,1,1,1,1,1,1,1,1,1,1,1,1
382.44,1,2.43,0.84,0.50,1,1,1,1,1,1,1,1,1,1,1,1
383.45,1,2.31,0.83,0.47,1,1,1,1,1,1,1,1,1,1,1,1
384.45,1,2.43,0.83,0.47,1,1,1,1,1,1,1,1,1,1,1,1
385.45,1,2.51,0.83,0.48,1,1,1,1,1,1,1,1,1,1,1,1
386.45,1,2.49,0.83,0.49,1,1,1,1,1,1,1,1,1,1,1,1
387.45,1,2.63,0.84,0.51,1,1,1,1,1,1,1,1,1,1,1,1
388.45,1,2.67,0.84,0.53,1,1,1,1,1,1,1,1,1,1,1,1
389.45,1,2.67,0.85,0.54,1,1,1,1,1,1,1,1,1,1,1,1
390.45,1,2.55,0.85,0.55,1,1,1,1,1,1,1,1,1,1,1,1
391.45,1,2.47,0.85,0.54,1,1,1,1,1,1,1,1,1,1,1,1
392.45,1,2.46,0.85,0.52,1,1,1,1,1,1,1,1,1,1,1,1
393.46,1,2.33,0.84,0.50,1,1,1,1,1,1,1,1,1,1,1,1
394.46,1,2.33,0.83,0.48,1,1,1,1,1,1,1,1,1,1,1,1
395.46,1,2.40,0.83,0.48,1,1,1,1,1,1,1,1,1,1,1,1
396.46,1,2.47,0.83,0.48,1,1,1,1,1,1,1,1,1,1,1,1
397.46,1,2.50,0.83,0.49,1,1,1,1,1,1,1,1,1,1,1,1
398.46,1,2.62,0.84,0.51,1,1,1,1,1,1,1,1,1,1,1,1
399.46,1,3.18,0.86,0.55,1,1,1,1,1,1,1,1,1,1,1,1
400.46,1,2.63,0.86,0.55,1,1,1,1,1,1,1,1,1,1,1,1
401.46,1,2.56,0.86,0.55,1,1,1,1,1,1,1,1,1,1,1,1
402.47,1,2.47,0.86,0.53,1,1,1,1,1,1,1,1,1,1,1,1
403.47,1,2.47,0.85,0.51,1,1,1,1,1,1,1,1,1,1,1,1
404.47,1,2.37,0.85,0.49,1,1,1,1,1,1,1,1,1,1,1,1
405.47,1,2.49,0.84,0.49,1,1,1,1,1,1,1,1,1,1,1,1
406.47,1,2.44,0.84,0.49,1,1,1,1,1,1,1,1,1,1,1,1
407.47,1,2.45,0.84,0.49,1,1,1,1,1,1,1,1,1,1,1,1
408.47,1,2.50,0.85,0.51,1,1,1,1,1,1,1,1,1,1,1,1
409.47,1,2.51,0.85,0.53,1,1,1,1,1,1,1,1,1,1,1,1
410.47,1,2.71,0.86,0.55,1,1,1,1,1,1,1,1,1,1,1,1
411.47,1,2.65,0.86,0.55,1,1,1,1,1,1,1,1,1,1,1,1
412.48,1,2.53,0.86,0.55,1,1,1,1,1,1,1,1,1,1,1,1
413.48,1,2.48,0.86,0.53,1,1,1,1,1,1,1,1,1,1,1,1
414.48,1,2.48,0.84,0.48,1,1,1,1,1,1,1,1,1,1,1,1
415.48,1,2.35,0.84,0.46,1,1,1,1,1,1,1,1,1,1,1,1
416.48,1,2.40,0.83,0.46,1,1,1,1,1,1,1,1,0,1,1,1
417.48,1,2.42,0.83,0.46,1,1,1,1,1,1,1,1,0,1,1,1
418.48,1,2.45,0.83,0.47,1,1,1,1,1,1,1,1,1,1,1,1
419.48,1,2.49,0.84,0.48,1,1,1,1,1,1,1,1,1,1,1,1
420.48,1,2.59,0.84,0.49,1,1,1,1,1,1,1,1,1,1,1,1
421.48,1,2.84,0.85,0.50,1,1,1,1,1,1,1,1,1,1,1,1
422.49,1,2.64,0.85,0.51,1,1,1,1,1,1,1,1,1,1,1,1
423.49,1,2.48,0.85,0.51,1,1,1,1,1,1,1,1,1,1,1,1
424.49,1,2.47,0.85,0.50,1,1,1,1,1,1,1,1,1,1,1,1
425.49,1,2.27,0.84,0.47,1,1,1,1,1,1,1,1,1,1,1,1
426.49,1,2.38,0.83,0.45,1,1,1,1,1,1,1,1,0,1,1,1
427.49,1,2.37,0.83,0.45,1,1,1,1,1,1,1,1,0,1,1,1
428.49,1,2.45,0.83,0.45,1,1,1,1,1,1,1,1,0,1,1,1
429.49,1,2.48,0.83,0.48,1,1,1,1,1,1,1,1,1,1,1,1
430.49,1,2.58,0.83,0.49,1,1,1,1,1,1,1,1,1,1,1,1
431.50,1,2.67,0.84,0.51,1,1,1,1,1,1,1,1,1,1,1,1
432.50,1,2.66,0.85,0.52,1,1,1,1,1,1,1,1,1,1,1,1
433.50,1,2.54,0.85,0.52,1,1,1,1,1,1,1,1,1,1,1,1
434.50,1,2.50,0.85,0.52,1,1,1,1,1,1,1,1,1,1,1,1
435.50,1,2.50,0.85,0.51,1,1,1,1,1,1,1,1,1,1,1,1
436.50,1,2.38,0.84,0.48,1,1,1,1,1,1,1,1,1,1,1,1
437.50,1,2.35,0.83,0.46,1,1,1,1,1,1,1,1,0,1,1,1
438.50,1,2.42,0.83,0.46,1,1,1,1,1,1,1,1,0,1,1,1
439.50,1,2.44,0.83,0.46,1,1,1,1,1,1,1,1,0,1,1,1
440.50,1,2.50,0.83,0.49,1,1,1,1,1,1,1,1,1,1,1,1
441.51,1,2.65,0.84,0.51,1,1,1,1,1,1,1,1,1,1,1,1
442.51,1,2.70,0.84,0.53,1,1,1,1,1,1,1,1,1,1,1,1
443.51,1,2.75,0.85,0.54,1,1,1,1,1,1,1,1,1,1,1,1
444.51,1,2.52,0.85,0.54,1,1,1,1,1,1,1,1,1,1,1,1
445.51,1,2.49,0.85,0.53,1,1,1,1,1,1,1,1,1,1,1,1
446.51,1,2.44,0.85,0.51,1,1,1,1,1,1,1,1,1,1,1,1
447.51,1,2.31,0.84,0.49,1,1,1,1,1,1,1,1,1,1,1,1
448.51,1,2.35,0.83,0.48,1,1,1,1,1,1,1,1,1,1,1,1
449.51,1,2.44,0.83,0.47,1,1,1,1,1,1,1,1,1,1,1,1
450.51,1,2.50,0.83,0.48,1,1,1,1,1,1,1,1,1,1,1,1
451.52,1,2.58,0.84,0.50,1,1,1,1,1,1,1,1,1,1,1,1
452.52,1,2.74,0.85,0.53,1,1,1,1,1,1,1,1,1,1,1,1
453.52,1,2.57,0.85,0.54,1,1,1,1,1,1,1,1,1,1,1,1
454.52,1,2.51,0.85,0.54,1,1,1,1,1,1,1,1,1,1,1,1
455.52,1,2.48,0.85,0.53,1,1,1,1,1,1,1,1,1,1,1,1
456.52,1,2.38,0.84,0.51,1,1,1,1,1,1,1,1,1,1,1,1
457.52,1,2.34,0.84,0.49,1,1,1,1,1,1,1,1,1,1,1,1
458.52,1,2.44,0.83,0.46,1,1,1,1,1,1,1,1,0,1,1,1
459.52,1,2.47,0.83,0.46,1,1,1,1,1,1,1,1,0,1,1,1
460.52,1,2.50,0.83,0.46,1,1,1,1,1,1,1,1,0,1,1,1
461.53,1,2.64,0.83,0.48,1,1,1,1,1,1,1,1,1,1,1,1
462.53,1,2.68,0.84,0.51,1,1,1,1,1,1,1,1,1,1,1,1
463.53,1,2.56,0.85,0.52,1,1,1,1,1,1,1,1,1,1,1,1
464.53,1,2.47,0.85,0.52,1,1,1,1,1,1,1,1,1,1,1,1
465.53,1,2.41,0.84,0.52,1,1,1,1,1,1,1,1,1,1,1,1
466.53,1,2.37,0.84,0.50,1,1,1,1,1,1,1,1,1,1,1,1
467.53,1,2.24,0.83,0.47,1,1,1,1,1,1,1,1,1,1,1,1
468.53,1,2.42,0.83,0.46,1,1,1,1,1,1,1,1,0,1,1,1
469.53,1,2.48,0.82,0.46,1,1,1,1,1,1,1,1,0,1,1,1
470.54,1,2.56,0.83,0.46,1,1,1,1,1,1,1,1,0,1,1,1
471.54,1,2.67,0.83,0.48,1,1,1,1,1,1,1,1,1,1,1,1
472.54,1,2.65,0.84,0.51,1,1,1,1,1,1,1,1,1,1,1,1
473.54,1,2.51,0.84,0.52,1,1,1,1,1,1,1,1,1,1,1,1
474.54,1,2.47,0.84,0.52,1,1,1,1,1,1,1,1,1,1,1,1
475.54,1,2.36,0.84,0.52,1,1,1,1,1,1,1,1,1,1,1,1
476.54,1,2.40,0.83,0.50,1,1,1,1,1,1,1,1,1,1,1,1
477.54,1,2.44,0.83,0.48,1,1,1,1,1,1,1,1,1,1,1,1
478.54,1,2.44,0.82,0.46,1,1,1,1,1,1,1,1,0,0,1,1
479.54,1,2.48,0.82,0.46,1,1,1,1,1,1,1,1,0,1,1,1
480.55,1,2.66,0.83,0.48,1,1,1,1,1,1,1,1,1,1,1,1
481.55,1,2.85,0.84,0.50,1,1,1,1,1,1,1,1,1,1,1,1
482.55,1,2.57,0.85,0.53,1,1,1,1,1,1,1,1,1,1,1,1
483.55,1,2.51,0.85,0.54,1,1,1,1,1,1,1,1,1,1,1,1
484.55,1,2.50,0.85,0.54,1,1,1,1,1,1,1,1,1,1,1,1
485.55,1,2.38,0.85,0.53,1,1,1,1,1,1,1,1,1,1,1,1
486.55,1,2.32,0.84,0.51,1,1,1,1,1,1,1,1,1,1,1,1
487.55,1,2.37,0.83,0.49,1,1,1,1,1,1,1,1,1,1,1,1
488.55,1,2.54,0.83,0.49,1,1,1,1,1,1,1,1,1,1,1,1
489.55,1,2.51,0.83,0.49,1,1,1,1,1,1,1,1,1,1,1,1
490.55,1,2.65,0.84,0.50,1,1,1,1,1,1,1,1,1,1,1,1
491.56,1,2.62,0.85,0.52,1,1,1,1,1,1,1,1,1,1,1,1
492.56,1,2.62,0.85,0.54,1,1,1,1,1,1,1,1,1,1,1,1
493.56,1,2.43,0.85,0.54,1,1,1,1,1,1,1,1,1,1,1,1
494.56,1,2.51,0.85,0.54,1,1,1,1,1,1,1,1,1,1,1,1
495.56,1,2.36,0.84,0.52,1,1,1,1,1,1,1,1,1,1,1,1
496.56,1,2.25,0.83,0.48,1,1,1,1,1,1,1,1,1,1,1,1
497.56,1,2.36,0.82,0.46,1,1,1,1,1,1,1,1,0,1,1,1
498.56,1,2.40,0.82,0.45,1,1,1,1,1,1,1,1,0,0,1,1
499.56,1,2.50,0.82,0.45,1,1,1,1,1,1,1,1,0,0,1,1
500.57,1,2.61,0.83,0.47,1,1,1,1,1,1,1,1,0,1,1,1
501.57,1,2.65,0.84,0.49,1,1,1,1,1,1,1,1,1,1,1,1
502.57,1,2.49,0.84,0.51,1,1,1,1,1,1,1,1,1,1,1,1
503.57,1,2.48,0.84,0.51,1,1,1,1,1,1,1,1,1,1,1,1
504.57,1,2.43,0.83,0.50,1,1,1,1,1,1,1,1,1,1,1,1
505.57,1,2.36,0.83,0.48,1,1,1,1,1,1,1,1,1,1,1,1
506.57,1,2.42,0.82,0.46,1,1,1,1,1,1,1,1,0,0,1,1
507.57,1,2.45,0.82,0.45,1,1,1,1,1,1,1,1,0,0,1,1
508.57,1,2.45,0.82,0.45,1,1,1,1,1,1,1,1,0,0,1,1
509.58,1,2.49,0.82,0.45,1,1,1,1,1,1,1,1,0,0,1,1
510.58,1,2.66,0.83,0.47,1,1,1,1,1,1,1,1,1,1,1,1
511.58,1,2.64,0.84,0.51,1,1,1,1,1,1,1,1,1,1,1,1
512.58,1,2.60,0.84,0.53,1,1,1,1,1,1,1,1,1,1,1,1
513.58,1,2.47,0.84,0.53,1,1,1,1,1,1,1,1,1,1,1,1
514.58,1,2.46,0.84,0.53,1,1,1,1,1,1,1,1,1,1,1,1
515.58,1,2.35,0.84,0.51,1,1,1,1,1,1,1,1,1,1,1,1
516.58,1,2.33,0.83,0.49,1,1,1,1,1,1,1,1,1,1,1,1
517.58,1,2.44,0.83,0.48,1,1,1,1,1,1,1,1,1,1,1,1
518.58,1,2.43,0.83,0.48,1,1,1,1,1,1,1,1,1,1,1,1
519.59,1,2.58,0.83,0.49,1,1,1,1,1,1,1,1,1,1,1,1
520.59,1,2.46,0.83,0.51,1,1,1,1,1,1,1,1,1,1,1,1
521.59,1,2.58,0.84,0.52,1,1,1,1,1,1,1,1,1,1,1,1
522.59,1,2.60,0.84,0.53,1,1,1,1,1,1,1,1,1,1,1,1
523.59,1,2.50,0.84,0.53,1,1,1,1,1,1,1,1,1,1,1,1
524.59,1,2.49,0.84,0.53,1,1,1,1,1,1,1,1,1,1,1,1
525.59,1,2.33,0.83,0.51,1,1,1,1,1,1,1,1,1,1,1,1
526.59,1,2.21,0.82,0.48,1,1,1,1,1,0,1,1,1,0,1,1
527.59,1,2.41,0.82,0.46,1,1,1,1,1,0,1,1,0,0,1,1
528.59,1,2.53,0.82,0.46,1,1,1,1,1,1,1,1,0,0,1,1
529.59,1,2.49,0.82,0.47,1,1,1,1,1,1,1,1,0,0,1,1
530.60,1,2.65,0.83,0.49,1,1,1,1,1,1,1,1,1,1,1,1
531.60,1,2.69,0.84,0.51,1,1,1,1,1,1,1,1,1,1,1,1
532.60,1,2.62,0.84,0.52,1,1,1,1,1,1,1,1,1,1,1,1
533.60,1,2.63,0.84,0.53,1,1,1,1,1,1,1,1,1,1,1,1
534.60,1,2.49,0.84,0.52,1,1,1,1,1,1,1,1,1,1,1,1
535.60,1,2.48,0.84,0.52,1,1,1,1,1,1,1,1,1,1,1,1
536.60,1,2.40,0.84,0.50,1,1,1,1,1,1,1,1,1,1,1,1
537.60,1,2.37,0.83,0.49,1,1,1,1,1,1,1,1,1,1,1,1
538.60,1,2.41,0.83,0.49,1,1,1,1,1,1,1,1,1,1,1,1
539.61,1,2.50,0.83,0.49,1,1,1,1,1,1,1,1,1,1,1,1
540.61,1,2.50,0.84,0.50,1,1,1,1,1,1,1,1,1,1,1,1
541.61,1,2.64,0.84,0.54,1,1,1,1,1,1,1,1,1,1,1,1
542.61,1,2.66,0.85,0.55,1,1,1,1,1,1,1,1,1,1,1,1
543.61,1,2.52,0.85,0.55,1,1,1,1,1,1,1,1,1,1,1,1
544.61,1,2.53,0.85,0.55,1,1,1,1,1,1,1,1,1,1,1,1
545.61,1,2.50,0.85,0.53,1,1,1,1,1,1,1,1,1,1,1,1
546.61,1,2.47,0.84,0.51,1,1,1,1,1,1,1,1,1,1,1,1
547.61,1,2.39,0.84,0.50,1,1,1,1,1,1,1,1,1,1,1,1
548.61,1,2.36,0.83,0.48,1,1,1,1,1,1,1,1,1,1,1,1
549.62,1,2.39,0.83,0.48,1,1,1,1,1,1,1,1,1,1,1,1
550.62,1,2.43,0.83,0.48,1,1,1,1,1,1,1,1,1,1,1,1
551.62,1,2.47,0.83,0.49,1,1,1,1,1,1,1,1,1,1,1,1
552.62,1,2.48,0.83,0.50,1,1,1,1,1,1,1,1,1,1,1,1
553.62,1,2.58,0.84,0.51,1,1,1,1,1,1,1,1,1,1,1,1
554.62,1,2.66,0.84,0.51,1,1,1,1,1,1,1,1,1,1,1,1
555.62,1,2.50,0.84,0.51,1,1,1,1,1,1,1,1,1,1,1,1
556.62,1,2.55,0.84,0.49,1,1,1,1,1,1,1,1,1,1,1,1
557.62,1,2.50,0.83,0.47,1,1,1,1,1,1,1,1,1,1,1,1
558.63,1,2.46,0.83,0.47,1,1,1,1,1,1,1,1,1,1,1,1
559.63,1,2.47,0.83,0.47,1,1,1,1,1,1,1,1,1,1,1,1
560.63,1,2.31,0.83,0.47,1,1,1,1,1,1,1,1,0,1,1,1
561.63,1,2.46,0.83,0.47,1,1,1,1,1,1,1,1,1,1,1,1
562.63,1,2.46,0.83,0.48,1,1,1,1,1,1,1,1,1,1,1,1
563.63,1,2.44,0.83,0.50,1,1,1,1,1,1,1,1,1,1,1,1
564.63,1,2.46,0.83,0.50,1,1,1,1,1,1,1,1,1,1,1,1
565.63,1,2.49,0.83,0.51,1,1,1,1,1,1,1,1,1,1,1,1
566.63,1,2.60,0.84,0.51,1,1,1,1,1,1,1,1,1,1,1,1
567.63,1,2.75,0.84,0.52,1,1,1,1,1,1,1,1,1,1,1,1
568.64,1,2.54,0.84,0.51,1,1,1,1,1,1,1,1,1,1,1,1
569.64,1,2.51,0.84,0.50,1,1,1,1,1,1,1,1,1,1,1,1
570.64,1,2.53,0.84,0.50,1,1,1,1,1,1,1,1,1,1,1,1
571.64,1,2.46,0.84,0.50,1,1,1,1,1,1,1,1,1,1,1,1
572.64,1,2.47,0.84,0.50,1,1,1,1,1,1,1,1,1,1,1,1
573.64,1,2.38,0.83,0.50,1,1,1,1,1,1,1,1,1,1,1,1
574.64,1,2.38,0.83,0.50,1,1,1,1,1,1,1,1,1,1,1,1
575.64,1,2.39,0.83,0.51,1,1,1,1,1,1,1,1,1,1,1,1
576.64,1,2.41,0.83,0.51,1,1,1,1,1,1,1,1,1,1,1,1
577.64,1,2.44,0.83,0.51,1,1,1,1,1,1,1,1,1,1,1,1
578.65,1,2.48,0.83,0.50,1,1,1,1,1,1,1,1,1,1,1,1
579.65,1,2.59,0.84,0.51,1,1,1,1,1,1,1,1,1,1,1,1
580.65,1,2.67,0.84,0.51,1,1,1,1,1,1,1,1,1,1,1,1
581.65,1,2.59,0.84,0.51,1,1,1,1,1,1,1,1,1,1,1,1
582.65,1,2.49,0.83,0.49,1,1,1,1,1,1,1,1,1,1,1,1
583.65,1,2.55,0.83,0.49,1,1,1,1,1,1,1,1,1,1,1,1
584.65,1,2.46,0.83,0.49,1,1,1,1,1,1,1,1,1,1,1,1
585.65,1,2.49,0.83,0.49,1,1,1,1,1,1,1,1,1,1,1,1
586.65,1,2.39,0.83,0.49,1,1,1,1,1,1,1,1,1,1,1,1
587.66,1,2.38,0.83,0.49,1,1,1,1,1,1,1,1,1,1,1,1
588.66,1,2.39,0.83,0.49,1,1,1,1,1,1,1,1,1,1,1,1
589.66,1,2.55,0.83,0.50,1,1,1,1,1,1,1,1,1,1,1,1
590.66,1,2.44,0.83,0.50,1,1,1,1,1,1,1,1,1,1,1,1
591.66,1,2.53,0.84,0.51,1,1,1,1,1,1,1,1,1,1,1,1
592.66,1,2.55,0.84,0.51,1,1,1,1,1,1,1,1,1,1,1,1
593.66,1,2.70,0.84,0.52,1,1,1,1,1,1,1,1,1,1,1,1
594.66,1,2.73,0.85,0.52,1,1,1,1,1,1,1,1,1,1,1,1
595.66,1,2.58,0.85,0.51,1,1,1,1,1,1,1,1,1,1,1,1
596.66,1,2.51,0.84,0.51,1,1,1,1,1,1,1,1,1,1,1,1
597.66,1,2.47,0.84,0.52,1,1,1,1,1,1,1,1,1,1,1,1
598.67,1,2.46,0.84,0.51,1,1,1,1,1,1,1,1,1,1,1,1
599.67,1,2.43,0.84,0.51,1,1,1,1,1,1,1,1,1,1,1,1
600.67,1,2.35,0.84,0.51,1,1,1,1,1,1,1,1,1,1,1,1
601.67,1,2.47,0.84,0.51,1,1,1,1,1,1,1,1,1,1,1,1
602.67,1,2.52,0.84,0.52,1,1,1,1,1,1,1,1,1,1,1,1
603.67,1,2.49,0.84,0.53,1,1,1,1,1,1,1,1,1,1,1,1
604.67,1,2.61,0.85,0.52,1,1,1,1,1,1,1,1,1,1,1,1
605.67,1,2.65,0.85,0.53,1,1,1,1,1,1,1,1,1,1,1,1
606.67,1,2.55,0.85,0.52,1,1,1,1,1,1,1,1,1,1,1,1
607.67,1,2.47,0.85,0.52,1,1,1,1,1,1,1,1,1,1,1,1
608.68,1,2.44,0.84,0.50,1,1,1,1,1,1,1,1,1,1,1,1
609.68,1,2.39,0.84,0.48,1,1,1,1,1,1,1,1,1,1,1,1
610.68,1,2.39,0.83,0.48,1,1,1,1,1,1,1,1,1,1,1,1
611.68,1,2.44,0.83,0.48,1,1,1,1,1,1,1,1,1,1,1,1
612.68,1,2.50,0.83,0.48,1,1,1,1,1,1,1,1,1,1,1,1
613.68,1,2.49,0.83,0.48,1,1,1,1,1,1,1,1,1,1,1,1
614.68,1,2.66,0.84,0.49,1,1,1,1,1,1,1,1,1,1,1,1
615.68,1,2.65,0.84,0.51,1,1,1,1,1,1,1,1,1,1,1,1
616.68,1,2.55,0.84,0.51,1,1,1,1,1,1,1,1,1,1,1,1
617.69,1,2.47,0.84,0.50,1,1,1,1,1,1,1,1,1,1,1,1
618.69,1,2.43,0.84,0.50,1,1,1,1,1,1,1,1,1,1,1,1
619.69,1,2.40,0.84,0.49,1,1,1,1,1,1,1,1,1,1,1,1
620.69,1,2.39,0.83,0.47,1,1,1,1,1,1,1,1,1,1,1,1
621.69,1,2.45,0.83,0.46,1,1,1,1,1,1,1,1,0,1,1,1
622.69,1,2.53,0.83,0.47,1,1,1,1,1,1,1,1,1,1,1,1
623.69,1,2.66,0.84,0.49,1,1,1,1,1,1,1,1,1,1,1,1
624.69,1,2.66,0.84,0.51,1,1,1,1,1,1,1,1,1,1,1,1
625.69,1,2.75,0.85,0.53,1,1,1,1,1,1,1,1,1,1,1,1
626.70,1,2.49,0.85,0.54,1,1,1,1,1,1,1,1,1,1,1,1
627.70,1,2.47,0.85,0.53,1,1,1,1,1,1,1,1,1,1,1,1
628.70,1,2.37,0.85,0.53,1,1,1,1,1,1,1,1,1,1,1,1
629.70,1,2.46,0.84,0.51,1,1,1,1,1,1,1,1,1,1,1,1
630.70,1,2.51,0.84,0.50,1,1,1,1,1,1,1,1,1,1,1,1
631.70,1,2.45,0.84,0.49,1,1,1,1,1,1,1,1,1,1,1,1
632.70,1,2.56,0.84,0.49,1,1,1,1,1,1,1,1,1,1,1,1
633.70,1,2.58,0.84,0.50,1,1,1,1,1,1,1,1,1,1,1,1
634.70,1,2.85,0.85,0.53,1,1,1,1,1,1,1,1,1,1,1,1
635.70,1,2.58,0.86,0.54,1,1,1,1,1,1,1,1,1,1,1,1
636.71,1,2.47,0.86,0.55,1,1,1,1,1,1,1,1,1,1,1,1
637.71,1,2.48,0.86,0.54,1,1,1,1,1,1,1,1,1,1,1,1
638.71,1,2.37,0.85,0.52,1,1,1,1,1,1,1,1,1,1,1,1
639.71,1,2.34,0.84,0.50,1,1,1,1,1,1,1,1,1,1,1,1
640.71,1,2.40,0.84,0.48,1,1,1,1,1,1,1,1,1,1,1,1
641.71,1,2.48,0.84,0.47,1,1,1,1,1,1,1,1,1,1,1,1
642.71,1,2.51,0.84,0.48,1,1,1,1,1,1,1,1,1,1,1,1
643.71,1,2.62,0.84,0.49,1,1,1,1,1,1,1,1,1,1,1,1
644.71,1,2.51,0.84,0.50,1,1,1,1,1,1,1,1,1,1,1,1
645.71,1,2.54,0.84,0.51,1,1,1,1,1,1,1,1,1,1,1,1
646.72,1,2.48,0.84,0.51,1,1,1,1,1,1,1,1,1,1,1,1
647.72,1,2.29,0.84,0.50,1,1,1,1,1,1,1,1,1,1,1,1
648.72,1,2.37,0.83,0.48,1,1,1,1,1,1,1,1,1,1,1,1
649.72,1,2.39,0.82,0.45,1,1,1,1,1,1,1,1,0,0,1,1
650.72,1,2.41,0.82,0.44,1,1,1,1,1,1,1,1,0,0,1,1
651.72,1,2.47,0.82,0.43,1,1,1,1,1,1,1,1,0,0,1,1
652.72,1,2.55,0.82,0.44,1,1,1,1,1,1,1,1,0,0,1,1
653.72,1,2.60,0.83,0.46,1,1,1,1,1,1,1,1,0,1,1,1
654.72,1,2.61,0.83,0.48,1,1,1,1,1,1,1,1,1,1,1,1
655.72,1,2.48,0.83,0.50,1,1,1,1,1,1,1,1,1,1,1,1
656.73,1,2.47,0.83,0.50,1,1,1,1,1,1,1,1,1,1,1,1
657.73,1,2.33,0.83,0.49,1,1,1,1,1,1,1,1,1,1,1,1
658.73,1,2.41,0.83,0.47,1,1,1,1,1,1,1,1,1,1,1,1
659.73,1,2.46,0.82,0.47,1,1,1,1,1,1,1,1,0,0,1,1
660.73,1,2.56,0.82,0.47,1,1,1,1,1,1,1,1,0,1,1,1
661.73,1,2.81,0.83,0.48,1,1,1,1,1,1,1,1,1,1,1,1
662.73,1,2.62,0.84,0.50,1,1,1,1,1,1,1,1,1,1,1,1
663.73,1,2.57,0.84,0.52,1,1,1,1,1,1,1,1,1,1,1,1
664.73,1,2.47,0.85,0.54,1,1,1,1,1,1,1,1,1,1,1,1
665.73,1,2.46,0.85,0.55,1,1,1,1,1,1,1,1,1,1,1,1
666.74,1,2.36,0.84,0.54,1,1,1,1,1,1,1,1,1,1,1,1
667.74,1,2.39,0.84,0.53,1,1,1,1,1,1,1,1,1,1,1,1
668.74,1,2.46,0.84,0.52,1,1,1,1,1,1,1,1,1,1,1,1
669.74,1,2.46,0.83,0.50,1,1,1,1,1,1,1,1,1,1,1,1
670.74,1,2.58,0.84,0.50,1,1,1,1,1,1,1,1,1,1,1,1
671.74,1,2.64,0.84,0.51,1,1,1,1,1,1,1,1,1,1,1,1
672.74,1,2.58,0.85,0.53,1,1,1,1,1,1,1,1,1,1,1,1
673.74,1,2.46,0.85,0.54,1,1,1,1,1,1,1,1,1,1,1,1
674.74,1,2.48,0.85,0.54,1,1,1,1,1,1,1,1,1,1,1,1
675.75,1,2.36,0.84,0.53,1,1,1,1,1,1,1,1,1,1,1,1
676.75,1,2.37,0.83,0.50,1,1,1,1,1,1,1,1,1,1,1,1
677.75,1,2.49,0.83,0.48,1,1,1,1,1,1,1,1,1,1,1,1
678.75,1,2.47,0.83,0.47,1,1,1,1,1,1,1,1,1,1,1,1
679.75,1,2.58,0.83,0.47,1,1,1,1,1,1,1,1,1,1,1,1
680.75,1,2.66,0.83,0.48,1,1,1,1,1,1,1,1,1,1,1,1
681.75,1,2.58,0.84,0.49,1,1,1,1,1,1,1,1,1,1,1,1
682.75,1,2.50,0.84,0.50,1,1,1,1,1,1,1,1,1,1,1,1
683.75,1,2.47,0.84,0.51,1,1,1,1,1,1,1,1,1,1,1,1
684.75,1,2.36,0.84,0.51,1,1,1,1,1,1,1,1,1,1,1,1
685.76,1,2.33,0.83,0.50,1,1,1,1,1,1,1,1,1,1,1,1
686.76,1,2.44,0.83,0.48,1,1,1,1,1,1,1,1,1,1,1,1
687.76,1,2.44,0.83,0.47,1,1,1,1,1,1,1,1,0,1,1,1
688.76,1,2.49,0.83,0.47,1,1,1,1,1,1,1,1,0,1,1,1
689.76,1,2.61,0.83,0.47,1,1,1,1,1,1,1,1,1,1,1,1
690.76,1,2.88,0.84,0.50,1,1,1,1,1,1,1,1,1,1,1,1
691.76,1,2.57,0.85,0.52,1,1,1,1,1,1,1,1,1,1,1,1
692.76,1,2.48,0.85,0.53,1,1,1,1,1,1,1,1,1,1,1,1
693.76,1,2.46,0.85,0.53,1,1,1,1,1,1,1,1,1,1,1,1
694.76,1,2.42,0.84,0.52,1,1,1,1,1,1,1,1,1,1,1,1
695.77,1,2.43,0.84,0.50,1,1,1,1,1,1,1,1,1,1,1,1
696.77,1,2.45,0.83,0.49,1,1,1,1,1,1,1,1,1,1,1,1
697.77,1,2.52,0.83,0.49,1,1,1,1,1,1,1,1,1,1,1,1
698.77,1,2.58,0.84,0.49,1,1,1,1,1,1,1,1,1,1,1,1
699.77,1,2.63,0.84,0.51,1,1,1,1,1,1,1,1,1,1,1,1
700.77,1,2.57,0.85,0.52,1,1,1,1,1,1,1,1,1,1,1,1
701.77,1,2.48,0.85,0.53,1,1,1,1,1,1,1,1,1,1,1,1
702.77,1,2.48,0.85,0.54,1,1,1,1,1,1,1,1,1,1,1,1
703.77,1,2.38,0.85,0.53,1,1,1,1,1,1,1,1,1,1,1,1
704.78,1,2.36,0.84,0.52,1,1,1,1,1,1,1,1,1,1,1,1
705.78,1,2.42,0.83,0.48,1,1,1,1,1,1,1,1,1,1,1,1
706.78,1,2.45,0.83,0.47,1,1,1,1,1,1,1,1,1,1,1,1
707.78,1,2.48,0.83,0.47,1,1,1,1,1,1,1,1,1,1,1,1
708.78,1,2.48,0.83,0.47,1,1,1,1,1,1,1,1,1,1,1,1
709.78,1,2.53,0.83,0.48,1,1,1,1,1,1,1,1,1,1,1,1
710.78,1,2.49,0.83,0.49,1,1,1,1,1,1,1,1,1,1,1,1
711.78,1,2.48,0.83,0.50,1,1,1,1,1,1,1,1,1,1,1,1
712.78,1,2.47,0.83,0.50,1,1,1,1,1,1,1,1,1,1,1,1
713.78,1,2.37,0.83,0.49,1,1,1,1,1,1,1,1,1,1,1,1
714.78,1,2.41,0.82,0.47,1,1,1,1,1,1,1,1,0,0,1,1
715.79,1,2.43,0.82,0.45,1,1,1,1,1,1,1,1,0,0,1,1
716.79,1,2.47,0.82,0.45,1,1,1,1,1,1,1,1,0,0,1,1
717.79,1,2.50,0.82,0.45,1,1,1,1,1,1,1,1,0,0,1,1
718.79,1,2.64,0.83,0.46,1,1,1,1,1,1,1,1,0,1,1,1
719.79,1,2.63,0.83,0.48,1,1,1,1,1,1,1,1,1,1,1,1
720.79,1,2.60,0.84,0.51,1,1,1,1,1,1,1,1,1,1,1,1
721.79,1,2.49,0.84,0.51,1,1,1,1,1,1,1,1,1,1,1,1
722.79,1,2.45,0.84,0.51,1,1,1,1,1,1,1,1,1,1,1,1
723.79,1,2.36,0.83,0.51,1,1,1,1,1,1,1,1,1,1,1,1
724.79,1,2.41,0.83,0.50,1,1,1,1,1,1,1,1,1,1,1,1
725.80,1,2.44,0.83,0.49,1,1,1,1,1,1,1,1,1,1,1,1
726.80,1,2.45,0.83,0.49,1,1,1,1,1,1,1,1,1,1,1,1
727.80,1,2.59,0.83,0.50,1,1,1,1,1,1,1,1,1,1,1,1
728.80,1,2.65,0.84,0.52,1,1,1,1,1,1,1,1,1,1,1,1
729.80,1,2.59,0.84,0.53,1,1,1,1,1,1,1,1,1,1,1,1
730.80,1,2.45,0.84,0.54,1,1,1,1,1,1,1,1,1,1,1,1
731.80,1,2.48,0.84,0.54,1,1,1,1,1,1,1,1,1,1,1,1
732.80,1,2.41,0.84,0.53,1,1,1,1,1,1,1,1,1,1,1,1
733.80,1,2.43,0.84,0.52,1,1,1,1,1,1,1,1,1,1,1,1
734.81,1,2.47,0.83,0.50,1,1,1,1,1,1,1,1,1,1,1,1
735.81,1,2.48,0.83,0.49,1,1,1,1,1,1,1,1,1,1,1,1
736.81,1,2.64,0.83,0.49,1,1,1,1,1,1,1,1,1,1,1,1
737.81,1,2.99,0.85,0.52,1,1,1,1,1,1,1,1,1,1,1,1
738.81,1,2.59,0.85,0.53,1,1,1,1,1,1,1,1,1,1,1,1
739.81,1,2.48,0.85,0.54,1,1,1,1,1,1,1,1,1,1,1,1
740.81,1,2.44,0.85,0.54,1,1,1,1,1,1,1,1,1,1,1,1
741.81,1,2.38,0.85,0.54,1,1,1,1,1,1,1,1,1,1,1,1
742.81,1,2.39,0.85,0.52,1,1,1,1,1,1,1,1,1,1,1,1
743.82,1,2.46,0.84,0.51,1,1,1,1,1,1,1,1,1,1,1,1
744.82,1,2.48,0.84,0.50,1,1,1,1,1,1,1,1,1,1,1,1
745.82,1,2.58,0.84,0.50,1,1,1,1,1,1,1,1,1,1,1,1
746.82,1,2.62,0.85,0.50,1,1,1,1,1,1,1,1,1,1,1,1
747.82,1,2.60,0.85,0.52,1,1,1,1,1,1,1,1,1,1,1,1
748.82,1,2.46,0.85,0.52,1,1,1,1,1,1,1,1,1,1,1,1
749.82,1,2.44,0.85,0.53,1,1,1,1,1,1,1,1,1,1,1,1
750.82,1,2.40,0.85,0.53,1,1,1,1,1,1,1,1,1,1,1,1
751.82,1,2.34,0.84,0.51,1,1,1,1,1,1,1,1,1,1,1,1
752.82,1,2.48,0.83,0.47,1,1,1,1,1,1,1,1,1,1,1,1
753.83,1,2.45,0.83,0.46,1,1,1,1,1,1,1,1,0,1,1,1
754.83,1,2.47,0.83,0.46,1,1,1,1,1,1,1,1,0,1,1,1
755.83,1,2.64,0.83,0.46,1,1,1,1,1,1,1,1,0,1,1,1
756.83,1,2.57,0.84,0.47,1,1,1,1,1,1,1,1,1,1,1,1
757.83,1,2.48,0.84,0.49,1,1,1,1,1,1,1,1,1,1,1,1
